<?xml version="1.0" encoding="UTF-8"?>
<svg width="49px" height="49px" viewBox="0 0 49 49" version="1.1" xmlns="http://www.w3.org/2000/svg" xmlns:xlink="http://www.w3.org/1999/xlink">
    <!-- Generator: Sketch 46.1 (44463) - http://www.bohemiancoding.com/sketch -->
    <title>Page 1</title>
    <desc>Created with Sketch.</desc>
    <defs></defs>
    <g id="Symbols" stroke="none" stroke-width="1" fill="none" fill-rule="evenodd">
        <g id="DigitalMentorAsNextStep" transform="translate(-407.000000, -982.000000)" fill="#FFFFFF">
            <path d="M451.099896,1013.35988 C449.674033,1013.35988 448.400014,1013.98217 447.503314,1014.95726 L439.511608,1010.16272 C440.026101,1009.04802 440.320123,1007.80832 440.320123,1006.50006 C440.320123,1004.42005 439.592453,1002.51152 438.384665,1001.00238 L443.078837,996.308245 C444.22541,997.165738 445.641489,997.680221 447.180121,997.680221 C450.962854,997.680221 454.04037,994.603107 454.04037,990.82003 C454.04037,987.036953 450.96323,983.959839 447.180121,983.959839 C443.397012,983.959839 440.319873,987.036953 440.319873,990.82003 C440.319873,992.358587 440.834366,993.774654 441.69186,994.92128 L436.997688,999.615412 C435.488534,998.407572 433.579982,997.67997 431.499956,997.67997 C429.41993,997.67997 427.511378,998.407634 426.002224,999.615412 L415.984053,989.597326 C416.496101,988.823124 416.799907,987.89708 416.799907,986.899912 C416.799907,984.197607 414.602282,982 411.899954,982 C409.197625,982 407,984.197607 407,986.899912 C407,989.602218 409.197625,991.799824 411.899954,991.799824 C412.897067,991.799824 413.823181,991.496027 414.59739,990.983977 L424.615561,1001.00206 C423.40771,1002.5112 422.680102,1004.42219 422.680102,1006.49975 C422.680102,1009.20205 423.905075,1011.62263 425.825857,1013.24203 L424.919373,1014.60177 C423.909967,1016.11832 423.062314,1017.38492 422.684994,1017.95334 C421.793187,1017.52705 420.796074,1017.27962 419.74013,1017.27962 C415.957397,1017.27962 412.879882,1020.35673 412.879882,1024.13981 C412.879882,1027.92289 415.957021,1031 419.74013,1031 C423.523239,1031 426.600379,1027.92289 426.600379,1024.13981 C426.600379,1022.10389 425.703679,1020.27871 424.290047,1019.01938 C424.716344,1018.44118 425.38519,1017.43918 426.551395,1015.68744 L427.457879,1014.32769 C428.670621,1014.95733 430.045054,1015.3199 431.500332,1015.3199 C434.352121,1015.3199 436.887804,1013.95282 438.499818,1011.8434 L446.496542,1016.64039 C446.317692,1017.14998 446.200093,1017.68898 446.200093,1018.25979 C446.200093,1020.96209 448.397718,1023.1597 451.100046,1023.1597 C453.802375,1023.1597 456,1020.96209 456,1018.25979 C456,1015.55748 453.802375,1013.35988 451.100046,1013.35988 L451.099896,1013.35988 Z" id="Page-1"></path>
        </g>
    </g>
</svg>