<?xml version="1.0" encoding="UTF-8"?>
<svg width="15px" height="26px" viewBox="0 0 15 26" version="1.1" xmlns="http://www.w3.org/2000/svg" xmlns:xlink="http://www.w3.org/1999/xlink">
    <!-- Generator: Sketch 46.2 (44496) - http://www.bohemiancoding.com/sketch -->
    <title>Shape</title>
    <desc>Created with Sketch.</desc>
    <defs></defs>
    <g id="UI-MVP" stroke="none" stroke-width="1" fill="none" fill-rule="evenodd">
        <g id="Inspiring-startpage---Non-registered---extended---MacBook-Pro-13" transform="translate(-453.000000, -756.000000)" fill-rule="nonzero" fill="#717171">
            <g id="Group-11" transform="translate(453.000000, 756.000000)">
                <g id="arrow_black" transform="translate(7.500000, 13.000000) scale(-1, 1) translate(-7.500000, -13.000000) ">
                    <path d="M14.4584627,14.2833112 L3.15023292,25.4648074 C2.42818323,26.1783975 1.26358696,26.1783975 0.541537267,25.4648074 C-0.180512422,24.7512174 -0.180512422,23.6002656 0.541537267,22.8924303 L10.5512422,13 L0.541537267,3.10756972 C-0.180512422,2.39397964 -0.180512422,1.24302789 0.541537267,0.535192563 C1.26358696,-0.178397521 2.42818323,-0.178397521 3.15023292,0.535192563 L14.4584627,11.710934 C14.8194876,12.0677291 15,12.5338645 15,13 C15,13.4661355 14.8194876,13.9265162 14.4584627,14.2833112 Z" id="Shape"></path>
                </g>
            </g>
        </g>
    </g>
</svg>