<?xml version="1.0" encoding="UTF-8"?>
<svg width="1261px" height="650px" viewBox="0 0 1261 650" version="1.1" xmlns="http://www.w3.org/2000/svg" xmlns:xlink="http://www.w3.org/1999/xlink">
    <!-- Generator: Sketch 46.1 (44463) - http://www.bohemiancoding.com/sketch -->
    <title>Background symbols</title>
    <desc>Created with Sketch.</desc>
    <defs></defs>
    <g id="Symbols" stroke="none" stroke-width="1" fill="none" fill-rule="evenodd">
        <g id="Background-symbols">
            <g id="Group-10" transform="translate(365.000000, 17.000000)"></g>
            <g id="Group-2" opacity="0.170000002" transform="translate(120.000000, 43.000000)" fill="#FFFFFF">
                <path d="M636.25,540.5 L604,553.25 L636.25,566 L668.5,553.25 L636.25,540.5 Z M606.25,555.734 L606.25,564.078 C606.711,563.875 607.219,563.75 607.75,563.75 C608.281,563.75 608.789,563.875 609.25,564.078 L609.25,556.93 L606.25,555.734 Z M616,559.602 L616,570.5 C616,573.641 625.031,578 636.25,578 C647.469,578 656.5,573.641 656.5,570.5 L656.5,559.602 L636.812,567.383 C636.453,567.527 636.047,567.527 635.688,567.383 L616,559.602 Z M607.75,565.25 C606.508,565.25 605.5,566.258 605.5,567.5 C605.5,568.742 606.508,569.75 607.75,569.75 C608.992,569.75 610,568.742 610,567.5 C610,566.258 608.992,565.25 607.75,565.25 Z" id="Page-1"></path>
                <g id="Page-1" transform="translate(0.000000, 452.000000)">
                    <path d="M36.406,46.105 L35.07,45.68 C35.008,45.66 28.891,43.75 20.363,43.75 C15.348,43.75 10.492,44.406 5.93,45.691 L4.625,46.062 L4.625,3.344 L5.176,3.055 C5.41,2.93 11.086,0.016 20.047,0.016 C25.285,0.016 30.57,1.02 35.746,3.008 L36.402,3.262 L36.402,46.105 L36.406,46.105 Z M6.684,4.621 L6.684,43.363 C11.039,42.254 15.633,41.695 20.367,41.695 C26.938,41.695 32.047,42.762 34.355,43.348 L34.355,4.68 C29.629,2.949 24.816,2.074 20.051,2.074 C13.164,2.074 8.27,3.926 6.684,4.621 Z" id="Fill-1"></path>
                    <path d="M34.352,46.109 L34.352,3.262 L35.016,3.008 C40.191,1.02 45.473,0.016 50.711,0.016 C59.668,0.016 65.344,2.93 65.582,3.055 L66.137,3.344 L66.137,46.059 L64.828,45.688 C60.273,44.398 55.418,43.746 50.395,43.746 C41.848,43.746 35.754,45.656 35.691,45.676 L34.352,46.109 Z M50.395,41.695 C55.129,41.695 59.727,42.258 64.082,43.363 L64.082,4.621 C62.496,3.926 57.598,2.074 50.715,2.074 C45.949,2.074 41.145,2.949 36.41,4.68 L36.41,43.348 C38.719,42.762 43.824,41.695 50.395,41.695 Z" id="Fill-2"></path>
                    <polygon id="Fill-3" points="70.422 50.09 0.578 50.09 0.578 5.738 5.656 5.738 5.656 7.793 2.633 7.793 2.633 48.035 68.367 48.035 68.367 8.816 65.109 8.816 65.109 6.762 70.422 6.762"></polygon>
                    <polygon id="Fill-4" points="34.352 49.062 36.407 49.062 36.407 44.699 34.352 44.699"></polygon>
                    <path d="M13.031,10.688 L12.398,8.734 C12.773,8.613 21.559,5.828 29.262,8.75 L28.531,10.672 C21.508,8 13.113,10.656 13.031,10.688 Z" id="Fill-5"></path>
                    <path d="M13.031,19.949 L12.398,17.996 C12.773,17.879 21.559,15.094 29.262,18.012 L28.531,19.934 C21.508,17.266 13.113,19.926 13.031,19.949 Z" id="Fill-6"></path>
                    <path d="M13.031,29.215 L12.398,27.262 C12.773,27.141 21.559,24.355 29.262,27.277 L28.531,29.199 C21.508,26.531 13.113,29.188 13.031,29.215 Z" id="Fill-7"></path>
                    <path d="M13.031,38.48 L12.398,36.527 C12.773,36.41 21.559,33.625 29.262,36.543 L28.531,38.465 C21.508,35.793 13.113,38.453 13.031,38.48 Z" id="Fill-8"></path>
                    <path d="M13.031,33.848 L12.398,31.895 C12.773,31.773 21.559,28.988 29.262,31.91 L28.531,33.832 C21.508,31.16 13.113,33.82 13.031,33.848 Z" id="Fill-9"></path>
                    <path d="M13.031,24.586 L12.398,22.633 C12.773,22.512 21.559,19.727 29.262,22.648 L28.531,24.57 C21.508,21.895 13.113,24.555 13.031,24.586 Z" id="Fill-10"></path>
                    <path d="M13.031,15.316 L12.398,13.363 C12.773,13.242 21.559,10.461 29.262,13.379 L28.531,15.301 C21.508,12.629 13.113,15.289 13.031,15.316 Z" id="Fill-11"></path>
                    <path d="M42.469,10.688 L41.836,8.734 C42.211,8.613 51,5.828 58.699,8.75 L57.969,10.672 C50.949,8 42.551,10.656 42.469,10.688 Z" id="Fill-12"></path>
                    <path d="M42.469,19.949 L41.836,17.996 C42.211,17.879 51,15.094 58.699,18.012 L57.969,19.934 C50.949,17.266 42.551,19.926 42.469,19.949 Z" id="Fill-13"></path>
                    <path d="M42.469,29.215 L41.836,27.262 C42.211,27.141 51,24.355 58.699,27.277 L57.969,29.199 C50.949,26.531 42.551,29.188 42.469,29.215 Z" id="Fill-14"></path>
                    <path d="M42.469,38.48 L41.836,36.527 C42.211,36.41 51,33.625 58.699,36.543 L57.969,38.465 C50.949,35.793 42.551,38.453 42.469,38.48 Z" id="Fill-15"></path>
                    <path d="M42.469,33.848 L41.836,31.895 C42.211,31.773 51,28.988 58.699,31.91 L57.969,33.832 C50.949,31.16 42.551,33.82 42.469,33.848 Z" id="Fill-16"></path>
                    <path d="M42.469,24.586 L41.836,22.633 C42.211,22.512 51,19.727 58.699,22.648 L57.969,24.57 C50.949,21.895 42.551,24.555 42.469,24.586 Z" id="Fill-17"></path>
                    <path d="M42.469,15.316 L41.836,13.363 C42.211,13.242 51,10.461 58.699,13.379 L57.969,15.301 C50.949,12.629 42.551,15.289 42.469,15.316 Z" id="Fill-18"></path>
                </g>
                <path d="M1078,384 C1071.352,384 1066,389.352 1066,396 L1066,417 C1066,423.648 1071.352,429 1078,429 L1114,429 C1120.648,429 1126,423.648 1126,417 L1126,396 C1126,389.352 1120.648,384 1114,384 L1078,384 Z M1088.5,396 L1105,406.5 L1088.5,417 L1088.5,396 Z" id="Page-1"></path>
                <path d="M1049.33884,44.2317049 C1049.08315,41.154484 1045.45887,39.076245 1040.77911,38.0594242 L1040.77911,3.9037594 C1040.77911,1.74821822 1039.0309,0 1036.87684,0 L957.902273,0 C955.748218,0 954,1.74821822 954,3.9037594 L954,58.1639338 C954,60.3179884 955.748218,62.06472 957.902273,62.06472 L989.967806,62.06472 L989.31817,69.0457003 C989.288439,69.4515366 988.840978,73.0341947 982.071092,73.0341947 C981.147926,73.0341947 980.39869,73.7834311 980.39869,74.7065974 C980.39869,75.6312502 981.147926,76.379 982.071092,76.379 L1012.70802,76.379 C1013.63119,76.379 1014.38042,75.6312502 1014.38042,74.7065974 C1014.38042,73.7834311 1013.63119,73.0341947 1012.70802,73.0341947 C1005.9307,73.0341947 1005.48473,69.457483 1005.455,68.975831 L1004.81131,62.0706663 L1017.99876,62.0706663 L1017.99876,68.2384873 C1017.99876,72.9940571 1025.88953,75.479619 1033.68218,75.479619 C1041.48227,75.479619 1049.37303,72.9940571 1049.37303,68.2384873 L1049.37303,44.5751049 C1049.37303,44.4532053 1049.36114,44.3431984 1049.33884,44.2317049 Z M991.030711,73.029735 C992.551482,71.1938085 992.657029,69.2835531 992.657029,69.2835531 L993.33045,62.06472 L1001.45461,62.06472 L1002.12209,69.1854388 C1002.12209,69.2196301 1002.2202,71.1715098 1003.7603,73.029735 L991.030711,73.029735 Z M1017.99876,58.7199148 L957.902273,58.7199148 C957.594551,58.7199148 957.344805,58.4716559 957.344805,58.1639338 L957.344805,52.1001735 L1017.99876,52.1001735 L1017.99876,58.7199148 Z M1018.03295,44.2317049 C1018.00917,44.3431984 1017.99876,44.4591517 1017.99876,44.5751049 L1017.99876,48.7553682 L957.344805,48.7553682 L957.344805,3.9037594 C957.344805,3.59455073 957.594551,3.34480527 957.902273,3.34480527 L1036.87684,3.34480527 C1037.18456,3.34480527 1037.43431,3.59455073 1037.43431,3.9037594 L1037.43431,37.5316883 C1036.20342,37.4038424 1034.94875,37.3280268 1033.68813,37.3280268 C1026.0813,37.3280268 1018.41054,39.7035819 1018.03295,44.2317049 Z M1046.02823,68.2325409 C1046.02823,69.5570838 1041.67255,72.1288674 1033.68218,72.1288674 C1025.69776,72.1288674 1021.34357,69.5511375 1021.34357,68.2325409 L1021.34357,64.9754439 C1024.36876,66.6998768 1029.03662,67.5873652 1033.68218,67.5873652 C1038.33369,67.5873652 1043.00304,66.6939305 1046.02823,64.9754439 L1046.02823,68.2325409 Z M1046.02823,60.3462334 C1046.02823,61.6707763 1041.67255,64.2425599 1033.68218,64.2425599 C1025.69776,64.2425599 1021.34357,61.66483 1021.34357,60.3462334 L1021.34357,57.0891364 C1024.36876,58.8135693 1029.03662,59.7025442 1033.68218,59.7025442 C1038.33369,59.7025442 1043.00304,58.807623 1046.02823,57.0891364 L1046.02823,60.3462334 Z M1046.02823,52.4614124 C1046.02823,53.7844688 1041.67255,56.3577389 1033.68218,56.3577389 C1025.69776,56.3577389 1021.34357,53.7785224 1021.34357,52.4614124 L1021.34357,49.2028288 C1024.36876,50.9272618 1029.03662,51.8162367 1033.68218,51.8162367 C1038.33369,51.8162367 1043.00304,50.9213154 1046.02823,49.2028288 L1046.02823,52.4614124 Z M1033.68218,48.4714314 C1025.69776,48.4714314 1021.34357,45.8937015 1021.34357,44.5751049 C1021.34357,43.250562 1025.69776,40.6787784 1033.68218,40.6787784 C1041.66809,40.6787784 1046.02823,43.2565083 1046.02823,44.5751049 C1046.02823,45.8996478 1041.67255,48.4714314 1033.68218,48.4714314 Z M981.989331,12.9451397 C981.31591,12.3118566 980.258951,12.3401016 979.625668,13.0135224 L967.309352,26.0567763 C966.699854,26.7004655 966.699854,27.7053937 967.309352,28.3565158 L979.625668,41.4042295 C979.957175,41.7520893 980.39869,41.9275057 980.840204,41.9275057 C981.251987,41.9275057 981.663769,41.7758745 981.989331,41.4681525 C982.662751,40.8348693 982.692483,39.7779109 982.0592,39.1044901 L970.822141,27.2059028 L982.053253,15.3073155 C982.692483,14.6338947 982.662751,13.5769362 981.989331,12.9451397 Z M1004.0041,13.0135224 C1003.37081,12.3401016 1002.31385,12.3118566 1001.64043,12.9451397 C1000.96701,13.5769362 1000.93728,14.6338947 1001.57056,15.3073155 L1012.80168,27.2118491 L1001.57056,39.1104364 C1000.93728,39.7838572 1000.96701,40.8408156 1001.64043,41.4740988 C1001.96599,41.7758745 1002.37778,41.933452 1002.78956,41.933452 C1003.23702,41.933452 1003.67853,41.7580356 1004.0041,41.4101758 L1016.32041,28.3684084 C1016.92991,27.7232327 1016.92991,26.7183045 1016.32041,26.0746153 L1004.0041,13.0135224 Z M997.354623,12.7697232 C996.495379,12.4397024 995.524642,12.8693241 995.194622,13.7345137 L985.31035,39.4880277 C984.98033,40.347271 985.409951,41.3165213 986.275141,41.6480286 C986.472856,41.7238442 986.675031,41.7580356 986.872746,41.7580356 C987.546167,41.7580356 988.17945,41.3521992 988.435142,40.6847247 L998.317927,14.9297241 C998.649434,14.0704808 998.219812,13.1012306 997.354623,12.7697232 Z" id="Page-1"></path>
            </g>
            <g id="Group-3" opacity="0.399286685" transform="translate(253.000000, 142.000000)" fill="#FFFFFF">
                <g id="1488242439_js" transform="translate(0.000000, 338.000000)" fill-rule="nonzero">
                    <g id="Layer_1">
                        <g id="Group">
                            <path d="M18.5987697,1.11591731 L32.6893602,1.11591731 L32.6893602,40.7573514 C32.6893602,58.6239535 24.1610827,64.8589147 10.5334744,64.8589147 C7.1963878,64.8589147 2.93216535,64.3006202 0.150757874,63.3701292 L1.72677165,51.9244186 C3.67357283,52.5757623 6.17655512,53.0410078 8.95746063,53.0410078 C14.8903937,53.0410078 18.5987697,50.3422481 18.5987697,40.6646382 L18.5987697,1.11591731 L18.5987697,1.11591731 Z" id="Shape"></path>
                            <path d="M44.9235039,49.3183721 C48.6315453,51.2725711 54.5646457,53.22677 60.5902756,53.22677 C67.0795571,53.22677 70.5095079,50.5283463 70.5095079,46.340801 C70.5095079,42.5256202 67.5430413,40.1993928 60.0340945,37.5936822 C49.6512106,33.8713824 42.7914764,28.1020026 42.7914764,18.8898062 C42.7914764,8.18832041 51.7835728,0.092377261 66.4305118,0.092377261 C73.5688386,0.092377261 78.6671654,1.48861757 82.3755413,3.25638243 L79.2233465,14.6090439 C76.8132283,13.3995736 72.2705807,11.6313049 66.2454528,11.6313049 C60.1269587,11.6313049 57.1603248,14.5159948 57.1603248,17.68 C57.1603248,21.681447 60.5902756,23.4492119 68.748435,26.613385 C79.7796949,30.7078811 84.8783563,36.477261 84.8783563,45.410478 C84.8783563,55.9256977 76.9059252,64.8590827 59.7560039,64.8590827 C52.6176772,64.8590827 45.5720472,62.9047158 42.0499016,60.9506848 L44.9235039,49.3183721 Z" id="Shape"></path>
                        </g>
                    </g>
                </g>
                <g id="1488242487_Python_logo" transform="translate(636.000000, 240.000000)" fill-rule="nonzero">
                    <g id="Layer_7">
                        <g id="Group">
                            <path d="M38.9973586,0.123307087 C35.743251,0.138740157 32.635498,0.416062992 29.9008705,0.900472441 C21.8455458,2.32472441 20.3831016,5.30519685 20.3831016,10.8023622 L20.3831016,18.0626772 L39.4191116,18.0626772 L39.4191116,20.4825197 L20.3829442,20.4825197 L13.2389522,20.4825197 C7.70659163,20.4825197 2.86241235,23.8100787 1.34756375,30.14 C-0.400350598,37.3959055 -0.478406375,41.924252 1.34756375,49.5004724 C2.70079283,55.1395276 5.93176693,59.1577953 11.4642849,59.1577953 L18.0091673,59.1577953 L18.0091673,50.4540157 C18.0091673,44.1672441 23.4453745,38.6204724 29.9007131,38.6204724 L48.9145339,38.6204724 C54.2072191,38.6204724 58.4321454,34.26 58.4321454,28.9407874 L58.4321454,10.8022047 C58.4321454,5.64062992 54.0803785,1.76188976 48.9145339,0.900314961 C45.6445319,0.355433071 42.2513088,0.107716535 38.9973586,0.123307087 Z M28.7029661,5.96220472 C30.6691534,5.96220472 32.2751195,7.59527559 32.2751195,9.60314961 C32.2751195,11.603937 30.6691534,13.2223622 28.7029661,13.2223622 C26.7292251,13.2223622 25.1308127,11.603937 25.1308127,9.60314961 C25.1308127,7.59527559 26.7292251,5.96220472 28.7029661,5.96220472 Z" id="path1948_1_"></path>
                            <path d="M60.8059223,20.4822047 L60.8059223,28.9407874 C60.8059223,35.4995276 55.2502709,41.0182677 48.9146912,41.0182677 L29.9007131,41.0182677 C24.6926932,41.0182677 20.3829442,45.4792126 20.3829442,50.6984252 L20.3829442,68.8379528 C20.3829442,73.999685 24.8684761,77.0368504 29.9007131,78.5171654 C35.9265876,80.2902362 41.7041315,80.6116535 48.9145339,78.5171654 C53.7066235,77.1294488 58.4321454,74.3343307 58.4321454,68.8379528 L58.4321454,61.5773228 L39.4189542,61.5773228 L39.4189542,59.1577953 L58.431988,59.1577953 L67.9495996,59.1577953 C73.4822749,59.1577953 75.5443008,55.2965354 77.4676833,49.5004724 C79.4551155,43.5327559 79.3707649,37.7941732 77.4676833,30.14 C76.1006056,24.6292913 73.4891992,20.4825197 67.9495996,20.4825197 L60.8059223,20.4825197 L60.8059223,20.4822047 Z M50.112753,66.4173228 C52.0860219,66.4173228 53.684749,68.0344882 53.684749,70.0354331 C53.684749,72.0431496 52.0860219,73.6770079 50.112753,73.6770079 C48.1467231,73.6770079 46.5410717,72.0431496 46.5410717,70.0354331 C46.5409143,68.0344882 48.1465657,66.4173228 50.112753,66.4173228 Z" id="path1950_1_"></path>
                        </g>
                    </g>
                </g>
                <g id="Page-1" transform="translate(675.000000, 16.000000)">
                    <path d="M71.25,24.562 L8.75,24.562 C4.3398,24.562 0.75,20.9722 0.75,16.562 L0.75,8.812 C0.75,4.4018 4.3398,0.812 8.75,0.812 L71.25,0.812 C75.6602,0.812 79.25,4.4018 79.25,8.812 L79.25,16.562 C79.25,20.9722 75.6602,24.562 71.25,24.562 Z M8.75,4.812 C6.543,4.812 4.75,6.605 4.75,8.812 L4.75,16.562 C4.75,18.769 6.543,20.562 8.75,20.562 L71.25,20.562 C73.457,20.562 75.25,18.769 75.25,16.562 L75.25,8.812 C75.25,6.605 73.457,4.812 71.25,4.812 L8.75,4.812 Z" id="Fill-1"></path>
                    <path d="M15.055,19 C11.5745,19 8.7425,16.168 8.7425,12.6875 C8.7425,9.207 11.5745,6.375 15.055,6.375 C18.5355,6.375 21.3675,9.207 21.3675,12.6875 C21.3675,16.168 18.5355,19 15.055,19 Z M15.055,10.375 C13.7777,10.375 12.7425,11.4141 12.7425,12.6875 C12.7425,13.9609 13.7816,15 15.055,15 C16.3323,15 17.3675,13.9609 17.3675,12.6875 C17.3675,11.4141 16.3323,10.375 15.055,10.375 Z" id="Fill-2"></path>
                    <path d="M29.93,19 C26.4495,19 23.6175,16.168 23.6175,12.6875 C23.6175,9.207 26.4495,6.375 29.93,6.375 C33.4105,6.375 36.2425,9.207 36.2425,12.6875 C36.2425,16.168 33.4105,19 29.93,19 Z M29.93,10.375 C28.6566,10.375 27.6175,11.4141 27.6175,12.6875 C27.6175,13.9609 28.6566,15 29.93,15 C31.2073,15 32.2425,13.9609 32.2425,12.6875 C32.2425,11.4141 31.2073,10.375 29.93,10.375 Z" id="Fill-3"></path>
                    <path d="M0.75,42.688 L0.75,34.938 C0.75,30.5278 4.3398,26.938 8.75,26.938 L71.25,26.938 C75.6602,26.938 79.25,30.5278 79.25,34.938 L79.25,42.688 C79.25,47.0982 75.6602,50.688 71.25,50.688 L8.75,50.688 C4.3398,50.688 0.75,47.0982 0.75,42.688 Z M8.75,30.938 C6.543,30.938 4.75,32.731 4.75,34.938 L4.75,42.688 C4.75,44.895 6.543,46.688 8.75,46.688 L71.25,46.688 C73.457,46.688 75.25,44.895 75.25,42.688 L75.25,34.938 C75.25,32.731 73.457,30.938 71.25,30.938 L8.75,30.938 Z" id="Fill-4"></path>
                    <path d="M58.633,38.812 C58.633,35.3315 61.465,32.4995 64.9455,32.4995 C68.426,32.4995 71.258,35.3315 71.258,38.812 C71.258,42.2925 68.426,45.1245 64.9455,45.1245 C61.465,45.1245 58.633,42.2925 58.633,38.812 Z M62.633,38.812 C62.633,40.0893 63.6682,41.1245 64.9455,41.1245 C66.2189,41.1245 67.258,40.0854 67.258,38.812 C67.258,37.5386 66.2189,36.4995 64.9455,36.4995 C63.6682,36.4995 62.633,37.5386 62.633,38.812 Z" id="Fill-5"></path>
                    <path d="M43.758,38.812 C43.758,35.3315 46.59,32.4995 50.0705,32.4995 C53.551,32.4995 56.383,35.3315 56.383,38.812 C56.383,42.2925 53.551,45.1245 50.0705,45.1245 C46.59,45.1245 43.758,42.2925 43.758,38.812 Z M47.758,38.812 C47.758,40.0893 48.7932,41.1245 50.0705,41.1245 C51.3439,41.1245 52.383,40.0854 52.383,38.812 C52.383,37.5386 51.3439,36.4995 50.0705,36.4995 C48.7932,36.4995 47.758,37.5386 47.758,38.812 Z" id="Fill-6"></path>
                    <path d="M71.25,77.188 L8.75,77.188 C4.3398,77.188 0.75,73.5982 0.75,69.188 L0.75,61.438 C0.75,57.0278 4.3398,53.438 8.75,53.438 L71.25,53.438 C75.6602,53.438 79.25,57.0278 79.25,61.438 L79.25,69.188 C79.25,73.5982 75.6602,77.188 71.25,77.188 Z M8.75,57.438 C6.543,57.438 4.75,59.231 4.75,61.438 L4.75,69.188 C4.75,71.395 6.543,73.188 8.75,73.188 L71.25,73.188 C73.4531,73.188 75.25,71.395 75.25,69.188 L75.25,61.438 C75.25,59.231 73.4531,57.438 71.25,57.438 L8.75,57.438 Z" id="Fill-7"></path>
                    <path d="M15.055,71.625 C11.5745,71.625 8.7425,68.793 8.7425,65.3125 C8.7425,61.8359 11.5745,59 15.055,59 C18.5355,59 21.3675,61.832 21.3675,65.3125 C21.3675,68.793 18.5355,71.625 15.055,71.625 Z M15.055,63 C13.7777,63 12.7425,64.0391 12.7425,65.3125 C12.7425,66.5859 13.7816,67.625 15.055,67.625 C16.3284,67.625 17.3675,66.5859 17.3675,65.3125 C17.3675,64.0391 16.3323,63 15.055,63 Z" id="Fill-8"></path>
                    <path d="M29.93,71.625 C26.4495,71.625 23.6175,68.793 23.6175,65.3125 C23.6175,61.8359 26.4495,59 29.93,59 C33.4105,59 36.2425,61.832 36.2425,65.3125 C36.2425,68.793 33.4105,71.625 29.93,71.625 Z M29.93,63 C28.6566,63 27.6175,64.0391 27.6175,65.3125 C27.6175,66.5859 28.6566,67.625 29.93,67.625 C31.2073,67.625 32.2425,66.5859 32.2425,65.3125 C32.2425,64.0391 31.2073,63 29.93,63 Z" id="Fill-9"></path>
                </g>
                <path d="M195.479301,298.7814 C195.475391,304.2619 193.354301,309.5314 189.557401,313.4844 C185.764401,317.4414 180.584701,319.7735 175.108401,320 L125.999401,320 C119.925201,320 114.315401,316.7617 111.2764,311.5 C108.2412,306.2422 108.2412,299.762 111.2764,294.5 C114.315501,289.2422 119.924801,286 125.999401,286 C126.448621,286 126.890021,286 127.339201,286.07031 C127.347011,279.55471 130.413401,273.41831 135.620401,269.49632 C140.823501,265.57441 147.569401,264.32442 153.835401,266.11741 C160.104901,267.91041 165.167401,272.53931 167.511401,278.62141 C173.991901,276.45731 181.116401,277.54331 186.659401,281.53551 C192.202401,285.53161 195.483601,291.94951 195.479701,298.78151 L195.479301,298.7814 Z" id="Page-1"></path>
                <g id="1488242755_swift-social-network-brand-logo" transform="translate(67.000000, 0.000000)" fill-rule="nonzero">
                    <g id="swift">
                        <path d="M77.4608625,54.6921 C83.5898625,37.4655 74.0464125,14.56485 53.5093125,0 C62.4418125,13.58565 65.3891625,28.5497625 59.1620625,40.38495 C45.2387625,31.3572 17.8607625,7.45455 17.8607625,7.45455 C17.8607625,7.45455 30.6971625,26.98965 40.4648625,36.4782 C30.6971625,30.6174 25.3945125,26.43165 8.3716125,12.1992 C20.0317125,31.3374 39.9580125,48.6936 47.1620625,54.6921 C25.3945125,66.33915 0,49.5945 0,49.5945 C4.3622625,56.2287 10.5205125,61.19895 17.8607625,66.33915 C37.9862625,80.4309 58.0459125,77.01345 65.8607625,69.7581 C65.8607625,69.7581 68.25,67.0802625 73.3945125,68.5817625 C76.9745625,69.62625 81.7220625,73.41285 83.4375,75.1824 C83.8051125,73.59585 84,71.9436 84,70.2459 C84,64.15215 81.4966125,58.6427625 77.4608625,54.6921 Z" id="Shape"></path>
                    </g>
                </g>
            </g>
            <g id="Page-1" opacity="0.4" transform="translate(80.000000, 292.000000)" fill="#FFFFFF">
                <path d="M37.9316029,19.0683875 C41.1722141,22.3090115 36.30912,27.1722366 33.0683971,23.9316125 C29.8277859,20.6909885 34.69088,15.8277634 37.9316029,19.0683875" id="Fill-1"></path>
                <path d="M45,12.6442256 C42.5958515,10.2927827 39.4021676,9 36,9 C32.602261,9 29.4041485,10.2928938 27,12.6442256 L29.4085771,15 C31.1695602,13.2776225 33.5071665,12.3319142 36,12.3319142 C38.488405,12.3319142 40.8304398,13.2820317 42.5914229,15 L45,12.6442256 Z" id="Fill-2"></path>
                <path d="M35.49989,3.01621214 C40.4730726,3.01621214 45.1497018,4.78743245 48.6659769,8 L51,5.86743748 C46.8606879,2.08540907 41.3544796,0 35.5,0 C29.6456304,0 24.1396422,2.081488 20,5.86743748 L22.3340231,8 C25.8500781,4.78743245 30.5267074,3.01621214 35.50011,3.01621214 L35.49989,3.01621214 Z" id="Fill-3"></path>
                <path d="M19,57 C14.5900693,57 11,60.5900693 11,65 C11,69.4099307 14.5857612,73 19,73 C23.4099307,73 27,69.4099307 27,65 C27,60.5900693 23.4099307,57 19,57 Z M19,69.3410014 C16.6008395,69.3410014 14.6591091,67.3992709 14.6591091,65.0001105 C14.6591091,62.60095 16.6008395,60.6592196 19,60.6592196 C21.3991605,60.6592196 23.3408909,62.60095 23.3408909,65.0001105 C23.3408909,67.3949629 21.3991605,69.3410014 19,69.3410014 Z" id="Fill-4"></path>
                <path d="M70.0021527,57 C65.5910354,57 62,60.5900693 62,65 C62,69.4099307 65.5867261,73 70.0021527,73 C74.41327,73 77.9999961,69.4099307 77.9999961,65 C78.0043054,60.5900693 74.41327,57 70.0021527,57 Z M70.0021527,69.3410014 C67.6023466,69.3410014 65.6600937,67.3992709 65.6600937,65.0001105 C65.6600937,62.60095 67.6023466,60.6592196 70.0021527,60.6592196 C72.4019587,60.6592196 74.3442116,62.60095 74.3442116,65.0001105 C74.3442116,67.3949629 72.4019587,69.3410014 70.0021527,69.3410014 Z" id="Fill-5"></path>
                <path d="M91.9116666,55.9045114 C91.9375321,53.8047143 91.9720157,52.6925979 90.0624599,51.4989168 C88.7132386,50.6573051 87.1830471,50.1419963 85.7003051,49.6009429 C83.4243838,48.7722035 81.0536739,48.2225869 78.6828537,47.7288016 C74.0491332,46.7669533 68.9756771,47.4582859 65.1133974,44.1905192 C63.8375573,43.1127326 59.8158252,39.8536281 56.2554567,36.9723705 C52.272567,33.75617 47.3026171,32 42.1728837,32 L25.8237689,32.0042981 C21.0693281,32.0042981 16.4399111,33.5114868 12.6074253,36.3111796 C10.3099862,37.9900719 8.01243685,39.664787 5.71499781,41.3436794 C4.76238821,42.039299 3.80543091,42.7348966 2.85279925,43.4347923 C2.16312614,43.9371849 0.762265445,44.6284735 0.533736469,45.4529148 C0.507874279,45.5387886 0.490631348,45.6289715 0.469079339,45.7148453 C-0.716275619,51.5503509 0.473390624,58.1760011 2.59845884,63.6931625 C3.40883026,63.6931625 6.3830538,63.6502256 8.81842746,63.6673959 C9.42188591,58.6348962 13.7237136,54.7187999 18.9351043,54.7187999 C24.5602988,54.7187999 29.1336591,59.2746626 29.1336591,64.8783354 C29.1336591,65.9647072 28.9569263,67.0124292 28.6379552,68 L59.1513003,68 C58.8323293,67.0166833 58.6555964,65.9689063 58.6555964,64.8783354 C58.6555964,59.2746626 63.2289567,54.7187999 68.8541512,54.7187999 C74.4750422,54.7187999 79.0484025,59.2746626 79.0484025,64.8783354 L89.4495557,64.8740373 C92.7815044,63.8692522 91.8806258,58.5747559 91.910861,55.9038958 L91.9116666,55.9045114 Z M30.1897969,45.4573008 C30.1897969,45.8437549 29.8751294,46.1572185 29.4871911,46.1572185 L11.1164955,46.1572185 C10.668208,46.1572185 10.3406188,45.7492959 10.4225078,45.3070107 C10.7716589,43.4864244 11.8147647,41.7902737 13.0993222,40.3130947 C16.5908337,36.2939982 21.8366528,34.1555073 27.1598257,34.4604407 C27.8150152,34.4990905 28.3365736,34.5720811 28.6038357,34.7009028 C29.0305723,34.902715 29.3495434,35.2290619 29.5866144,35.5725791 C30.013351,36.1909101 30.1943874,36.9423609 30.1943874,37.6938117 L30.1897969,45.4573008 Z M60.6038291,46.1572185 L34.1071402,46.1572185 C33.8183382,46.1572185 33.5812672,45.9210546 33.5812672,45.6333575 L33.5812672,36.6503547 C33.5812672,36.6503547 33.4605689,35.0057592 36.1502719,34.5763901 C37.0727124,34.4303981 38.8141757,34.3831631 40.7107215,34.3874502 C48.8100218,34.4003334 56.5169256,38.3206949 60.8922118,45.1094745 C60.9439317,45.1910612 60.9956627,45.2726479 61.0473827,45.3542347 C61.2715209,45.70205 61.0128991,46.1572075 60.6034098,46.1572075 L60.6038291,46.1572185 Z" id="Fill-6"></path>
            </g>
            <g id="google-and-background" opacity="0.403306159" transform="translate(126.000000, 93.000000)" fill-rule="nonzero" fill="#FFFFFF">
                <g id="Group">
                    <path d="M144.358883,29.946 L148.492469,32.7077917 C147.150887,34.6882083 143.942148,38.0858333 138.394518,38.0858333 C131.505596,38.0858333 126.375281,32.74425 126.375281,25.9487083 C126.375281,18.7174167 131.560016,13.8115833 137.814523,13.8115833 C144.105117,13.8115833 147.186973,18.8262083 148.184283,21.5334583 L148.728191,22.9145 L132.520949,29.637125 C133.753691,32.0719583 135.675268,33.3074583 138.394518,33.3074583 C141.114059,33.3074583 142.999258,31.962875 144.358883,29.946 Z M131.650812,25.5672083 L142.473684,21.06125 C141.875355,19.5530417 140.098705,18.4811667 137.977783,18.4811667 C135.276576,18.4811667 131.52393,20.8795417 131.650812,25.5672083 Z" id="Shape"></path>
                    <rect id="Rectangle-path" x="118.561803" y="1.43820833" width="5.22111133" height="35.5392917"></rect>
                    <path d="M110.331299,14.7562917 L115.371107,14.7562917 L115.371107,36.3416667 C115.371107,45.2990417 110.095576,48.9874583 103.859111,48.9874583 C97.985543,48.9874583 94.4502852,45.026625 93.1270371,41.8107083 L97.7498203,39.8845417 C98.5835801,41.86525 100.595953,44.2090833 103.859111,44.2090833 C107.865523,44.2090833 110.331299,41.7197083 110.331299,37.0685 L110.331299,35.3240417 L110.149996,35.3240417 C108.95334,36.7777083 106.669158,38.0858333 103.768605,38.0858333 C97.7134434,38.0858333 92.1661035,32.7985 92.1661035,25.9851667 C92.1661035,19.1350833 97.7134434,13.7935 103.768605,13.7935 C106.651115,13.7935 108.95334,15.0835417 110.149996,16.50075 L110.331299,16.50075 L110.331299,14.7562917 Z M110.693613,25.9851667 C110.693613,21.6970833 107.84748,18.571875 104.221717,18.571875 C100.559576,18.571875 97.4777207,21.6970833 97.4777207,25.9851667 C97.4777207,30.2184167 100.559576,33.2890833 104.221717,33.2890833 C107.84748,33.3074583 110.693613,30.2184167 110.693613,25.9851667 Z" id="Shape"></path>
                    <path d="M63.5042656,25.8941667 C63.5042656,32.8895 58.0657656,38.0312917 51.3942324,38.0312917 C44.7229902,38.0312917 39.2841992,32.8714167 39.2841992,25.8941667 C39.2841992,18.8626667 44.7229902,13.7389583 51.3942324,13.7389583 C58.0657656,13.7389583 63.5042656,18.8626667 63.5042656,25.8941667 Z M58.2106914,25.8941667 C58.2106914,21.5334583 55.056373,18.5357083 51.3942324,18.5357083 C47.7323828,18.5357083 44.5777734,21.5334583 44.5777734,25.8941667 C44.5777734,30.2184167 47.7323828,33.2529167 51.3942324,33.2529167 C55.056373,33.2529167 58.2106914,30.2184167 58.2106914,25.8941667 Z" id="Shape"></path>
                    <path d="M89.9543848,25.9487083 C89.9543848,32.9440417 84.5155937,38.0858333 77.8443516,38.0858333 C71.1728184,38.0858333 65.7343184,32.9440417 65.7343184,25.9487083 C65.7343184,18.9172083 71.1728184,13.8115833 77.8443516,13.8115833 C84.5155937,13.8115833 89.9543848,18.899125 89.9543848,25.9487083 Z M84.6424766,25.9487083 C84.6424766,21.588 81.4881582,18.59025 77.8260176,18.59025 C74.164168,18.59025 71.0095586,21.588 71.0095586,25.9487083 C71.0095586,30.2729583 74.164168,33.3074583 77.8260176,33.3074583 C81.5062012,33.3074583 84.6424766,30.254875 84.6424766,25.9487083 Z" id="Shape"></path>
                    <path d="M19.3787305,32.7623333 C11.7826406,32.7623333 5.83660938,26.621 5.83660938,19.0079167 C5.83660938,11.395125 11.7826406,5.25379167 19.3787305,5.25379167 C23.4759395,5.25379167 26.466998,6.87079167 28.6787168,8.94220833 L32.3228145,5.29025 C29.240959,2.32866667 25.125707,0.0755416667 19.3787305,0.0755416667 C8.97288477,0.0755416667 0.216515625,8.57879167 0.216515625,19.0079167 C0.216515625,29.4373333 8.97288477,37.9405833 19.3787305,37.9405833 C24.9988242,37.9405833 29.240959,36.0873333 32.5585371,32.6351667 C35.9666211,29.2191667 37.0180605,24.4224167 37.0180605,20.5342083 C37.0180605,19.3167917 36.8731348,18.0632083 36.709875,17.1365833 L19.3787305,17.1365833 L19.3787305,22.1876667 L31.7244863,22.1876667 C31.3618809,25.3490417 30.3648613,27.5114583 28.8963965,28.9829167 C27.1197461,30.7819167 24.3096992,32.7623333 19.3787305,32.7623333 Z" id="Shape"></path>
                </g>
            </g>
            <g id="wikipedia2" opacity="0.334635417" transform="translate(494.000000, 545.000000)" fill-rule="nonzero" fill="#FFFFFF">
                <path d="M64,0.0720110764 C64,0.0720110764 54.0333704,0.0720110764 50.7586207,0.0720110764 L49.8331479,0.216033229 L49.8331479,1.5122326 C49.8331479,1.65625476 50.2602892,1.80027691 50.4026696,1.87228799 C50.5450501,1.94429906 50.8298109,2.01631014 50.9721913,2.01631014 L52.1824249,2.08832121 C53.5350389,2.16033229 53.9621802,2.4483766 54.4605117,2.95245413 C54.9588432,3.45653167 55.1012236,4.39267566 54.6740823,5.61686396 L42.9988877,36.5096157 L42.5717464,36.3655936 L35.1679644,19.4429906 C35.3103448,19.1549463 35.3103448,19.0109242 35.3103448,19.0109242 L41.432703,6.33697472 C42.1446051,4.96876427 42.8565072,3.81658705 43.1412681,3.24049844 C43.78198,2.23234337 44.0667408,2.01631014 45.8464961,1.94429906 C46.2024472,1.94429906 46.3448276,1.80027691 46.3448276,1.44022153 L46.3448276,0.144022153 L46.2736374,4.09335578e-14 C46.2736374,4.09335578e-14 39.0122358,4.09335578e-14 35.6662959,4.09335578e-14 L35.6662959,0.144022153 L35.6662959,1.44022153 C35.6662959,1.58424368 35.5951057,1.72826583 35.6662959,1.80027691 C35.8086763,1.87228799 35.8086763,1.94429906 35.9510567,1.94429906 L36.4493882,2.01631014 C37.8020022,2.08832121 38.4427141,2.4483766 38.5850945,2.7364209 C38.9410456,3.16848736 39.083426,3.67256489 38.3003337,5.54485288 L33.6017798,15.9144479 L29.3303671,6.26496364 C27.9065628,3.16848736 27.621802,2.23234337 29.6863181,2.08832121 L30.2558398,1.94429906 C30.6829811,1.94429906 30.6117909,1.80027691 30.6117909,1.5122326 L30.6117909,0.144022153 L30.5406007,4.09335578e-14 C30.5406007,4.09335578e-14 22.7808676,4.09335578e-14 19.2213571,4.09335578e-14 L19.1501669,0.144022153 L19.1501669,1.5122326 C19.1501669,1.80027691 19.4349277,1.87228799 20.0044494,1.94429906 C21.9977753,2.23234337 21.9265851,2.4483766 23.8487208,6.6970301 C24.1334816,7.34512979 24.9877642,9.28942885 24.9877642,9.28942885 L29.4015573,18.9389131 C29.4015573,18.9389131 29.8998888,20.1631014 30.6829811,22.1074004 L24.2758621,36.3655936 L23.919911,36.2935825 C23.919911,36.2935825 13.9532814,12.9619937 11.105673,5.11278642 C10.8209121,4.32066458 10.6785317,3.67256489 10.6785317,3.31250951 C10.6785317,2.52038767 11.3192436,2.08832121 12.6006674,2.01631014 L14.5939933,1.94429906 C15.0211346,1.94429906 15.6618465,1.80027691 15.6618465,1.44022153 L15.6618465,0.144022153 L15.0923248,0 C15.0923248,0 2.91879867,0 0.427141268,0 L0,0.144022153 L0,1.5122326 C0,1.72826583 0.284760845,1.87228799 0.854282536,1.94429906 C2.34927697,2.01631014 3.41713014,2.30435444 3.84427141,2.7364209 C4.34260289,3.16848736 4.84093437,4.32066458 5.48164627,6.12094149 C9.11234705,15.7704257 16.8008899,33.0530841 20.5739711,42.8465904 C21.6418242,45.5110003 22.9944383,45.9430667 24.6318131,42.7745794 C26.3403782,39.3180477 29.7575083,31.5408515 32.2491657,25.7799653 C34.5984427,31.4688404 37.730812,39.1740255 39.2969967,42.7025683 C40.5072303,45.5110003 41.9310345,45.7990446 43.2836485,42.7745794 C46.9855395,33.6291727 57.7352614,6.26496364 57.7352614,6.26496364 C58.2335929,4.89675319 58.8743048,3.88859812 59.6573971,3.09647628 C60.5116796,2.37636552 61.7219132,1.94429906 63.4304783,1.87228799 C63.7864294,1.87228799 63.9288098,1.72826583 63.9288098,1.36821045 L63.9288098,0.0720110764 L64,0.0720110764 Z" id="Wikipedia"></path>
            </g>
            <path d="M949.451937,52 L874.548063,52 C872.061249,52 870,54.0500925 870,56.5309917 L870,110.469008 C870,112.946488 872.057817,115 874.548063,115 L949.451937,115 C951.938751,115 954,112.949907 954,110.469008 L954,56.5309917 C954,54.050178 951.942183,52 949.451937,52 Z M897.211283,56 L927.788717,56 C928.482346,56 929,56.4301773 929,57 C929,57.5726402 928.478934,58 927.788717,58 L897.211283,58 C896.517654,58 896,57.5698227 896,57 C896,56.4273598 896.521066,56 897.211283,56 Z M884.000007,56 C884.572643,56 885,56.4301773 885,57 C885,57.5726402 884.569826,58 884.000007,58 C883.42737,58 883.000014,57.5698227 883.000014,57 C882.997218,56.4273598 883.427399,56 884.000007,56 Z M880,56 C880.57264,56 881,56.4301773 881,57 C881,57.5726402 880.569823,58 880,58 C879.42736,58 879,57.5698227 879,57 C879,56.4273598 879.500014,56 880,56 Z M876.000007,56 C876.572643,56 877,56.4301773 877,57 C877,57.5726402 876.569826,58 876.000007,58 C875.42737,58 875.000014,57.5698227 875.000014,57 C874.99722,56.4273598 875.427399,56 876.000007,56 Z M950.913726,109.858354 C950.913726,111.056305 949.971901,112 948.776324,112 L874.137402,112 C872.941825,112 872,111.056305 872,109.858354 L872,63 L950.996657,63 L951,109.858354 L950.913726,109.858354 Z" id="Page-1" fill="#FFFFFF" opacity="0.307178442"></path>
            <path d="M1116.77085,292 L1066.22915,292 C1061.68418,292 1058,295.702511 1058,300.269889 L1058,350.730111 C1058,355.297577 1061.68427,359 1066.22915,359 L1116.77085,359 C1121.31582,359 1125,355.297489 1125,350.730111 L1125,300.27339 C1125,295.702511 1121.31573,292.000088 1116.77085,292.000088 L1116.77085,292 Z M1065.00266,330.661213 C1064.99911,328.533082 1064.99911,326.401583 1065.00266,324.273452 C1065.00266,323.464286 1065.47409,323.003798 1066.33546,323.003798 C1070.47906,322.997222 1074.62265,323.000506 1078.76606,323.003798 C1078.81569,323.003798 1078.86531,323.013667 1079,323.030113 C1078.9043,323.207736 1078.83695,323.342592 1078.75897,323.470879 C1077.07174,326.187861 1075.37742,328.901474 1073.69736,331.625024 C1073.53076,331.894743 1073.34999,332 1073.00616,332 C1070.81205,331.983555 1068.61448,331.993424 1066.42037,331.990131 C1065.45271,331.986839 1065.00254,331.562526 1065.00254,330.661281 L1065.00266,330.661213 Z M1073.65587,345.130668 C1072.37685,346.06318 1071.08462,346.978362 1069.78254,347.879839 C1069.63787,347.979996 1069.36825,348.04216 1069.24331,347.966185 C1069.09535,347.876391 1069.04274,347.617362 1069,347.531016 C1069.19399,345.817979 1069.35839,344.239597 1069.55568,342.664751 C1069.62801,342.081072 1070.07519,341.835862 1070.56509,342.115616 C1071.59756,342.7062 1072.61681,343.317527 1073.62622,343.952965 C1074.11284,344.260348 1074.126,344.788759 1073.65581,345.13065 L1073.65587,345.130668 Z M1076.18318,342.999923 C1076.08529,342.965261 1075.85802,342.916728 1075.66573,342.809272 C1074.67275,342.258109 1073.68335,341.700007 1072.69735,341.131532 C1071.9771,340.715558 1071.80579,340.088113 1072.22535,339.363631 C1077.0013,331.148154 1081.7846,322.932322 1086.56422,314.720217 C1086.99777,313.974934 1087.62711,313.805119 1088.37878,314.224518 C1089.34374,314.761819 1090.30522,315.302545 1091.26329,315.853717 C1092.03598,316.297422 1092.20382,316.9179 1091.75278,317.690924 C1086.98381,325.892558 1082.21501,334.093836 1077.44613,342.296179 C1077.1909,342.736415 1076.84127,343.006801 1076.18392,342.99987 L1076.18318,342.999923 Z M1087,332 C1087.08685,331.831702 1087.1544,331.696401 1087.22516,331.567706 C1088.74985,328.855181 1090.28088,326.14916 1091.79273,323.426751 C1091.97608,323.09676 1092.17872,322.987859 1092.53254,323.001054 C1093.23376,323.027454 1093.94138,322.994457 1094.64262,323.020856 C1094.78416,323.027454 1094.99323,323.13965 1095.05112,323.261756 C1096.37638,326.129384 1097.68549,329.00698 1098.99468,331.884492 C1099.00434,331.907589 1098.9979,331.943889 1098.9979,331.999992 L1087.0003,331.999992 L1087,332 Z M1104.01515,334.118588 C1103.33261,332.960233 1102.60001,331.82536 1101.98534,330.636923 C1098.12589,323.168121 1094.59175,315.561852 1091.21514,307.895763 C1090.73629,306.80777 1090.45398,305.646072 1090.09302,304.514542 C1090.02869,304.31033 1090.02512,304.086029 1090.01082,304.002332 C1090.01082,303.774689 1089.98224,303.670904 1090.01798,303.590557 C1090.10374,303.386346 1090.17164,303.111832 1090.34317,303.01809 C1090.46467,302.951131 1090.80058,303.081699 1090.93638,303.21896 C1091.39021,303.670904 1091.85834,304.129549 1092.20853,304.65182 C1093.47711,306.533247 1094.68495,308.451527 1095.94283,310.342981 C1100.55271,317.2728 1104.64791,324.47361 1108.69362,331.70176 C1109.17604,332.568812 1109.11172,333.22495 1108.33627,333.887859 C1107.51079,334.590886 1106.57808,335.12986 1105.38094,334.97251 C1104.78773,334.888813 1104.30886,334.620993 1104.01584,334.118836 L1104.01515,334.118588 Z M1107.16291,340.41867 C1106.49358,339.484102 1105.83858,338.539642 1105.20862,337.581995 C1104.80058,336.961164 1105.0046,336.337002 1105.70256,335.987014 C1106.28599,335.696415 1106.8802,335.412417 1107.4779,335.148236 C1108.18303,334.834523 1108.90963,335.026053 1109.28192,335.653486 C1109.81882,336.555 1110.31991,337.469703 1110.82461,338.387786 C1110.92125,338.5595 1110.95704,338.760946 1111,338.879823 C1110.96778,339.431299 1110.77451,339.82758 1110.33067,340.085168 C1109.89399,340.339441 1109.45374,340.587113 1109.00276,340.814968 C1108.32269,341.16171 1107.59248,341.016405 1107.16301,340.418696 L1107.16291,340.41867 Z M1112.30112,347.126186 C1111.73695,346.848129 1111.14089,346.615911 1110.5959,346.307277 C1109.90105,345.913106 1109.40384,345.332548 1109.12331,344.599214 C1108.81732,343.801737 1109.08825,342.930888 1109.85323,342.518343 C1110.29628,342.280008 1110.8031,342.105846 1111.30664,342.026395 C1112.12898,341.895005 1112.79514,342.261672 1113.13622,342.958336 C1113.45177,343.60306 1113.70039,344.308923 1113.80557,345.011672 C1113.95537,345.998603 1113.94263,347.010018 1114,348 C1113.35615,347.666945 1112.8334,347.388888 1112.30114,347.1261 L1112.30112,347.126186 Z M1116.99659,330.68825 C1116.99659,331.560706 1116.55591,331.998535 1115.6712,331.998535 C1113.69836,332.001831 1111.72542,331.998535 1109.87459,331.998535 C1108.22716,328.966429 1106.63389,326.033183 1105,323.024506 C1105.21017,323.014629 1105.35594,323.001465 1105.50508,323.001465 C1108.86779,323.001465 1112.2305,322.998169 1115.59322,323.001465 C1116.56949,323.001465 1117,323.429442 1117,324.380859 C1116.99661,326.484547 1116.99661,328.584949 1116.99661,330.688637 L1116.99659,330.68825 Z" id="Page-1" fill="#FFFFFF" opacity="0.387284873"></path>
            <g id="Page-1" opacity="0.501924819" transform="translate(459.000000, 49.000000)" fill="#FFFFFF">
                <path d="M21.4999907,29 C20.6721368,29 20,29.67212 20,30.5 C20,31.327859 20.6721159,32 21.4999907,32 C22.3278446,32 22.9999814,31.32788 22.9999814,30.5 C23.0040837,29.672141 22.3278656,29 21.4999907,29 Z" id="Fill-1"></path>
                <path d="M50.5,29 C49.672141,29 49,29.67212 49,30.5 C49,31.327859 49.67212,32 50.5,32 C51.327859,32 52,31.32788 52,30.5 C52,29.672141 51.3237777,29 50.5,29 Z" id="Fill-2"></path>
                <path d="M59.8964031,21.2202454 L69.8021476,0.953534806 L67.9000998,0.0112865899 L58.2875907,19.6763491 C52.0936269,14.1190689 43.934443,10.7342752 35.0007195,10.7342752 C26.162388,10.7342752 18.0808572,14.0479816 11.9147688,19.5021351 L2.09681396,0 L0.205445774,0.963547103 L10.3021553,21.0163586 C3.94211523,27.3949203 0,36.2086547 0,45.9333262 L0,47 L70,47 L70,45.9333262 C70,36.3124185 66.1394295,27.5798747 59.8960501,21.2193352 L59.8964031,21.2202454 Z M2.13989422,44.8674717 C2.70201015,27.1256805 17.2252253,12.8681688 35.0012625,12.8681688 C52.7772998,12.8681688 67.3005964,27.1256805 67.8626309,44.8674717 L2.13989422,44.8674717 Z" id="Fill-3"></path>
                <path d="M0,69 L70,69 L70,53 L0,53 L0,69 Z M2.12125052,55.0871501 L67.8783875,55.0871501 L67.8783875,66.9128499 L2.12125052,66.9128499 L2.12125052,55.0871501 Z" id="Fill-4"></path>
            </g>
            <path d="M1051.59657,522.001035 C1037.13196,522.303528 1024.6437,522.557894 1016.03043,542.068929 C1015.65804,542.907654 1015.33738,543.753295 1015.05117,544.578274 L1013.85469,544.578274 C1010.61699,544.578274 1008,547.197616 1008,550.414991 L1008,551.714366 C1008,554.942125 1010.61699,557.568242 1013.85469,557.568242 L1013.934,557.568242 C1014.92702,563.346529 1017.71993,568.282852 1020.1783,572.617623 C1022.35051,576.446934 1024.23664,579.764011 1024.37107,582.713608 L1024.37107,582.792674 C1024.7607,591.197167 1025.02274,596.738563 1023.05048,602.162742 C1022.68499,603.17674 1022.75395,604.300824 1023.22288,605.259824 C1023.68491,606.201664 1024.4883,606.909782 1025.49165,607.243206 C1031.16018,609.075319 1036.65324,610 1041.92465,610 C1047.16561,610 1052.20356,609.089047 1056.9886,607.274093 C1058.80226,606.583169 1059.79528,604.665135 1059.36427,602.705776 C1058.4333,598.505285 1062.41228,593.700079 1063.8846,592.517388 C1064.35353,592.146143 1066.18444,591.857405 1067.79808,591.620251 C1070.88405,591.152763 1075.10781,590.523711 1078.70105,588.385629 C1080.63193,587.227226 1081.75595,585.71824 1082.0249,583.910149 C1082.32833,581.840794 1081.39737,579.905546 1080.62848,578.709305 C1081.50428,577.908384 1081.7698,577.06621 1081.80767,576.416522 C1081.90421,575.075964 1081.11807,573.896882 1080.38018,573.102878 C1080.62499,572.731633 1080.84222,572.308839 1081.08013,571.848206 L1081.40768,571.243221 C1081.90765,570.284221 1081.53871,569.197976 1081.20425,568.256136 C1081.05944,567.836774 1080.72843,566.860579 1080.8629,566.661176 C1080.90428,566.588992 1081.18356,566.393056 1082.0111,566.28994 C1082.72828,566.20401 1084.91435,565.929008 1085.61423,564.21372 C1085.68665,564.031539 1085.72111,563.852789 1085.7556,563.670607 L1089.2657,563.670607 C1090.769,563.670607 1092,562.61877 1092,561.302235 L1092,539.533344 C1092,538.216809 1090.76909,537.147812 1089.2657,537.147812 L1077.5083,537.147812 C1075.87047,533.737898 1073.38103,530.702678 1070.17785,528.306675 C1066.20919,525.333318 1059.84068,521.837439 1051.60345,522.005858 L1051.59657,522.001035 Z M1052.31717,525.00451 C1059.50786,524.862952 1065.41104,528.080775 1069.05812,530.804822 C1071.5565,532.66923 1073.56005,534.958242 1074.99611,537.523549 L1067.99925,537.523549 C1066.86429,537.523549 1065.83306,538.148462 1065.42823,539.063405 L1063.99562,542.298498 L1068.18962,542.298498 C1072.92347,542.298498 1076.77828,546.155031 1076.77828,550.867756 L1076.77828,552.158983 C1076.77828,556.882138 1072.92338,560.728241 1068.18962,560.728241 L1055.84608,560.728241 L1055.75265,560.931944 C1055.05019,562.492482 1056.41012,564.149713 1058.32367,564.149713 L1082,564.149713 C1080.59512,564.363775 1079.65044,564.885109 1079.11751,565.734469 C1078.30432,567.039572 1078.82684,568.548316 1079.21094,569.639349 C1079.33205,569.988057 1079.51199,570.495585 1079.56735,570.495585 L1079.22478,571.148119 C1078.80261,571.976735 1078.60883,572.349635 1078.33546,572.501481 C1077.92713,572.715542 1077.66761,573.143656 1077.633,573.606302 C1077.61224,574.075851 1077.81987,574.517736 1078.19358,574.787047 C1078.84068,575.256596 1079.71265,576.202632 1079.67465,576.779172 C1079.66081,577.065736 1079.2767,577.4179 1078.64688,577.742399 C1078.27316,577.932287 1078.00325,578.291354 1077.93058,578.705627 C1077.85791,579.119899 1077.98595,579.537699 1078.27316,579.855348 C1078.287,579.869163 1080.21443,582.037414 1079.90996,584.08478 C1079.7577,585.08946 1079.08985,585.92497 1077.86832,586.667322 C1074.71591,588.545518 1070.93374,589.122058 1067.89179,589.574416 C1065.46604,589.940386 1063.70815,590.192426 1062.6701,591.034813 C1061.1683,592.229434 1055.86698,597.953733 1057.19922,603.957689 C1057.34455,604.60332 1057.04004,605.228233 1056.48292,605.449198 C1047.44097,608.881037 1037.4228,608.850014 1026.69595,605.355977 C1026.38451,605.252398 1026.12845,605.052151 1025.99349,604.765587 C1025.84124,604.454858 1025.82739,604.088889 1025.94504,603.754012 C1028.10777,597.798316 1027.81712,591.697316 1027.42611,583.256482 L1026.06968,583.242677 L1027.42611,583.180533 C1027.26001,579.58297 1025.22874,575.985407 1022.87572,571.828274 C1020.51225,567.647188 1017.98277,563.155427 1017,558.035686 L1068.20348,558.035686 C1071.45281,558.035686 1074.0792,555.411691 1074.0792,552.173239 L1074.0792,550.850901 C1074.0792,547.619343 1071.45281,545.002243 1068.20348,545.002243 L1018.26323,545.002243 C1018.44663,544.515432 1018.60927,544.049357 1018.82381,543.555634 C1026.76535,525.536442 1037.93886,525.305755 1052.31988,525.001709 L1052.31717,525.00451 Z" id="Page-1" fill="#FFFFFF" opacity="0.401551178"></path>
            <g id="Page-1" opacity="0.375509511" transform="translate(1092.000000, 182.000000)" stroke-width="1.5" stroke="#FFFFFF" stroke-linejoin="round">
                <polygon id="Stroke-1" points="32 63.25 0.75 24.1875 16.375 0.75 47.625 0.75 63.25 24.1875"></polygon>
                <polyline id="Stroke-2" points="39.8125 0.75 47.625 24.1875 32 63.25"></polyline>
                <polyline id="Stroke-3" points="24.1875 0.75 16.375 24.1875 32 63.25"></polyline>
                <path d="M63.25,24.1875 L0.75,24.1875" id="Stroke-4"></path>
            </g>
            <path d="M303.713055,378.446085 L303.713055,384.637248 C304.021413,384.637248 304.332789,384.715845 304.641131,384.715845 L310.445471,384.715845 C311.993295,384.715845 313,385.643901 313,387.037531 C313,388.431162 312.071925,389.359218 310.445471,389.359218 L303.713055,389.359218 L303.713055,395.550381 C303.945833,395.550381 304.25419,395.628978 304.486967,395.628978 L310.445471,395.628978 C311.993295,395.628978 313,396.557033 313,397.950664 C313,399.344295 311.993295,400.272351 310.445471,400.272351 L303.634426,400.272351 L303.634426,402.439877 L303.634426,405.148511 C303.555827,407.702985 301.545483,409.637723 298.990954,409.637723 L294.347481,409.637723 C294.347481,410.024671 294.268883,410.333022 294.268883,410.565779 L294.268883,416.524154 C294.268883,418.071945 293.340808,419 291.947147,419 C290.553486,419 289.625411,418.071945 289.625411,416.524154 L289.625411,409.713256 L283.434114,409.713256 C283.434114,410.021607 283.355516,410.254379 283.355516,410.565779 L283.355516,416.291365 C283.355516,417.993316 282.502974,418.921372 281.03378,418.921372 C279.485955,418.921372 278.633414,417.993317 278.633414,416.212738 L278.633414,410.487151 L278.633414,409.634628 L272.442118,409.634628 C272.442118,409.942979 272.363519,410.254348 272.363519,410.562683 L272.363519,416.13411 C272.363519,417.990221 271.589607,418.921372 270.041783,418.921372 C268.493959,418.921372 267.720047,417.993317 267.720047,416.13411 L267.720047,409.634628 L261.52875,409.634628 C261.52875,409.8674 261.450152,410.100172 261.450152,410.329926 L261.450152,416.366928 C261.450152,417.993347 260.522077,418.921402 259.128416,418.921402 C257.659221,418.921402 256.80668,417.993347 256.80668,416.366928 L256.80668,409.556031 L255.258855,409.556031 L252.241837,409.556031 C249.378981,409.556031 247.444201,407.621292 247.365572,404.758499 L247.365572,400.193754 L246.437496,400.193754 L240.478995,400.193754 C239.0098,400.193754 238.003096,399.265698 238.003096,397.872067 C238.003096,396.478437 239.0098,395.550381 240.478995,395.550381 L246.437496,395.550381 L247.365572,395.550381 L247.365572,392.376172 L247.365572,389.28059 L245.739118,389.28059 L240.475899,389.28059 C239.006705,389.28059 238.075534,388.352535 238.075534,386.958904 C238.075534,385.565273 239.003609,384.55859 240.475899,384.55859 L247.286942,384.55859 L247.286942,378.288798 L242.256516,378.288798 L240.400366,378.288798 C238.931171,378.288798 238,377.360743 238,375.967112 C238,374.652109 238.928075,373.645426 240.400366,373.645426 L246.437496,373.645426 L247.290038,373.645426 L247.290038,367.454262 L243.499109,367.454262 L240.482091,367.454262 C239.012896,367.454262 238.006191,366.447579 238.006191,365.053948 C238.006191,363.660318 238.934267,362.81089 240.406557,362.732262 L247.2176,362.732262 C247.2176,362.423911 247.296198,362.112542 247.296198,361.804207 C247.296198,360.410576 247.296198,359.016945 247.374797,357.62641 C247.528976,355.226096 249.46374,353.448613 251.864106,353.369985 L256.661741,353.369985 L256.661741,349.579135 L256.661741,346.404926 C256.661741,344.935763 257.589817,344.004612 258.983477,344.004612 C260.377138,344.004612 261.305214,344.932667 261.383843,346.480458 L261.383843,352.130514 L261.383843,353.291357 L267.575139,353.291357 L267.575139,346.480458 C267.575139,345.086827 268.427681,344.080144 269.664083,344.004612 C271.211907,343.926015 272.218612,344.857135 272.218612,346.404926 L272.218612,352.441929 L272.218612,353.294453 L278.488538,353.294453 L278.488538,349.811923 L278.488538,346.250766 C278.567136,345.089923 279.341079,344.2374 280.344688,344.08324 C281.584186,343.850467 282.587795,344.391591 282.974751,345.476871 C283.358681,346.021012 283.358681,346.486572 283.358681,346.949052 L283.358681,353.448535 L289.628607,353.448535 L289.628607,347.565692 L289.628607,346.483476 C289.707205,345.089846 290.556682,344.16179 291.950343,344.16179 C293.265374,344.16179 294.272079,345.089846 294.272079,346.404849 L294.272079,352.441852 L294.272079,353.524067 L296.439652,353.524067 L299.069715,353.524067 C301.545614,353.602664 303.480394,355.537434 303.559024,358.01328 C303.637622,359.561071 303.559024,361.108862 303.559024,362.73528 C303.94598,362.73528 304.178757,362.813877 304.487099,362.813877 L310.599766,362.813877 C311.839263,362.813877 312.688709,363.587773 312.921502,364.594456 C313.154279,365.833927 312.613145,366.916142 311.527841,367.30309 C311.140885,367.457265 310.6753,367.457265 310.21281,367.457265 L304.562633,367.457265 L303.634558,367.457265 L303.634558,370.552847 L303.634558,373.648429 C303.942915,373.648429 304.254291,373.727025 304.562633,373.727025 L310.521136,373.727025 C311.990331,373.727025 312.997036,374.655081 312.997036,376.048712 C312.997036,377.442343 311.990331,378.370398 310.521136,378.370398 C308.356582,378.445969 306.110457,378.445969 303.71311,378.445969 L303.713055,378.446085 Z M265.631387,398.639421 C266.412101,398.258886 267.427653,398.410507 268.129047,399.323197 C268.754227,400.084266 269.379438,400.235871 270.23635,399.932646 C270.937774,399.703731 271.642259,399.474817 272.343652,399.323197 C274.841312,398.562127 274.765114,398.562127 274.685794,395.975708 C274.685794,395.443553 274.450971,395.137314 273.90508,395.214638 C272.654689,395.214638 271.483618,395.291932 270.626707,396.278918 C270.471173,396.507833 270.23635,396.659453 270.001526,396.736747 C269.766703,396.814041 269.376346,396.736747 269.141492,396.659453 C269.062203,396.582159 269.062203,396.127298 269.220781,395.975677 C269.766672,394.985678 270.626691,394.376213 271.797762,394.224608 C272.499186,394.147314 273.203671,394.072988 273.905064,394.072988 C274.530244,394.072988 274.841296,393.844074 274.765099,393.234594 C274.68581,392.321919 274.68581,391.409244 274.609565,390.419245 C274.454031,388.97443 273.828851,388.364966 272.267423,388.439246 C271.331191,388.51654 270.471157,388.742487 269.534925,388.971401 C268.519372,389.200316 267.58314,389.200316 266.881747,388.439246 C266.335856,387.755471 265.866195,386.994431 265.39964,386.233362 C265.320351,386.081741 265.39964,385.549586 265.555174,385.472292 C265.710708,385.394998 266.180354,385.394998 266.335888,385.549586 C266.646955,385.852827 266.881778,386.233362 267.116601,386.613866 C267.741781,387.678146 268.287672,387.9844 269.458743,387.603866 C271.099491,386.994416 272.737117,386.765471 274.454062,387.526571 C274.454062,387.526571 274.533352,387.526571 274.609596,387.449277 L274.609596,383.795534 C274.219239,384.098774 273.908172,384.253363 273.673364,384.404983 C272.191257,385.317658 271.175704,385.317658 269.849116,384.253363 C269.458759,383.950122 268.989081,383.569587 268.678045,383.189083 C267.897331,382.428013 267.037297,382.199084 265.945546,382.276408 C265.085512,382.353703 264.14928,382.505323 263.292368,382.276408 C261.730941,381.895874 260.248834,381.895874 258.763604,382.353703 C257.202176,382.811532 255.640748,383.192097 254,383.572632 C254.155534,384.943166 254.390357,386.159051 254.545891,387.529585 C255.247315,387.300671 255.796282,387.071756 256.418355,386.99743 C257.043535,386.99743 257.589426,387.226345 258.214621,387.300671 C258.839801,387.377965 258.995335,386.99743 259.150853,386.462276 C259.461921,384.862812 261.337477,384.179067 262.584745,385.320672 C263.676495,386.310671 264.066852,387.526556 264.066852,388.89709 C264.066852,389.65816 263.676495,390.267625 262.975102,390.570835 C262.03887,391.028664 261.102638,391.483509 260.163283,391.941369 C259.617392,392.170283 259.071533,392.321904 258.601855,391.864075 C259.538087,390.645146 260.63296,389.732471 262.270586,389.65819 C262.505409,389.65819 262.97201,389.126035 262.97201,388.819796 C262.97201,387.678192 262.502364,386.613912 261.645421,385.852842 C261.255064,385.472307 260.864707,385.472307 260.709189,386.081757 C260.553655,386.539586 260.398122,386.994431 260.318832,387.374966 C260.007765,388.439246 259.458798,388.7455 258.367048,388.516571 C258.05598,388.439276 257.821157,388.36495 257.586334,388.287656 C256.024906,387.907121 255.634549,388.210362 255.71387,389.732471 C255.71387,389.961385 255.71387,390.1903 255.793159,390.416246 C256.494584,393.002665 257.824264,395.211594 259.617408,397.188548 L259.772942,397.188548 C259.852231,397.036928 259.928475,396.808014 259.928475,396.656393 C260.318832,394.602114 261.020226,394.144255 263.130651,394.221579 L263.441719,394.221579 C264.533469,394.298874 265.393504,393.992665 265.863181,392.92837 C266.174249,392.1673 266.799413,391.709441 267.659447,391.557835 C268.440161,391.406215 269.220875,391.254595 270.080909,391.177301 C270.315733,391.177301 270.6268,391.177301 270.940944,391.254595 C271.175767,391.331889 271.41059,391.557835 271.41059,391.712424 C271.41059,391.864044 271.175767,392.092959 270.940944,392.170253 C270.395053,392.321873 269.849194,392.399168 269.300196,392.550788 C268.519482,392.854028 267.58325,393.008617 267.192893,393.540787 C266.17734,394.911321 264.930072,395.520786 263.133805,395.291856 C261.727896,395.140236 261.026503,395.824011 260.947182,397.271855 C260.867893,398.71667 261.572362,399.858274 262.664128,400.773993 C264.304876,402.218808 266.17734,403.437737 268.208445,404.276131 C269.535034,404.808286 270.940944,405.114526 272.423051,404.959907 C274.219317,404.808286 274.765193,404.276131 274.920711,402.525093 C275,402.067264 275,401.686698 275,401.231883 C275,399.709744 274.37482,399.329209 272.968895,400.090279 C272.108861,400.548108 271.328147,401.002953 270.471235,401.383488 C269.690521,401.686729 268.909807,401.686729 268.284612,401.002953 C267.192862,400.313234 266.412148,399.477846 265.631434,398.639452 L265.631387,398.639421 Z M285.62861,398.794066 C284.150617,398.946623 283.527157,400.020524 282.66951,400.938836 C281.890963,401.782409 281.033316,401.93495 280.023697,401.321721 C279.555354,401.091393 279.16605,400.786279 278.776777,400.555951 C278.232401,400.250837 277.764043,399.942737 277.219683,399.867952 C276.909479,399.79018 276.20695,400.173065 276.20695,400.403394 C275.662574,402.853247 276.051848,405.075819 279.08695,404.998016 C283.21387,404.84546 286.71733,403.161393 289.287468,399.867967 C289.910912,399.024395 290.145115,398.031343 290.066014,396.957427 C289.910912,395.808771 289.44257,395.348084 288.274734,395.425886 C287.730359,395.425886 287.186015,395.578443 286.638541,395.578443 C285.704908,395.656215 284.926361,395.273329 284.613074,394.429787 C284.068698,393.12859 283.05598,392.593164 281.733074,392.515361 C281.343801,392.515361 280.954527,392.515361 280.565254,392.285033 C280.25505,392.132476 279.941809,391.749591 279.707607,391.519263 C280.09688,391.288934 280.486154,390.906049 280.875427,390.983821 C282.666707,391.136377 284.299787,391.671819 285.236534,393.358934 C285.625807,394.124704 286.325253,394.355048 287.1829,394.124704 C287.493105,394.046933 287.806345,393.972148 288.195634,393.972148 C289.597641,393.741819 290.531274,394.202476 290.999648,395.581491 C291.15475,396.116933 291.309852,396.652344 291.46799,397.343375 C293.18017,395.581491 294.42709,393.667065 295.05055,391.369753 C295.205652,390.75654 295.284722,390.068556 295.284722,389.377525 C295.284722,388.459213 294.816379,388.151067 293.882715,388.381411 C291.936348,388.916853 290.923615,388.228854 290.689428,386.466985 C290.689428,386.161871 290.300155,385.623412 290.065983,385.623412 C289.67671,385.623412 289.13235,385.853741 288.977264,386.158854 C288.58799,386.846853 288.353819,387.537854 288.198717,388.303624 C287.964546,389.221936 288.119648,389.604821 289.13235,389.604821 C290.689443,389.682593 291.54709,390.753477 292.55671,391.749591 C291.933265,392.285033 291.38889,392.132476 290.84453,391.827363 C290.145052,391.444477 289.366537,391.139364 288.58799,390.909051 C287.499271,390.603937 286.875811,389.990739 287.030897,388.916822 C287.265068,387.690365 287.654342,386.541709 288.198717,385.470856 C288.66706,384.474741 289.521623,384.244398 290.37927,384.400002 C291.392004,384.630331 291.626191,385.318314 291.781277,386.236626 C291.936379,387.463084 292.480755,387.690365 293.572557,387.23274 C294.585291,386.849855 295.518924,386.236626 296.531657,387.693397 C296.68676,386.239658 296.841862,385.091003 297,383.942347 C297,383.559462 297,383.254348 296.455625,383.329134 C294.819431,383.406905 293.262338,382.793692 291.784345,382.25828 C291.005798,382.027952 290.148151,381.953167 289.293618,382.027952 C288.280885,382.105723 287.268151,382.563394 286.258532,382.488609 C284.312165,382.336052 282.755072,382.871494 281.353065,384.250493 C280.106145,385.476951 278.549052,385.399149 277.150159,384.250493 C276.915988,384.097936 276.681817,383.867608 276.371612,383.63728 L276.371612,387.543934 C276.605784,387.466162 276.760886,387.543934 276.839955,387.466162 C278.162861,386.700392 279.564868,386.93072 280.887775,387.543934 C281.121946,387.621706 281.43215,387.696491 281.666321,387.774262 C282.679055,388.004591 283.144314,387.852034 283.612688,386.93069 C283.846859,386.547804 284.08103,386.164919 284.312165,385.782034 C284.701439,385.321377 285.169812,385.16882 285.714172,385.629477 C285.324899,386.242691 285.014695,386.855935 284.625453,387.466101 C283.846906,388.614757 282.834172,389.150183 281.432166,388.767298 C280.732688,388.614741 279.954173,388.384413 279.251612,388.306641 C277.615419,388.076313 276.447599,388.919855 276.216526,390.52615 C276.137457,391.291921 276.061424,391.979889 276.137457,392.745659 C276.137457,393.972117 276.292559,393.972117 277.539464,394.046856 C278.552197,394.046856 279.564931,394.199413 280.498564,394.429741 C281.27711,394.582298 281.82147,395.195512 281.90057,396.039085 C281.97964,396.344198 281.666399,396.727083 281.590366,397.035199 C281.356195,396.882642 280.966922,396.80487 280.81182,396.652313 C279.799086,395.198575 278.397079,395.198575 276.839986,395.273314 C276.684884,395.273314 276.371644,395.503643 276.371644,395.656199 C276.292574,396.652313 276.371644,397.648428 276.371644,398.719281 C276.995088,398.719281 277.539464,398.719281 278.083823,398.797053 C278.628199,398.874824 279.096557,399.102166 279.561816,399.332495 C281.74237,400.558952 281.818356,400.558952 283.45455,398.719281 C283.837742,397.797983 284.77442,397.872722 285.62903,398.794066 L285.62861,398.794066 Z M273.844257,372.285793 C272.34036,372.829044 272.040784,372.90795 270.536888,372.595357 C270.160914,372.516451 269.78494,372.440575 269.408966,372.361669 C267.755281,372.052105 266.627359,372.829044 266.101597,374.613549 C265.57582,376.246364 266.177965,377.566538 267.605493,378.26454 C268.281074,378.574104 268.959602,378.731916 269.71155,378.962573 C270.613286,379.272137 270.763074,379.739512 270.163892,380.595388 C269.185758,380.206919 268.207623,379.897355 267.232497,379.508917 C265.276229,378.731978 264.224705,376.401161 264.750467,374.149281 C265.202809,372.206934 267.232497,370.731993 269.262155,370.962588 C269.8643,371.041494 270.390078,371.196276 270.992238,371.351058 C272.72232,371.739527 273.773844,370.883682 273.850242,369.099178 C273.92661,367.854832 273.850242,366.613595 273.92661,365.448186 C273.92661,364.904935 273.776807,364.59231 273.25103,364.437544 C271.823531,363.970169 270.619211,362.962603 268.965527,363.193199 C269.191698,362.883635 269.417869,362.571041 269.641107,362.571041 C270.393055,362.492135 271.145003,362.492135 271.820554,362.649947 C272.496134,362.804729 273.098264,363.117323 274,363.426886 C273.923632,362.340415 274,361.405602 273.773829,360.552834 C273.697461,360.085458 273.248052,359.542191 272.872093,359.387425 C270.766037,358.844174 268.65998,358.765268 266.70672,359.854801 C266.254378,360.088488 265.728586,360.865443 265.728586,361.329742 C265.728586,362.728853 265.878389,364.127965 266.10456,365.44814 C266.254363,366.225079 266.78014,366.768314 267.608456,366.768314 C268.65998,366.84722 269.787903,366.84722 270.842435,366.923096 C271.068605,366.923096 271.294776,367.156784 271.594383,367.311566 C271.44458,367.545253 271.294776,367.933723 271.068605,367.933723 C270.316657,368.088505 269.488311,368.243286 268.662973,368.243286 C265.954757,368.088505 265.505393,367.621129 265.053021,364.901827 C264.82685,363.657482 264.677047,362.416244 264.450876,360.938195 C263.549139,361.794071 262.720793,362.413136 262.118633,363.114246 C261.819027,363.502716 261.592856,364.200717 261.666291,364.589187 C261.892462,365.599829 262.341872,366.610471 262.794214,367.618006 C263.170188,368.473882 263.772348,369.250821 264.071924,370.103589 C264.597701,371.502701 264.37153,372.822875 263.396344,373.909347 C262.494607,374.995818 261.290287,374.919989 260.088975,374.60738 C259.110841,374.373692 258.209105,374.064129 257.230971,373.909347 C256.479023,373.754565 255.727074,373.830441 255.124914,374.531504 C254.372966,375.463209 254.223178,376.628618 254.07339,377.948792 C254.975126,377.715105 255.727074,377.560323 256.479023,377.326635 C258.209105,376.783384 259.939187,376.938166 261.592871,377.092948 C261.892477,377.092948 262.118648,377.402511 262.421217,377.636199 C262.195046,377.869887 261.89544,378.17945 261.592871,378.17945 C260.840923,378.258356 260.088975,378.258356 259.337027,378.258356 C258.81125,378.258356 258.209105,378.103574 257.683343,378.258356 C256.405632,378.56792 255.201312,378.956389 254,379.344827 L254,382.373646 C255.803472,381.985177 257.460164,381.675613 259.113849,381.208238 C260.241771,380.898674 261.369693,380.819768 262.574013,381.053456 C263.402359,381.208238 264.304095,381.36302 265.129434,381.287144 C266.783118,381.287144 268.137226,381.675613 269.18875,383.074725 C270.090486,384.240133 271.670781,384.31907 272.648915,383.229507 C273.174692,382.686255 273.627049,381.830395 273.776837,381.053456 C273.92664,379.809111 273.853205,378.488936 273.776837,377.247698 C273.776837,377.092916 273.477231,376.780323 273.25106,376.704447 C272.422714,376.549665 271.597375,376.470759 270.769029,376.394883 C270.243252,376.315977 269.717505,376.240102 269.790895,375.617944 C269.940698,374.995787 270.466476,375.074693 270.995215,375.150569 C271.59736,375.305351 272.199535,375.460133 272.798688,375.539039 C273.25103,375.617944 273.700424,375.460133 273.776822,374.916881 C273.844384,374.152078 273.844384,373.296264 273.844384,372.285622 L273.844257,372.285793 Z M297,378.250522 C296.687965,377.152894 296.528894,376.28823 296.296395,375.503313 C295.904825,374.405685 295.121684,373.933479 293.867406,374.089834 C293.084266,374.16955 292.301125,374.482293 291.438417,374.562009 C290.499275,374.71838 289.480566,374.954467 288.541424,374.874751 C286.895575,374.795035 286.112435,373.777123 286.348004,372.207289 C286.504021,371.029914 286.895591,369.932286 287.366713,368.831518 C287.758283,367.810498 288.385422,366.789478 288.776992,365.771598 C289.480597,363.965661 288.229405,361.847013 286.348004,361.374807 C286.035969,362.944641 285.800416,364.594222 285.485296,366.164056 C285.173261,367.497787 284.154583,368.206096 282.744304,368.206096 C281.881596,368.206096 281.022021,368.285813 280.159313,368.362468 C279.688207,368.362468 279.140604,368.362468 278.672599,368.206096 C278.516582,368.12638 278.281029,367.657267 278.360565,367.500896 C278.4401,367.344524 278.831671,367.188153 279.064169,367.108437 C279.691293,367.028721 280.394882,367.028721 281.101588,367.028721 C281.649176,367.028721 282.276299,366.87235 282.823871,366.949005 C283.919015,366.949005 284.310585,366.712917 284.390152,365.615274 C284.469688,364.201795 284.469688,362.868064 284.469688,361.454586 C284.469688,360.120855 283.9221,359.412546 282.591403,359.25619 C281.337125,359.099819 280.162415,358.943448 278.911269,359.020103 C277.032985,359.099819 276.170277,360.041123 276.09071,361.923668 C276.011174,363.337146 276.326263,363.573249 277.656991,363.101043 C278.596133,362.788301 279.535276,362.395843 280.553985,362.236379 C281.493127,362.080008 282.040699,362.628837 282.432269,363.649857 C282.040699,363.649857 281.649129,363.649857 281.337125,363.570141 C280.397983,363.097967 279.535276,363.334054 278.6757,363.726512 C278.048577,364.039255 277.344988,364.275342 276.638282,364.591177 C276.482265,364.670893 276.246712,364.903919 276.246712,365.140007 C276.246712,366.553485 276.167176,367.887216 276.246712,369.300695 C276.402729,371.262987 278.048561,372.20426 279.850411,371.49909 C280.397999,371.263003 281.025122,371.106632 281.652261,371.186348 C283.374544,371.266064 285.096827,372.676434 285.723966,374.482371 C286.271553,376.131953 285.879983,378.014498 284.313686,379.112126 C283.218542,379.897043 281.884697,380.289501 280.553985,380.761707 C280.318432,380.841423 279.926861,380.681991 279.614843,380.605336 C279.77086,380.292594 279.850396,379.820419 280.085949,379.740671 C280.633536,379.427929 281.340227,379.191842 281.964233,379.035471 C283.842517,378.563296 284.705225,377.152926 284.234088,375.267241 C283.762982,373.225201 282.276236,372.127573 280.397952,372.599779 C278.987672,372.912522 277.65696,373.541052 276.170246,372.443408 C276.09071,373.384681 276.09071,374.09299 276.014228,374.798159 C275.934693,375.819179 276.170246,376.055282 277.188939,375.975535 C277.97208,375.895818 278.675653,375.739447 279.458794,375.662792 C280.085917,375.583076 280.713072,375.742508 280.945508,376.527457 C279.458794,377.468729 277.812946,377.392121 276.167097,377.392121 L276.167097,380.8445 C276.167097,382.257979 276.794221,383.355607 277.88938,384.296879 C279.064091,385.317899 280.003233,385.238152 280.865941,383.984137 C281.805083,382.650406 283.059361,382.101592 284.702077,382.1782 C285.876788,382.1782 287.131066,381.942112 288.305777,381.865457 C289.324486,381.785741 290.343195,381.785741 291.282337,381.865457 C292.22148,382.021829 293.084187,382.414287 294.02333,382.650374 C294.80647,382.886462 295.669178,382.963117 296.684755,383.199204 L296.684755,380.531742 C296.684755,379.982913 296.528737,379.826541 296.057631,379.746825 C294.962487,379.510738 293.864211,379.197996 292.6895,378.961908 C292.218394,378.882192 291.594356,378.882192 291.123219,378.961908 C290.028075,379.197996 289.009366,379.041624 288.070224,378.56945 C287.834671,378.489734 287.599118,377.940904 287.678653,377.784533 C287.758189,377.548445 288.149759,377.392074 288.461794,377.312358 C288.697347,377.232642 288.9329,377.392074 289.165399,377.548445 C289.869004,378.02062 290.575678,377.940904 291.435254,377.861188 C292.138858,377.704817 292.921968,377.781472 293.628674,377.940904 C294.886006,377.622031 295.825148,377.937835 296.999859,378.250577 L297,378.250522 Z M290.046705,364 C289.972387,364 289.900922,364.082198 289.755139,364.082198 C289.680821,364.243437 289.609356,364.404676 289.535038,364.648113 C289.02337,365.862142 288.511732,367.1584 287.925731,368.372429 C287.634165,369.020542 287.339745,369.586457 287.119615,370.234586 C286.679412,371.935521 287.485499,373.14955 289.023385,372.985089 C290.632691,372.82385 292.170577,372.419174 294,372.014514 C293.559797,370.961709 293.193883,370.070207 292.68223,369.260855 C292.390664,368.694939 291.876113,368.773981 291.438808,369.178657 C291.218707,369.422094 290.998605,369.82677 290.707039,369.988009 C290.415473,370.149248 289.97527,370.149248 289.609386,370.149248 C289.683704,369.82677 289.609386,369.339896 289.829487,369.178673 C290.415473,368.53056 291.072909,367.882414 291.733258,367.237523 C291.218736,366.184717 290.63275,365.052919 290.046749,364.000113 L290.046705,364 Z M256.00003,371.863644 C256.750484,372.021911 257.275202,372.180178 257.876166,372.341544 C258.400899,372.499811 259.001848,372.658078 259.526565,372.819444 C260.051298,372.900126 260.652247,373.058394 261.176965,372.977711 C262.528383,372.897028 263.278838,371.866774 262.90361,370.436157 C262.754105,369.958257 262.604599,369.483471 262.378878,369.00554 C261.628423,367.335957 260.877969,365.747088 260.127514,364.080683 C260.127514,364.080683 260.051298,364.080683 259.901793,364 C259.450349,364.794434 258.925602,365.588869 258.400884,366.383303 C258.025657,367.01947 258.175162,367.416703 258.699895,367.81392 C259.300844,368.211137 259.825576,368.689069 260.27705,369.244537 C260.502772,369.483487 260.353266,369.958289 260.426555,370.277937 C260.051328,370.277937 259.599855,370.436204 259.300874,370.277937 C258.84943,370.038987 258.474173,369.64177 258.098946,369.325252 C257.799935,369.086302 257.574213,368.928035 257.122755,368.6115 C256.826678,369.641802 256.375235,370.752739 256,371.863755 L256.00003,371.863644 Z" id="Page-1" fill="#FFFFFF" opacity="0.202728714"></path>
        </g>
    </g>
</svg>