<?xml version="1.0" encoding="UTF-8"?>
<svg width="24px" height="24px" viewBox="0 0 24 24" version="1.1" xmlns="http://www.w3.org/2000/svg" xmlns:xlink="http://www.w3.org/1999/xlink">
    <!-- Generator: Sketch 44.1 (41455) - http://www.bohemiancoding.com/sketch -->
    <title>np_calendar_999733_6D6D6D</title>
    <desc>Created with Sketch.</desc>
    <defs></defs>
    <g id="UI-MVP" stroke="none" stroke-width="1" fill="none" fill-rule="evenodd" opacity="0.603374094">
        <g id="Inspiring-content-detail-page---Learning---embedded---MacBook-Pro-13" transform="translate(-875.000000, -594.000000)" fill-rule="nonzero" fill="#6D6D6D">
            <g id="Group-8" transform="translate(180.000000, 590.000000)">
                <g id="time" transform="translate(695.000000, 3.000000)">
                    <g id="np_calendar_999733_6D6D6D" transform="translate(0.000000, 1.000000)">
                        <path d="M21.2935605,2.25940351 L19.3149127,2.25940351 L19.3149127,4.44497544 C19.3149127,5.37850526 18.5379232,6.1393193 17.5867775,6.1393193 C16.6346296,6.1393193 15.8586422,5.37752281 15.8586422,4.44497544 L15.8586422,2.25940351 L7.71698673,2.25940351 L7.71698673,4.44497544 C7.71698673,5.37850526 6.93999723,6.1393193 5.98885146,6.1393193 C5.03670364,6.1393193 4.26071619,5.37752281 4.26071619,4.44497544 L4.26071619,2.25940351 L2.25661639,2.25940351 C1.12931024,2.25940351 0.227064508,3.14400702 0.227064508,4.24927018 L0.227064508,21.4673053 C0.227064508,22.5725684 1.12931024,23.4571719 2.25661639,23.4571719 L21.2955646,23.4571719 C22.4228707,23.4571719 23.3251164,22.5725684 23.3251164,21.4673053 L23.3251164,4.24927018 C23.3231592,3.14400702 22.4209167,2.25940351 21.2936106,2.25940351 L21.2935605,2.25940351 Z M22.1449021,21.4661754 C22.1449021,21.9324491 21.7691334,22.3008702 21.2935605,22.3008702 L2.25461229,22.3008702 C1.7790394,22.3008702 1.40327069,21.9324491 1.40327069,21.4661754 L1.40327069,9.75063158 L22.1702539,9.75063158 L22.1702539,21.4661754 L22.1449021,21.4661754 Z" id="Shape"></path>
                        <path d="M5.98674715,5.25564912 C6.46232004,5.25564912 6.83808875,4.88722807 6.83808875,4.42095439 L6.83808875,0.933480702 C6.83808875,0.467207018 6.46232004,0.0987859649 5.98674715,0.0987859649 C5.51117427,0.0987859649 5.13540556,0.467207018 5.13540556,0.933480702 L5.13540556,4.42095439 C5.13540556,4.88722807 5.51117427,5.25564912 5.98674715,5.25564912 Z" id="Shape"></path>
                        <path d="M17.5857253,5.25564912 C18.0612982,5.25564912 18.4370669,4.88722807 18.4370669,4.42095439 L18.4370669,0.933480702 C18.4370669,0.467207018 18.0612982,0.0987859649 17.5857253,0.0987859649 C17.1101524,0.0987859649 16.7343837,0.467207018 16.7343837,0.933480702 L16.7343837,4.42095439 C16.758848,4.88722807 17.1346275,5.25564912 17.5857253,5.25564912 Z" id="Shape"></path>
                        <path d="M8.1161032,13.7794386 L10.5458738,13.7794386 C10.9969967,13.7794386 11.3727654,13.4110175 11.3727654,12.9687158 L11.3727654,11.4211509 C11.3727654,10.9788491 10.9969967,10.6104281 10.5458738,10.6104281 L8.1161032,10.6104281 C7.66498034,10.6104281 7.28921162,10.9788491 7.28921162,11.4211509 L7.28921162,12.9687158 C7.29019012,13.4110175 7.66595733,13.7794386 8.1161032,13.7794386 Z" id="Shape"></path>
                        <path d="M12.9767968,13.7794386 L15.4065674,13.7794386 C15.8576903,13.7794386 16.233459,13.4110175 16.233459,12.9687158 L16.233459,11.4211509 C16.233459,10.9788491 15.8576903,10.6104281 15.4065674,10.6104281 L12.9767968,10.6104281 C12.5256739,10.6104281 12.1499052,10.9788491 12.1499052,11.4211509 L12.1499052,12.9687158 C12.1499052,13.4110175 12.5256739,13.7794386 12.9767968,13.7794386 L12.9767968,13.7794386 Z" id="Shape"></path>
                        <path d="M17.8617901,13.7794386 L20.2915607,13.7794386 C20.7426835,13.7794386 21.1184523,13.4110175 21.1184523,12.9687158 L21.1184523,11.4211509 C21.1184523,10.9788491 20.7426835,10.6104281 20.2915607,10.6104281 L17.8617901,10.6104281 C17.4106672,10.6104281 17.0348985,10.9788491 17.0348985,11.4211509 L17.0348985,12.9687158 C17.0348985,13.4110175 17.3852151,13.7794386 17.8617901,13.7794386 Z" id="Shape"></path>
                        <path d="M3.25666219,17.6102807 L5.6864328,17.6102807 C6.13755567,17.6102807 6.51332438,17.2418596 6.51332438,16.7995579 L6.51332438,15.251993 C6.51332438,14.8096912 6.13755567,14.4412702 5.6864328,14.4412702 L3.25666219,14.4412702 C2.80553932,14.4412702 2.42977061,14.8096912 2.42977061,15.251993 L2.42977061,16.7995579 C2.42977061,17.2418596 2.78106425,17.6102807 3.25666219,17.6102807 Z" id="Shape"></path>
                        <path d="M8.1161032,17.6102807 L10.5458738,17.6102807 C10.9969967,17.6102807 11.3727654,17.2418596 11.3727654,16.7995579 L11.3727654,15.251993 C11.3727654,14.8096912 10.9969967,14.4412702 10.5458738,14.4412702 L8.1161032,14.4412702 C7.66498034,14.4412702 7.28921162,14.8096912 7.28921162,15.251993 L7.28921162,16.7995579 C7.29019012,17.2418596 7.66595733,17.6102807 8.1161032,17.6102807 Z" id="Shape"></path>
                        <path d="M12.9767968,17.6102807 L15.4065674,17.6102807 C15.8576903,17.6102807 16.233459,17.2418596 16.233459,16.7995579 L16.233459,15.251993 C16.233459,14.8096912 15.8576903,14.4412702 15.4065674,14.4412702 L12.9767968,14.4412702 C12.5256739,14.4412702 12.1499052,14.8096912 12.1499052,15.251993 L12.1499052,16.7995579 C12.1499052,17.2418596 12.5256739,17.6102807 12.9767968,17.6102807 L12.9767968,17.6102807 Z" id="Shape"></path>
                        <path d="M17.8617901,17.6102807 L20.2915607,17.6102807 C20.7426835,17.6102807 21.1184523,17.2418596 21.1184523,16.7995579 L21.1184523,15.251993 C21.1184523,14.8096912 20.7426835,14.4412702 20.2915607,14.4412702 L17.8617901,14.4412702 C17.4106672,14.4412702 17.0348985,14.8096912 17.0348985,15.251993 L17.0348985,16.7995579 C17.0348985,17.2418596 17.3852151,17.6102807 17.8617901,17.6102807 Z" id="Shape"></path>
                        <path d="M3.25666219,21.4423509 L5.6864328,21.4423509 C6.13755567,21.4423509 6.51332438,21.0739298 6.51332438,20.6316281 L6.51332438,19.0840632 C6.51332438,18.6417614 6.13755567,18.2733404 5.6864328,18.2733404 L3.25666219,18.2733404 C2.80553932,18.2733404 2.42977061,18.6417614 2.42977061,19.0840632 L2.42977061,20.6316281 C2.42977061,21.0739298 2.78106425,21.4423509 3.25666219,21.4423509 Z" id="Shape"></path>
                        <path d="M8.1161032,21.4423509 L10.5458738,21.4423509 C10.9969967,21.4423509 11.3727654,21.0739298 11.3727654,20.6316281 L11.3727654,19.0840632 C11.3727654,18.6417614 10.9969967,18.2733404 10.5458738,18.2733404 L8.1161032,18.2733404 C7.66498034,18.2733404 7.28921162,18.6417614 7.28921162,19.0840632 L7.28921162,20.6316281 C7.29019012,21.0739298 7.66595733,21.4423509 8.1161032,21.4423509 Z" id="Shape"></path>
                        <path d="M12.9767968,21.4423509 L15.4065674,21.4423509 C15.8576903,21.4423509 16.233459,21.0739298 16.233459,20.6316281 L16.233459,19.0840632 C16.233459,18.6417614 15.8576903,18.2733404 15.4065674,18.2733404 L12.9767968,18.2733404 C12.5256739,18.2733404 12.1499052,18.6417614 12.1499052,19.0840632 L12.1499052,20.6316281 C12.1499052,21.0739298 12.5256739,21.4423509 12.9767968,21.4423509 L12.9767968,21.4423509 Z" id="Shape"></path>
                    </g>
                </g>
            </g>
        </g>
    </g>
</svg>