<?xml version="1.0" encoding="UTF-8"?>
<svg fill="#FFFFFF" width="100pt" height="100pt" version="1.1" viewBox="0 0 100 100" xmlns="http://www.w3.org/2000/svg">
 <g>
  <path d="m21 34.703h11.227c0.73828 2.2734 2.875 3.9219 5.3945 3.9219 2.5195 0 4.6523-1.6484 5.3945-3.9219h35.984c0.96875 0 1.75-0.78516 1.75-1.75s-0.78125-1.75-1.75-1.75h-35.988c-0.73828-2.2734-2.875-3.9258-5.3945-3.9258-2.5195 0-4.6523 1.6484-5.3945 3.9258h-11.223c-0.96484 0-1.75 0.78516-1.75 1.75s0.78516 1.75 1.75 1.75zm16.621-3.9258c1.1992 0 2.1719 0.97656 2.1719 2.1758s-0.97656 2.1719-2.1719 2.1719c-1.1992 0-2.1719-0.97656-2.1719-2.1719-0.003907-1.1992 0.97266-2.1758 2.1719-2.1758z"/>
  <path d="m79 48.68h-11.023c-0.73828-2.2734-2.875-3.9219-5.3945-3.9219-2.5156 0-4.6523 1.6484-5.3945 3.9219h-36.188c-0.96484 0-1.75 0.78516-1.75 1.75 0 0.96484 0.78516 1.75 1.75 1.75h36.191c0.73828 2.2734 2.875 3.9258 5.3945 3.9258 2.5195 0 4.6523-1.6484 5.3945-3.9258h11.02c0.96875 0 1.75-0.78125 1.75-1.75s-0.78125-1.75-1.75-1.75zm-16.414 3.9219c-1.1992 0-2.1719-0.97656-2.1719-2.1719 0-1.1992 0.97656-2.1719 2.1719-2.1719 1.1953 0 2.1719 0.97656 2.1719 2.1719 0 1.1992-0.97656 2.1719-2.1719 2.1719z"/>
  <path d="m79 65.297h-25.391c-0.73828-2.2734-2.875-3.9219-5.3945-3.9219-2.5156 0-4.6562 1.6484-5.3945 3.9219h-21.82c-0.96484 0-1.75 0.78125-1.75 1.75s0.78516 1.75 1.75 1.75h21.82c0.73828 2.2734 2.8789 3.9219 5.3945 3.9219s4.6523-1.6484 5.3945-3.9219h25.391c0.96875 0 1.75-0.78125 1.75-1.75 0-0.96484-0.78125-1.75-1.75-1.75zm-30.785 3.9258c-1.1992 0-2.1758-0.97656-2.1758-2.1719 0-1.1992 0.97656-2.1719 2.1758-2.1719 1.1992 0 2.1719 0.97656 2.1719 2.1719 0 1.1953-0.97266 2.1719-2.1719 2.1719z"/>
 </g>
</svg>
