<?xml version="1.0" encoding="UTF-8" standalone="no"?>
<!DOCTYPE svg PUBLIC "-//W3C//DTD SVG 1.1//EN" "http://www.w3.org/Graphics/SVG/1.1/DTD/svg11.dtd">
<svg width="100%" height="100%" viewBox="0 0 44 44" version="1.1" xmlns="http://www.w3.org/2000/svg" xmlns:xlink="http://www.w3.org/1999/xlink" xml:space="preserve" xmlns:serif="http://www.serif.com/" style="fill-rule:evenodd;clip-rule:evenodd;stroke-linejoin:round;stroke-miterlimit:1.41421;">
    <path d="M22,0C9.8,0 0,9.8 0,22C0,34.2 9.8,44 22,44C34.2,44 44,34.2 44,22C44,9.8 34.2,0 22,0ZM34.7,15.1L18.7,31.7C18.5,31.9 18.3,32 18,32C17.7,32 17.4,31.9 17.3,31.7L9.5,23.3L9.3,23.1C9.1,22.9 9,22.6 9,22.4C9,22.2 9.1,21.9 9.3,21.7L10.7,20.3C11.1,19.9 11.7,19.9 12.1,20.3L12.2,20.4L17.7,26.3C17.9,26.5 18.2,26.5 18.4,26.3L31.8,12.4L31.9,12.4C32.3,12 32.9,12 33.3,12.4L34.7,13.8C35.1,14.1 35.1,14.7 34.7,15.1Z" style="fill:white;fill-rule:nonzero;"/>
</svg>
