<?xml version="1.0" encoding="UTF-8"?>
<svg width="129px" height="38px" viewBox="0 0 129 38" version="1.1" xmlns="http://www.w3.org/2000/svg" xmlns:xlink="http://www.w3.org/1999/xlink">
    <!-- Generator: Sketch 46.2 (44496) - http://www.bohemiancoding.com/sketch -->
    <title>Download_on_the_App_Store_Badge_US-UK_135x40</title>
    <desc>Created with Sketch.</desc>
    <defs></defs>
    <g id="UI-MVP" stroke="none" stroke-width="1" fill="none" fill-rule="evenodd">
        <g id="Topic-detail-page---Learning---embedded---MacBook-Pro-13" transform="translate(-653.000000, -1723.000000)" fill-rule="nonzero">
            <g id="Group-26" transform="translate(503.000000, 1714.000000)">
                <g id="Download_on_the_App_Store_Badge_US-UK_135x40" transform="translate(150.000000, 9.000000)">
                    <path d="M124.410467,38 L4.51882222,38 C2.02768889,38 0,35.9784 0,33.50365 L0,4.4897 C0,2.014 2.02768889,0 4.51882222,0 L124.410467,0 C126.900644,0 129,2.014 129,4.4897 L129,33.50365 C129,35.9784 126.900644,38 124.410467,38 L124.410467,38 Z" id="Shape" fill="#A6A6A6"></path>
                    <path d="M128,33.3913317 C128,35.3850503 126.365069,37 124.342867,37 L4.66190233,37 C2.64065434,37 1,35.3850503 1,33.3913317 L1,4.6133794 C1,2.62060302 2.64065434,1 4.66190233,1 L124.341913,1 C126.365069,1 127.999046,2.62060302 127.999046,4.6133794 L128,33.3913317 L128,33.3913317 Z" id="Shape" fill="#000000"></path>
                    <g id="Group" transform="translate(11.000000, 6.000000)" fill="#FFFFFF">
                        <path d="M17.304,13.2538462 C17.2763182,10.1548077 19.8230455,8.64711538 19.9395,8.57692308 C18.4971818,6.45865385 16.2616364,6.16923077 15.4760455,6.14615385 C13.5984545,5.94711538 11.7771818,7.27788462 10.8207273,7.27788462 C9.84518182,7.27788462 8.37231818,6.16538462 6.78490909,6.19807692 C4.74218182,6.22980769 2.83118182,7.42115385 1.78309091,9.27115385 C-0.379909091,13.0432692 1.23327273,18.5865385 3.30559091,21.6355769 C4.34222727,23.1288462 5.55354545,24.7961538 7.13904545,24.7375 C8.69018182,24.6730769 9.26959091,23.7413462 11.1414545,23.7413462 C12.9961364,23.7413462 13.5402273,24.7375 15.1572273,24.7 C16.8219545,24.6730769 17.8700455,23.2 18.8704091,21.6932692 C20.0683636,19.9817308 20.5494545,18.2961538 20.5685455,18.2096154 C20.5294091,18.1961538 17.3355,16.9682692 17.304,13.2538462 Z" id="Shape"></path>
                        <path d="M14.2494545,4.14038462 C15.0837273,3.08942308 15.6545455,1.65961538 15.4960909,0.208653846 C14.2885909,0.2625 12.7785,1.05 11.9089091,2.07788462 C11.1395455,2.98365385 10.4522727,4.46826923 10.6298182,5.86442308 C11.9862273,5.96634615 13.3789091,5.175 14.2494545,4.14038462 Z" id="Shape"></path>
                    </g>
                    <g id="Group" transform="translate(40.000000, 17.000000)" fill="#FFFFFF">
                        <path d="M11.0699383,12.7537778 L8.91108642,12.7537778 L7.72851852,9.06194444 L3.61804938,9.06194444 L2.4915679,12.7537778 L0.389753086,12.7537778 L4.46219753,0.185111111 L6.97753086,0.185111111 L11.0699383,12.7537778 Z M7.37203704,7.51305556 L6.30259259,4.23111111 C6.18946914,3.89583333 5.97748148,3.10627778 5.6647284,1.86338889 L5.6267037,1.86338889 C5.50217284,2.39794444 5.30159259,3.1875 5.02591358,4.23111111 L3.97548148,7.51305556 L7.37203704,7.51305556 L7.37203704,7.51305556 Z" id="Shape"></path>
                        <path d="M21.5428889,8.11088889 C21.5428889,9.65222222 21.1236667,10.8705556 20.2852222,11.7649444 C19.5342346,12.5611111 18.601679,12.9587222 17.4885062,12.9587222 C16.2869259,12.9587222 15.4237654,12.5299444 14.8980741,11.6723889 L14.8600494,11.6723889 L14.8600494,16.4465556 L12.8333333,16.4465556 L12.8333333,6.67438889 C12.8333333,5.70538889 12.8076667,4.71088889 12.7582346,3.69088889 L14.540642,3.69088889 L14.6537654,5.12738889 L14.6917901,5.12738889 C15.367679,4.04505556 16.3933951,3.50483333 17.7698889,3.50483333 C18.8459877,3.50483333 19.744321,3.927 20.4629877,4.77227778 C21.1835556,5.6185 21.5428889,6.73105556 21.5428889,8.11088889 Z M19.4781481,8.18455556 C19.4781481,7.30244444 19.2785185,6.57522222 18.877358,6.00288889 C18.4391235,5.406 17.8506914,5.10755556 17.1130123,5.10755556 C16.6129877,5.10755556 16.1585926,5.27377778 15.752679,5.6015 C15.3458148,5.93205556 15.079642,6.36366667 14.9551111,6.89822222 C14.8923704,7.14755556 14.861,7.35155556 14.861,7.51211111 L14.861,9.02322222 C14.861,9.68244444 15.0644321,10.2387222 15.4712963,10.693 C15.8781605,11.1472778 16.4067037,11.3739444 17.0569259,11.3739444 C17.8202716,11.3739444 18.4144074,11.0811667 18.8393333,10.4975 C19.2652099,9.91288889 19.4781481,9.14222222 19.4781481,8.18455556 Z" id="Shape"></path>
                        <path d="M32.0348519,8.11088889 C32.0348519,9.65222222 31.6156296,10.8705556 30.7762346,11.7649444 C30.0261975,12.5611111 29.093642,12.9587222 27.9804691,12.9587222 C26.7788889,12.9587222 25.9157284,12.5299444 25.3909877,11.6723889 L25.352963,11.6723889 L25.352963,16.4465556 L23.3262469,16.4465556 L23.3262469,6.67438889 C23.3262469,5.70538889 23.3005802,4.71088889 23.2511481,3.69088889 L25.0335556,3.69088889 L25.146679,5.12738889 L25.1847037,5.12738889 C25.859642,4.04505556 26.885358,3.50483333 28.2628025,3.50483333 C29.3379506,3.50483333 30.236284,3.927 30.9568519,4.77227778 C31.6745679,5.6185 32.0348519,6.73105556 32.0348519,8.11088889 Z M29.9701111,8.18455556 C29.9701111,7.30244444 29.7695309,6.57522222 29.3683704,6.00288889 C28.9301358,5.406 28.3436049,5.10755556 27.6049753,5.10755556 C27.104,5.10755556 26.6505556,5.27377778 26.2436914,5.6015 C25.8368272,5.93205556 25.5716049,6.36366667 25.4470741,6.89822222 C25.385284,7.14755556 25.352963,7.35155556 25.352963,7.51211111 L25.352963,9.02322222 C25.352963,9.68244444 25.5563951,10.2387222 25.961358,10.693 C26.3682222,11.1463333 26.8967654,11.3739444 27.5488889,11.3739444 C28.3122346,11.3739444 28.9063704,11.0811667 29.3312963,10.4975 C29.7571728,9.91288889 29.9701111,9.14222222 29.9701111,8.18455556 Z" id="Shape"></path>
                        <path d="M43.7654691,9.22911111 C43.7654691,10.2982222 43.3918765,11.1680556 42.6418395,11.8395556 C41.8176543,12.5733889 40.6702593,12.9398333 39.1958519,12.9398333 C37.8345679,12.9398333 36.7432593,12.6791667 35.9171728,12.1568889 L36.3867778,10.4786111 C37.2765556,11.0131667 38.2528395,11.2813889 39.3165802,11.2813889 C40.0799259,11.2813889 40.6740617,11.1095 41.1008889,10.7676111 C41.5258148,10.4257222 41.7378025,9.96672222 41.7378025,9.39438889 C41.7378025,8.88438889 41.5628889,8.45466667 41.2121111,8.10616667 C40.8632346,7.75766667 40.2805062,7.43372222 39.4667778,7.13433333 C37.2518395,6.31361111 36.145321,5.11133333 36.145321,3.53033333 C36.145321,2.49711111 36.5331728,1.64994444 37.3098272,0.990722222 C38.0836296,0.330555556 39.116,0.000944444444 40.4069383,0.000944444444 C41.5581358,0.000944444444 42.5144568,0.200222222 43.2778025,0.597833333 L42.7711235,2.23927778 C42.0581605,1.85394444 41.252037,1.66127778 40.3499012,1.66127778 C39.6369383,1.66127778 39.0798765,1.836 38.6806173,2.18355556 C38.3431481,2.49427778 38.1739383,2.873 38.1739383,3.32161111 C38.1739383,3.81838889 38.3669136,4.22922222 38.7547654,4.55222222 C39.0922346,4.85066667 39.7053827,5.17366667 40.5951605,5.52216667 C41.6836173,5.95755556 42.4830864,6.46661111 42.9973704,7.05027778 C43.5097531,7.63205556 43.7654691,8.36022222 43.7654691,9.22911111 Z" id="Shape"></path>
                        <path d="M50.4663704,5.202 L48.2324198,5.202 L48.2324198,9.60216667 C48.2324198,10.7213333 48.6259753,11.2804444 49.4149877,11.2804444 C49.7771728,11.2804444 50.0775679,11.2492778 50.3152222,11.1869444 L50.3713086,12.716 C49.9720494,12.8642778 49.446358,12.9388889 48.7951852,12.9388889 C47.9947654,12.9388889 47.3692593,12.6961667 46.917716,12.2116667 C46.4680741,11.7262222 46.2418272,10.9121111 46.2418272,9.76838889 L46.2418272,5.20011111 L44.910963,5.20011111 L44.910963,3.689 L46.2418272,3.689 L46.2418272,2.02961111 L48.2324198,1.43272222 L48.2324198,3.689 L50.4663704,3.689 L50.4663704,5.202 Z" id="Shape"></path>
                        <path d="M60.5457654,8.14772222 C60.5457654,9.54077778 60.1446049,10.6845 59.3441852,11.5788889 C58.5047901,12.4997222 57.3906667,12.9587222 56.0018148,12.9587222 C54.6633457,12.9587222 53.5977037,12.5176667 52.8029877,11.6355556 C52.0082716,10.7534444 51.6109136,9.63994444 51.6109136,8.29788889 C51.6109136,6.8935 52.019679,5.74316667 52.8400617,4.84877778 C53.6585432,3.95344444 54.7631605,3.50577778 56.1520123,3.50577778 C57.4904815,3.50577778 58.5675309,3.94683333 59.3803086,4.82988889 C60.1579136,5.6865 60.5457654,6.79244444 60.5457654,8.14772222 Z M58.443,8.21288889 C58.443,7.37705556 58.2633333,6.66022222 57.8992469,6.06238889 C57.474321,5.33894444 56.8668765,4.97816667 56.0797654,4.97816667 C55.2650864,4.97816667 54.6462346,5.33988889 54.2213086,6.06238889 C53.8572222,6.66116667 53.6775556,7.38933333 53.6775556,8.25066667 C53.6775556,9.0865 53.8572222,9.80333333 54.2213086,10.4002222 C54.6595432,11.1236667 55.2717407,11.4844444 56.0617037,11.4844444 C56.8355062,11.4844444 57.4429506,11.1161111 57.8811852,10.3813333 C58.2547778,9.77216667 58.443,9.04777778 58.443,8.21288889 Z" id="Shape"></path>
                        <path d="M67.1335432,5.46172222 C66.932963,5.42488889 66.7190741,5.406 66.4947284,5.406 C65.7817654,5.406 65.2304074,5.67327778 64.8425556,6.20877778 C64.5050864,6.681 64.3358765,7.27788889 64.3358765,7.9985 L64.3358765,12.7537778 L62.3101111,12.7537778 L62.3291235,6.545 C62.3291235,5.50044444 62.3034568,4.54938889 62.2530741,3.69183333 L64.0183704,3.69183333 L64.0925185,5.42583333 L64.1486049,5.42583333 C64.3624938,4.82988889 64.699963,4.35011111 65.161963,3.99027778 C65.6135062,3.66633333 66.1011728,3.50483333 66.6268642,3.50483333 C66.8141358,3.50483333 66.9833457,3.51805556 67.1335432,3.54166667 L67.1335432,5.46172222 Z" id="Shape"></path>
                        <path d="M76.197679,7.79355556 C76.197679,8.15433333 76.1739136,8.45844444 76.1235309,8.70683333 L70.0433827,8.70683333 C70.0671481,9.60216667 70.3608889,10.2868889 70.9255556,10.7591111 C71.4379383,11.1812778 72.1005185,11.3928333 72.9142469,11.3928333 C73.8144815,11.3928333 74.6358148,11.2502222 75.3744444,10.9640556 L75.6919506,12.3618333 C74.8287901,12.7358333 73.8097284,12.9218889 72.6338148,12.9218889 C71.2192963,12.9218889 70.1089753,12.5082222 69.3009506,11.6818333 C68.4948272,10.8554444 68.0908148,9.74572222 68.0908148,8.35361111 C68.0908148,6.987 68.4663086,5.84894444 69.2182469,4.94133333 C70.005358,3.97233333 71.0690988,3.48783333 72.4075679,3.48783333 C73.7222716,3.48783333 74.7175679,3.97233333 75.3934568,4.94133333 C75.9286543,5.71105556 76.197679,6.66305556 76.197679,7.79355556 Z M74.2650741,7.27127778 C74.2783827,6.67438889 74.1462469,6.15872222 73.8715185,5.72333333 C73.5207407,5.16327778 72.9817407,4.88372222 72.2564198,4.88372222 C71.5938395,4.88372222 71.0548395,5.15666667 70.6432222,5.70444444 C70.3057531,6.13983333 70.1051728,6.66211111 70.0433827,7.27033333 L74.2650741,7.27033333 L74.2650741,7.27127778 Z" id="Shape"></path>
                    </g>
                    <g id="Group" transform="translate(41.000000, 6.000000)" fill="#FFFFFF">
                        <path d="M5.74367089,4.009 C5.74367089,5.186 5.4085443,6.072 4.73924051,6.667 C4.1193038,7.216 3.23829114,7.491 2.0971519,7.491 C1.53132911,7.491 1.0471519,7.465 0.641772152,7.413 L0.641772152,0.982 C1.17056962,0.892 1.74018987,0.846 2.35537975,0.846 C3.44240506,0.846 4.26170886,1.095 4.81424051,1.593 C5.43322785,2.156 5.74367089,2.961 5.74367089,4.009 Z M4.69462025,4.038 C4.69462025,3.275 4.5028481,2.69 4.1193038,2.282 C3.73575949,1.875 3.17563291,1.671 2.43797468,1.671 C2.12468354,1.671 1.85791139,1.693 1.63670886,1.739 L1.63670886,6.628 C1.75917722,6.648 1.98322785,6.657 2.30886076,6.657 C3.07025316,6.657 3.65791139,6.434 4.07183544,5.988 C4.48575949,5.542 4.69462025,4.892 4.69462025,4.038 Z" id="Shape"></path>
                        <path d="M11.3060127,5.037 C11.3060127,5.762 11.1094937,6.356 10.7164557,6.822 C10.3044304,7.301 9.7585443,7.54 9.07689873,7.54 C8.41993671,7.54 7.89683544,7.311 7.50664557,6.851 C7.11740506,6.392 6.92278481,5.813 6.92278481,5.115 C6.92278481,4.385 7.12310127,3.786 7.52563291,3.321 C7.92816456,2.856 8.4693038,2.623 9.15094937,2.623 C9.80791139,2.623 10.3357595,2.852 10.735443,3.311 C11.1151899,3.757 11.3060127,4.333 11.3060127,5.037 Z M10.2740506,5.071 C10.2740506,4.636 10.1848101,4.263 10.0072785,3.952 C9.79841772,3.576 9.50126582,3.388 9.11487342,3.388 C8.71518987,3.388 8.41139241,3.576 8.20253165,3.952 C8.02405063,4.263 7.93575949,4.642 7.93575949,5.09 C7.93575949,5.525 8.025,5.898 8.20253165,6.209 C8.41803797,6.585 8.71803797,6.773 9.10537975,6.773 C9.48512658,6.773 9.78322785,6.582 9.99778481,6.199 C10.181962,5.882 10.2740506,5.506 10.2740506,5.071 Z" id="Shape"></path>
                        <path d="M18.7642405,2.719 L17.3639241,7.433 L16.4525316,7.433 L15.8724684,5.386 C15.7253165,4.875 15.6056962,4.367 15.5126582,3.863 L15.4946203,3.863 C15.4082278,4.381 15.2886076,4.888 15.1348101,5.386 L14.5186709,7.433 L13.5968354,7.433 L12.2800633,2.719 L13.3025316,2.719 L13.8085443,4.96 C13.9310127,5.49 14.0316456,5.995 14.1123418,6.473 L14.1303797,6.473 C14.2044304,6.079 14.3268987,5.577 14.4996835,4.97 L15.1348101,2.72 L15.9455696,2.72 L16.5541139,4.922 C16.7012658,5.459 16.8208861,5.976 16.9129747,6.474 L16.9405063,6.474 C17.0079114,5.989 17.1094937,5.472 17.2443038,4.922 L17.7873418,2.72 L18.7642405,2.72 L18.7642405,2.719 Z" id="Shape"></path>
                        <path d="M23.9221519,7.433 L22.9272152,7.433 L22.9272152,4.733 C22.9272152,3.901 22.6272152,3.485 22.0253165,3.485 C21.7300633,3.485 21.4917722,3.599 21.3066456,3.828 C21.1234177,4.057 21.0303797,4.327 21.0303797,4.636 L21.0303797,7.432 L20.035443,7.432 L20.035443,4.066 C20.035443,3.652 20.0231013,3.203 19.9993671,2.717 L20.8737342,2.717 L20.9202532,3.454 L20.9477848,3.454 C21.0636076,3.225 21.2363924,3.036 21.4632911,2.885 C21.7329114,2.709 22.0348101,2.62 22.3651899,2.62 C22.7829114,2.62 23.1303797,2.762 23.4066456,3.047 C23.7503165,3.396 23.9221519,3.917 23.9221519,4.609 L23.9221519,7.433 L23.9221519,7.433 Z" id="Shape"></path>
                        <polygon id="Shape" points="26.6658228 7.433 25.6718354 7.433 25.6718354 0.556 26.6658228 0.556"></polygon>
                        <path d="M32.5234177,5.037 C32.5234177,5.762 32.3268987,6.356 31.9338608,6.822 C31.5218354,7.301 30.975,7.54 30.2943038,7.54 C29.6363924,7.54 29.1132911,7.311 28.7240506,6.851 C28.3348101,6.392 28.1401899,5.813 28.1401899,5.115 C28.1401899,4.385 28.3405063,3.786 28.743038,3.321 C29.1455696,2.856 29.6867089,2.623 30.3674051,2.623 C31.0253165,2.623 31.5522152,2.852 31.9528481,3.311 C32.3325949,3.757 32.5234177,4.333 32.5234177,5.037 Z M31.4905063,5.071 C31.4905063,4.636 31.4012658,4.263 31.2237342,3.952 C31.0158228,3.576 30.7177215,3.388 30.3322785,3.388 C29.9316456,3.388 29.6278481,3.576 29.4199367,3.952 C29.2414557,4.263 29.1531646,4.642 29.1531646,5.09 C29.1531646,5.525 29.2424051,5.898 29.4199367,6.209 C29.635443,6.585 29.935443,6.773 30.3227848,6.773 C30.7025316,6.773 30.9996835,6.582 31.2142405,6.199 C31.3993671,5.882 31.4905063,5.506 31.4905063,5.071 Z" id="Shape"></path>
                        <path d="M37.3386076,7.433 L36.4452532,7.433 L36.3712025,6.89 L36.3436709,6.89 C36.0379747,7.323 35.6022152,7.54 35.0363924,7.54 C34.6139241,7.54 34.2721519,7.397 34.0148734,7.113 C33.7813291,6.855 33.664557,6.534 33.664557,6.153 C33.664557,5.577 33.8924051,5.138 34.3509494,4.834 C34.8085443,4.53 35.4522152,4.381 36.2810127,4.388 L36.2810127,4.3 C36.2810127,3.679 35.971519,3.369 35.3515823,3.369 C34.9101266,3.369 34.5208861,3.486 34.1848101,3.718 L33.9825949,3.03 C34.3984177,2.759 34.9120253,2.623 35.5177215,2.623 C36.6873418,2.623 37.2740506,3.273 37.2740506,4.573 L37.2740506,6.309 C37.2740506,6.78 37.2958861,7.155 37.3386076,7.433 Z M36.3056962,5.813 L36.3056962,5.086 C35.2082278,5.066 34.6594937,5.383 34.6594937,6.036 C34.6594937,6.282 34.7221519,6.466 34.8503165,6.589 C34.978481,6.712 35.1417722,6.773 35.3363924,6.773 C35.5547468,6.773 35.7588608,6.7 35.9449367,6.555 C36.131962,6.409 36.2468354,6.224 36.289557,5.997 C36.3,5.946 36.3056962,5.884 36.3056962,5.813 Z" id="Shape"></path>
                        <path d="M42.9920886,7.433 L42.1091772,7.433 L42.0626582,6.676 L42.0351266,6.676 C41.7531646,7.252 41.2727848,7.54 40.5977848,7.54 C40.0585443,7.54 39.6094937,7.317 39.253481,6.871 C38.8974684,6.425 38.7199367,5.846 38.7199367,5.135 C38.7199367,4.372 38.9126582,3.754 39.3,3.282 C39.675,2.842 40.1344937,2.622 40.6813291,2.622 C41.2822785,2.622 41.7028481,2.835 41.9420886,3.262 L41.9610759,3.262 L41.9610759,0.556 L42.956962,0.556 L42.956962,6.163 C42.956962,6.622 42.9683544,7.045 42.9920886,7.433 Z M41.9610759,5.445 L41.9610759,4.659 C41.9610759,4.523 41.9515823,4.413 41.9335443,4.329 C41.8775316,4.077 41.756962,3.865 41.5737342,3.694 C41.3886076,3.523 41.1655063,3.437 40.9082278,3.437 C40.5370253,3.437 40.246519,3.592 40.0329114,3.903 C39.8212025,4.214 39.7139241,4.611 39.7139241,5.096 C39.7139241,5.562 39.8155063,5.94 40.0196203,6.231 C40.2351266,6.541 40.5256329,6.696 40.8892405,6.696 C41.2158228,6.696 41.4768987,6.567 41.6753165,6.308 C41.8670886,6.069 41.9610759,5.781 41.9610759,5.445 Z" id="Shape"></path>
                        <path d="M51.5012658,5.037 C51.5012658,5.762 51.3047468,6.356 50.9117089,6.822 C50.4996835,7.301 49.9547468,7.54 49.2721519,7.54 C48.6161392,7.54 48.093038,7.311 47.7018987,6.851 C47.3126582,6.392 47.118038,5.813 47.118038,5.115 C47.118038,4.385 47.3183544,3.786 47.7208861,3.321 C48.1234177,2.856 48.664557,2.623 49.3471519,2.623 C50.0031646,2.623 50.531962,2.852 50.9306962,3.311 C51.310443,3.757 51.5012658,4.333 51.5012658,5.037 Z M50.4702532,5.071 C50.4702532,4.636 50.3810127,4.263 50.203481,3.952 C49.9936709,3.576 49.6974684,3.388 49.3101266,3.388 C48.9113924,3.388 48.6075949,3.576 48.3977848,3.952 C48.2193038,4.263 48.1310127,4.642 48.1310127,5.09 C48.1310127,5.525 48.2202532,5.898 48.3977848,6.209 C48.6132911,6.585 48.9132911,6.773 49.3006329,6.773 C49.6803797,6.773 49.9794304,6.582 50.1939873,6.199 C50.3772152,5.882 50.4702532,5.506 50.4702532,5.071 Z" id="Shape"></path>
                        <path d="M56.8509494,7.433 L55.856962,7.433 L55.856962,4.733 C55.856962,3.901 55.556962,3.485 54.9541139,3.485 C54.6588608,3.485 54.4205696,3.599 54.2363924,3.828 C54.0522152,4.057 53.9601266,4.327 53.9601266,4.636 L53.9601266,7.432 L52.9642405,7.432 L52.9642405,4.066 C52.9642405,3.652 52.9528481,3.203 52.9291139,2.717 L53.8025316,2.717 L53.8490506,3.454 L53.8765823,3.454 C53.9933544,3.225 54.1661392,3.036 54.3920886,2.885 C54.6626582,2.709 54.9636076,2.62 55.2949367,2.62 C55.7117089,2.62 56.0591772,2.762 56.335443,3.047 C56.6800633,3.396 56.8509494,3.917 56.8509494,4.609 L56.8509494,7.433 L56.8509494,7.433 Z" id="Shape"></path>
                        <path d="M63.5468354,3.504 L62.4512658,3.504 L62.4512658,5.794 C62.4512658,6.376 62.6458861,6.667 63.0313291,6.667 C63.2098101,6.667 63.3579114,6.651 63.4746835,6.618 L63.5003165,7.413 C63.3037975,7.491 63.0455696,7.53 62.7275316,7.53 C62.3344937,7.53 62.0287975,7.404 61.8075949,7.152 C61.585443,6.9 61.4753165,6.476 61.4753165,5.881 L61.4753165,3.504 L60.8212025,3.504 L60.8212025,2.719 L61.4753165,2.719 L61.4753165,1.855 L62.4503165,1.545 L62.4503165,2.718 L63.5458861,2.718 L63.5458861,3.504 L63.5468354,3.504 Z" id="Shape"></path>
                        <path d="M68.8139241,7.433 L67.818038,7.433 L67.818038,4.753 C67.818038,3.908 67.518038,3.485 66.9170886,3.485 C66.4556962,3.485 66.1405063,3.73 65.9677215,4.22 C65.9382911,4.323 65.9212025,4.449 65.9212025,4.597 L65.9212025,7.432 L64.9272152,7.432 L64.9272152,0.556 L65.9212025,0.556 L65.9212025,3.397 L65.9401899,3.397 C66.253481,2.88 66.7025316,2.622 67.2844937,2.622 C67.696519,2.622 68.0373418,2.764 68.3079114,3.049 C68.6449367,3.404 68.8139241,3.932 68.8139241,4.63 L68.8139241,7.433 L68.8139241,7.433 Z" id="Shape"></path>
                        <path d="M74.2471519,4.853 C74.2471519,5.041 74.2338608,5.199 74.2101266,5.328 L71.2262658,5.328 C71.239557,5.794 71.381962,6.149 71.6582278,6.395 C71.9107595,6.615 72.2363924,6.725 72.6351266,6.725 C73.0765823,6.725 73.4791139,6.651 73.8417722,6.502 L73.9974684,7.23 C73.5731013,7.424 73.0737342,7.521 72.4955696,7.521 C71.8025316,7.521 71.2566456,7.306 70.8617089,6.876 C70.4648734,6.446 70.2683544,5.869 70.2683544,5.145 C70.2683544,4.434 70.4515823,3.842 70.8208861,3.37 C71.2063291,2.866 71.7275316,2.614 72.385443,2.614 C73.0291139,2.614 73.518038,2.866 73.8484177,3.37 C74.1151899,3.77 74.2471519,4.265 74.2471519,4.853 Z M73.2977848,4.582 C73.3053797,4.271 73.2398734,4.003 73.1050633,3.777 C72.9322785,3.486 72.6693038,3.34 72.3132911,3.34 C71.9886076,3.34 71.7237342,3.482 71.521519,3.767 C71.3563291,3.994 71.2585443,4.265 71.2262658,4.582 L73.2977848,4.582 Z" id="Shape"></path>
                    </g>
                </g>
            </g>
        </g>
    </g>
</svg>