<?xml version="1.0" encoding="UTF-8"?>
<svg fill="#FFFFFF" width="100pt" height="100pt" version="1.1" viewBox="0 0 100 100" xmlns="http://www.w3.org/2000/svg">
 <path d="m49.91 6.6484c-11.484 0-22.5 4.5625-30.621 12.684-8.1211 8.1172-12.684 19.129-12.688 30.613-0.003906 11.484 4.5508 22.5 12.668 30.625 8.1172 8.125 19.129 12.691 30.613 12.699 11.484 0.007813 22.5-4.5469 30.629-12.66 8.125-8.1172 12.699-19.125 12.707-30.609 0.011719-11.492-4.5469-22.52-12.668-30.652-8.125-8.1289-19.148-12.699-30.641-12.699zm-27.078 26 5.4688-0.80078v0.003906c0.34766-0.042968 0.64453-0.26172 0.78906-0.58203l2.4492-5c0.18359-0.35547 0.54688-0.57812 0.94531-0.57812s0.76562 0.22266 0.94531 0.57812l2.4492 5c0.14453 0.32031 0.44531 0.53906 0.79297 0.58203l5.4805 0.80078-0.003906-0.003906c0.42187 0.015624 0.78906 0.29297 0.92187 0.69141 0.12891 0.40234-0.007812 0.84375-0.33984 1.1016l-4 3.8594c-0.25 0.24219-0.36328 0.58594-0.30859 0.92969l0.94141 5.4609h-0.003906c0.070313 0.39453-0.089844 0.79688-0.41797 1.0352-0.32422 0.23438-0.75781 0.26563-1.1133 0.074219l-4.8281-2.582c-0.3125-0.16406-0.6875-0.16406-1 0l-4.8984 2.582c-0.35547 0.17969-0.78516 0.14844-1.1055-0.085937-0.32422-0.23438-0.48828-0.62891-0.42578-1.0234l0.94141-5.4609c0.054687-0.33984-0.058594-0.6875-0.30078-0.92969l-4-3.8594c-0.33984-0.26562-0.47266-0.71484-0.33203-1.1172 0.14062-0.40625 0.52344-0.67578 0.94922-0.67578zm27.047 47.883c-6.6211-0.003906-12.988-2.5625-17.77-7.1484-4.7812-4.582-7.6094-10.836-7.8906-17.453-0.003906-0.28516 0.10547-0.55859 0.30469-0.76172 0.19922-0.20312 0.47266-0.31641 0.75781-0.31641h49.199c0.27734-0.003906 0.54688 0.11328 0.73828 0.32031 0.1875 0.20312 0.28516 0.48047 0.26172 0.75781-0.27734 6.6094-3.0938 12.855-7.8633 17.441-4.7695 4.582-11.121 7.1484-17.738 7.1602zm26.883-46.09-4 3.8594c-0.26172 0.23438-0.37891 0.58594-0.3125 0.92969l0.94141 5.4609c0.050781 0.38281-0.10547 0.76172-0.41797 0.99609-0.30859 0.23047-0.72266 0.27344-1.0742 0.11328l-4.8984-2.582c-0.30859-0.17578-0.69141-0.17578-1 0l-4.8984 2.5781v0.003906c-0.35547 0.17969-0.78516 0.14844-1.1055-0.085937-0.32422-0.23438-0.48828-0.62891-0.42578-1.0234l0.94141-5.4609c0.054687-0.33984-0.058594-0.6875-0.30078-0.92969l-4-3.8594c-0.33594-0.26172-0.46875-0.70312-0.33984-1.1055 0.13281-0.40234 0.50391-0.67578 0.92969-0.6875l5.4688-0.80078v0.003906c0.34766-0.042968 0.64453-0.26172 0.78906-0.58203l2.4492-5h0.003907c0.17969-0.35547 0.54297-0.57812 0.94141-0.57812 0.40234 0 0.76562 0.22266 0.94531 0.57812l2.4492 5h0.003906c0.14063 0.32031 0.44141 0.53906 0.78906 0.58203l5.4805 0.80078v-0.003906c0.42969-0.011719 0.82422 0.25781 0.96875 0.66406 0.14453 0.40625 0.011718 0.86328-0.32812 1.1289z"/>
</svg>
