<?xml version="1.0" encoding="UTF-8"?>
<svg width="11px" height="19px" viewBox="0 0 11 19" version="1.1" xmlns="http://www.w3.org/2000/svg" xmlns:xlink="http://www.w3.org/1999/xlink">
    <!-- Generator: Sketch 46.2 (44496) - http://www.bohemiancoding.com/sketch -->
    <title>facebook-logo</title>
    <desc>Created with Sketch.</desc>
    <defs></defs>
    <g id="Symbols" stroke="none" stroke-width="1" fill="none" fill-rule="evenodd">
        <g id="Footer" transform="translate(-146.000000, -74.000000)" fill-rule="nonzero" fill="#FFFFFF">
            <g id="Group" transform="translate(48.000000, 22.000000)">
                <g id="Group-23" transform="translate(98.000000, 23.000000)">
                    <g id="facebook-logo" transform="translate(0.855596, 29.128924)">
                        <path d="M9.41997136,0.00376129344 L7.07574522,0 C4.44208755,0 2.74010227,1.74618048 2.74010227,4.44885788 L2.74010227,6.50007926 L0.383087737,6.50007926 C0.179413697,6.50007926 0.0144809798,6.66520004 0.0144809798,6.86887408 L0.0144809798,9.8408601 C0.0144809798,10.0445341 0.179601762,10.2094669 0.383087737,10.2094669 L2.74010227,10.2094669 L2.74010227,17.7087337 C2.74010227,17.9124078 2.90503499,18.0773405 3.10870903,18.0773405 L6.18394255,18.0773405 C6.38761659,18.0773405 6.5525493,17.9122197 6.5525493,17.7087337 L6.5525493,10.2094669 L9.30844901,10.2094669 C9.51212305,10.2094669 9.67705577,10.0445341 9.67705577,9.8408601 L9.67818415,6.86887408 C9.67818415,6.77108045 9.63925477,6.67742425 9.57023503,6.60821645 C9.5012153,6.53900865 9.40718296,6.50007926 9.30938933,6.50007926 L6.5525493,6.50007926 L6.5525493,4.7612333 C6.5525493,3.9254739 6.75170979,3.5012 7.84041618,3.5012 L9.41959523,3.50063581 C9.62308121,3.50063581 9.78801392,3.33551502 9.78801392,3.13202905 L9.78801392,0.372368051 C9.78801392,0.16907014 9.62326927,0.00413742279 9.41997136,0.00376129344 Z" id="Shape"></path>
                    </g>
                </g>
            </g>
        </g>
    </g>
</svg>