<?xml version="1.0" encoding="UTF-8" standalone="no"?>
<!DOCTYPE svg PUBLIC "-//W3C//DTD SVG 1.1//EN" "http://www.w3.org/Graphics/SVG/1.1/DTD/svg11.dtd">
<svg width="100%" height="100%" viewBox="0 0 1334 1334" version="1.1" xmlns="http://www.w3.org/2000/svg" xmlns:xlink="http://www.w3.org/1999/xlink" xml:space="preserve" xmlns:serif="http://www.serif.com/" style="fill-rule:evenodd;clip-rule:evenodd;stroke-linejoin:round;stroke-miterlimit:1.41421;">
    <g transform="matrix(9.83918e-17,1.60686,-1.63091,9.98642e-17,1356.4,-12.6077)">
        <rect x="4.426" y="7.731" width="838.458" height="829.222" style="fill:url(#_Linear1);"/>
    </g>
    <g transform="matrix(0.526307,0,0,0.526307,0.756596,377.982)">
        <g>
            <g>
                <g>
                    <g transform="matrix(4.16667,0,0,4.16667,5.68434e-13,2.27374e-13)">
                        <path d="M220.334,76.451C222.944,77.876 224.985,79.952 226.457,82.681C227.928,85.411 228.664,88.697 228.664,92.542L228.664,110.055C228.664,111.1 228.32,111.966 227.632,112.655C226.943,113.342 226.076,113.686 225.033,113.686C223.989,113.686 223.122,113.342 222.434,112.655C221.746,111.966 221.402,111.1 221.402,110.055L221.402,92.542C221.402,88.697 220.37,85.79 218.305,83.82C216.24,81.851 213.499,80.865 210.082,80.865C208.089,80.865 206.273,81.269 204.636,82.076C202.998,82.884 201.717,83.974 200.791,85.351C199.865,86.728 199.403,88.269 199.403,89.978L199.403,110.055C199.403,111.1 199.07,111.966 198.406,112.655C197.74,113.342 196.863,113.686 195.772,113.686C194.727,113.686 193.861,113.342 193.173,112.655C192.485,111.966 192.141,111.1 192.141,110.055L192.141,61.642C192.141,60.552 192.485,59.674 193.173,59.009C193.861,58.345 194.727,58.012 195.772,58.012C196.863,58.012 197.74,58.345 198.406,59.009C199.07,59.674 199.403,60.552 199.403,61.642L199.403,79.086C200.921,77.567 202.724,76.392 204.814,75.561C206.902,74.731 209.132,74.315 211.506,74.315C214.781,74.315 217.723,75.028 220.334,76.451Z" style="fill:white;fill-rule:nonzero;"/>
                    </g>
                    <g transform="matrix(4.16667,0,0,4.16667,5.68434e-13,2.27374e-13)">
                        <path d="M245.958,83.357C243.798,85.257 242.434,87.796 241.864,90.975L265.572,90.975C265.145,87.796 263.958,85.257 262.012,83.357C260.066,81.46 257.527,80.51 254.394,80.51C250.929,80.51 248.117,81.46 245.958,83.357ZM271.197,95.781C270.579,96.375 269.796,96.672 268.847,96.672L241.793,96.672C242.314,99.994 243.822,102.675 246.314,104.716C248.805,106.757 251.855,107.777 255.463,107.777C256.885,107.777 258.368,107.517 259.911,106.995C261.454,106.472 262.724,105.831 263.721,105.072C264.385,104.55 265.168,104.288 266.071,104.288C266.972,104.288 267.684,104.527 268.206,105C269.061,105.712 269.488,106.52 269.488,107.421C269.488,108.276 269.108,108.988 268.349,109.557C266.735,110.838 264.729,111.883 262.333,112.69C259.936,113.497 257.644,113.9 255.463,113.9C251.57,113.9 248.081,113.058 244.997,111.372C241.911,109.688 239.502,107.35 237.77,104.36C236.037,101.37 235.172,97.977 235.172,94.179C235.172,90.383 235.99,86.977 237.628,83.963C239.265,80.949 241.544,78.599 244.463,76.915C247.382,75.23 250.692,74.387 254.394,74.387C258.049,74.387 261.204,75.194 263.864,76.807C266.521,78.422 268.562,80.677 269.987,83.571C271.41,86.467 272.122,89.79 272.122,93.538C272.122,94.44 271.813,95.188 271.197,95.781Z" style="fill:white;fill-rule:nonzero;"/>
                    </g>
                    <g transform="matrix(4.16667,0,0,4.16667,5.68434e-13,2.27374e-13)">
                        <path d="M313.344,77.804C313.344,78.279 313.201,78.848 312.917,79.513L291.131,128.495C290.561,129.965 289.635,130.702 288.354,130.702C287.879,130.702 287.309,130.56 286.646,130.275C285.221,129.658 284.51,128.732 284.51,127.498C284.51,126.929 284.652,126.36 284.937,125.789L292.056,109.771L276.037,79.371C275.799,78.943 275.681,78.445 275.681,77.876C275.681,77.26 275.87,76.689 276.251,76.167C276.63,75.645 277.129,75.241 277.746,74.956C278.173,74.767 278.647,74.672 279.17,74.672C280.498,74.672 281.495,75.337 282.16,76.665L295.189,102.58L306.652,76.736C307.268,75.36 308.193,74.672 309.428,74.672C310.044,74.672 310.614,74.791 311.136,75.028C312.607,75.598 313.344,76.523 313.344,77.804Z" style="fill:white;fill-rule:nonzero;"/>
                    </g>
                </g>
                <g transform="matrix(-4.16667,-5.10269e-16,5.10269e-16,-4.16667,3123.48,1364.01)">
                    <path d="M323.028,136.37C321.698,135.04 321.032,133.453 321.032,131.611C321.032,129.768 321.698,128.182 323.028,126.851C324.359,125.521 325.945,124.855 327.787,124.855C329.63,124.855 331.217,125.521 332.547,126.851C333.878,128.182 334.543,129.768 334.543,131.611C334.543,133.453 333.878,135.04 332.547,136.37C331.217,137.701 329.63,138.367 327.787,138.367C325.945,138.367 324.359,137.701 323.028,136.37Z" style="fill:white;fill-rule:nonzero;"/>
                </g>
            </g>
            <g transform="matrix(4.16667,0,0,4.16667,4.54747e-13,0)">
                <path d="M202.088,199.986C196.662,196.985 192.927,193.061 190.879,188.215C190.537,187.397 190.368,186.714 190.368,186.168C190.368,185.144 190.742,184.241 191.493,183.455C192.243,182.672 193.267,182.143 194.564,181.869C194.769,181.802 195.11,181.767 195.588,181.767C196.678,181.767 197.719,182.091 198.71,182.74C199.699,183.388 200.432,184.258 200.91,185.349C202.138,188.01 204.56,190.262 208.178,192.105C211.794,193.948 215.786,194.869 220.154,194.869C225.272,194.869 229.604,193.692 233.154,191.337C236.701,188.983 238.476,185.759 238.476,181.663C238.476,177.775 236.974,174.448 233.972,171.685C230.969,168.92 226.398,167.232 220.256,166.618C211.794,165.798 205.14,163.327 200.296,159.197C195.45,155.069 193.029,149.9 193.029,143.689C193.029,139.323 194.273,135.551 196.765,132.379C199.255,129.206 202.667,126.785 207.001,125.112C211.333,123.44 216.196,122.604 221.587,122.604C227.455,122.604 232.402,123.798 236.429,126.186C240.454,128.576 243.866,131.987 246.664,136.421C247.483,137.719 247.893,138.947 247.893,140.107C247.893,141.609 247.21,142.837 245.846,143.792C245.094,144.27 244.208,144.508 243.184,144.508C242.161,144.508 241.204,144.252 240.319,143.741C239.43,143.229 238.748,142.53 238.271,141.642C236.429,138.572 234.126,136.235 231.362,134.63C228.598,133.028 225.101,132.225 220.87,132.225C215.684,132.225 211.487,133.233 208.281,135.245C205.072,137.258 203.469,140.176 203.469,143.996C203.469,147.545 204.903,150.514 207.768,152.901C210.635,155.29 215.752,156.86 223.122,157.61C231.311,158.429 237.657,160.903 242.161,165.031C246.664,169.161 248.917,174.601 248.917,181.357C248.917,186.27 247.586,190.485 244.925,193.998C242.263,197.514 238.732,200.14 234.33,201.88C229.929,203.62 225.203,204.49 220.154,204.49C213.534,204.49 207.512,202.991 202.088,199.986Z" style="fill:white;fill-rule:nonzero;"/>
            </g>
            <g transform="matrix(4.16667,0,0,4.16667,4.54747e-13,0)">
                <path d="M307.567,199.167C307.567,200.669 306.952,201.931 305.724,202.954C304.7,203.774 303.608,204.183 302.448,204.183C300.947,204.183 299.719,203.569 298.764,202.34L279.316,178.287L274.198,182.79L274.198,198.452C274.198,199.953 273.737,201.163 272.816,202.085C271.895,203.006 270.682,203.466 269.182,203.466C267.68,203.466 266.47,203.006 265.549,202.085C264.627,201.163 264.167,199.953 264.167,198.452L264.167,128.54C264.167,127.039 264.627,125.828 265.549,124.907C266.47,123.985 267.68,123.525 269.182,123.525C270.682,123.525 271.895,123.985 272.816,124.907C273.737,125.828 274.198,127.039 274.198,128.54L274.198,170.201L299.071,147.989C299.957,147.102 301.016,146.658 302.244,146.658C303.677,146.658 304.837,147.204 305.724,148.295C306.61,149.183 307.055,150.241 307.055,151.468C307.055,152.901 306.508,154.063 305.417,154.949L286.583,171.735L306.441,196.097C307.191,196.915 307.567,197.94 307.567,199.167Z" style="fill:white;fill-rule:nonzero;"/>
            </g>
            <g transform="matrix(4.16667,0,0,4.16667,4.54747e-13,0)">
                <path d="M324.051,201.982C323.062,200.995 322.567,199.748 322.567,198.246L322.567,152.697C322.567,151.127 323.062,149.866 324.051,148.91C325.04,147.955 326.286,147.476 327.787,147.476C329.357,147.476 330.618,147.955 331.574,148.91C332.53,149.866 333.008,151.127 333.008,152.697L333.008,198.246C333.008,199.748 332.53,200.995 331.574,201.982C330.618,202.973 329.357,203.466 327.787,203.466C326.286,203.466 325.04,202.973 324.051,201.982ZM323.028,136.37C321.698,135.04 321.032,133.453 321.032,131.611C321.032,129.768 321.698,128.182 323.028,126.851C324.359,125.521 325.945,124.855 327.787,124.855C329.63,124.855 331.217,125.521 332.547,126.851C333.878,128.182 334.543,129.768 334.543,131.611C334.543,133.453 333.878,135.04 332.547,136.37C331.217,137.701 329.63,138.367 327.787,138.367C325.945,138.367 324.359,137.701 323.028,136.37Z" style="fill:white;fill-rule:nonzero;"/>
            </g>
            <g transform="matrix(4.16667,0,0,4.16667,4.54747e-13,0)">
                <path d="M355.24,201.061C352.885,199.458 351.058,197.207 349.763,194.306C348.466,191.407 347.819,188.149 347.819,184.531L347.819,128.642C347.819,127.143 348.295,125.913 349.251,124.957C350.206,124.003 351.434,123.525 352.936,123.525C354.436,123.525 355.665,124.003 356.621,124.957C357.576,125.913 358.054,127.143 358.054,128.642L358.054,184.531C358.054,187.056 358.531,189.136 359.487,190.774C360.442,192.412 361.67,193.231 363.172,193.231L365.731,193.231C367.095,193.231 368.204,193.709 369.057,194.664C369.91,195.62 370.337,196.849 370.337,198.348C370.337,199.851 369.688,201.078 368.392,202.034C367.095,202.991 365.424,203.466 363.377,203.466L363.172,203.466C360.238,203.466 357.594,202.665 355.24,201.061Z" style="fill:white;fill-rule:nonzero;"/>
            </g>
            <g transform="matrix(4.16667,0,0,4.16667,4.54747e-13,0)">
                <path d="M385.946,201.061C383.591,199.458 381.764,197.207 380.469,194.306C379.172,191.407 378.524,188.149 378.524,184.531L378.524,128.642C378.524,127.143 379.001,125.913 379.957,124.957C380.912,124.003 382.14,123.525 383.642,123.525C385.142,123.525 386.37,124.003 387.327,124.957C388.282,125.913 388.76,127.143 388.76,128.642L388.76,184.531C388.76,187.056 389.237,189.136 390.193,190.774C391.148,192.412 392.376,193.231 393.878,193.231L396.437,193.231C397.802,193.231 398.91,193.709 399.763,194.664C400.616,195.62 401.043,196.849 401.043,198.348C401.043,199.851 400.394,201.078 399.098,202.034C397.802,202.991 396.13,203.466 394.083,203.466L393.878,203.466C390.943,203.466 388.3,202.665 385.946,201.061Z" style="fill:white;fill-rule:nonzero;"/>
            </g>
            <g transform="matrix(4.16667,0,0,4.16667,124.396,0)">
                <path d="M490.81,125.06C491.834,126.084 492.345,127.347 492.345,128.847L492.345,198.144C492.345,199.646 491.816,200.908 490.759,201.931C489.7,202.954 488.456,203.466 487.023,203.466C485.521,203.466 484.26,202.954 483.236,201.931C482.212,200.908 481.7,199.646 481.7,198.144L481.7,147.272L456.93,197.735C455.769,199.51 454.233,200.396 452.323,200.396C450.072,200.396 448.434,199.339 447.41,197.222L422.947,148.193L422.947,198.144C422.947,199.646 422.435,200.908 421.411,201.931C420.388,202.954 419.124,203.466 417.624,203.466C416.122,203.466 414.861,202.954 413.837,201.931C412.813,200.908 412.302,199.646 412.302,198.144L412.302,128.847C412.302,127.347 412.813,126.084 413.837,125.06C414.861,124.037 416.122,123.525 417.624,123.525C419.671,123.525 421.24,124.481 422.332,126.391L452.733,187.293L482.314,126.391C483.405,124.481 484.976,123.525 487.023,123.525C488.523,123.525 489.787,124.037 490.81,125.06Z" style="fill:white;fill-rule:nonzero;"/>
            </g>
            <g transform="matrix(4.16667,0,0,4.16667,124.396,0)">
                <path d="M520.119,159.964C517.013,162.694 515.052,166.346 514.232,170.916L548.319,170.916C547.704,166.346 545.998,162.694 543.2,159.964C540.402,157.236 536.752,155.87 532.248,155.87C527.266,155.87 523.223,157.236 520.119,159.964ZM556.405,177.827C555.517,178.68 554.391,179.106 553.027,179.106L514.13,179.106C514.88,183.882 517.047,187.739 520.63,190.672C524.213,193.606 528.597,195.073 533.784,195.073C535.831,195.073 537.963,194.699 540.181,193.948C542.398,193.198 544.224,192.276 545.657,191.184C546.612,190.434 547.738,190.058 549.035,190.058C550.331,190.058 551.354,190.4 552.106,191.08C553.334,192.105 553.948,193.266 553.948,194.561C553.948,195.789 553.401,196.814 552.311,197.632C549.99,199.475 547.106,200.977 543.661,202.136C540.215,203.297 536.922,203.876 533.784,203.876C528.187,203.876 523.172,202.665 518.737,200.243C514.301,197.821 510.838,194.459 508.348,190.161C505.856,185.861 504.612,180.983 504.612,175.523C504.612,170.065 505.789,165.169 508.143,160.834C510.497,156.501 513.773,153.123 517.969,150.702C522.166,148.28 526.926,147.068 532.248,147.068C537.502,147.068 542.039,148.228 545.862,150.547C549.683,152.869 552.617,156.11 554.665,160.272C556.712,164.435 557.736,169.211 557.736,174.601C557.736,175.899 557.291,176.973 556.405,177.827Z" style="fill:white;fill-rule:nonzero;"/>
            </g>
        </g>
        <g transform="matrix(1,0,0,1,0,80.9395)">
            <g transform="matrix(3.05205,0,0,3.05205,-2991.36,-3510.79)">
                <g>
                    <path d="M1025.09,1327.69C1025.13,1330.31 1025.2,1333.14 1025.3,1336.23C1025.3,1336.32 1025.3,1336.4 1025.3,1336.5C1025.42,1338.48 1025.58,1343.57 1025.58,1344.27C1025.58,1344.27 1025.58,1344.27 1025.58,1344.27C1025.58,1344.27 1025.58,1344.27 1025.58,1344.27C1022.05,1336.62 1019.58,1329.53 1018.04,1322.72C1017.12,1318.64 1016.54,1314.66 1016.27,1310.71C1016.09,1308.08 1016.05,1305.47 1016.14,1302.86C1016.4,1295.02 1017.83,1287.17 1020.23,1278.81C1021.31,1275.18 1020.94,1276.55 1021.44,1275.19C1025.26,1265.6 1031.57,1254.41 1037.26,1245.39C1019.08,1259.34 1010.95,1270.35 1007.55,1282.86C1007.55,1282.87 1007.55,1282.89 1007.54,1282.9C1007.54,1282.9 1007.54,1282.9 1007.54,1282.9C1007.54,1282.9 1007.54,1282.9 1007.54,1282.9C1007.49,1282.03 1007.46,1281.16 1007.47,1280.28C1007.62,1253.16 1036.07,1224.32 1065.83,1214.92C1065.87,1214.91 1065.91,1214.89 1065.95,1214.88C1067.22,1214.49 1068.52,1214.12 1069.84,1213.77C1070.39,1213.62 1070.95,1213.47 1071.51,1213.32C1072.53,1213.07 1073.55,1212.82 1074.59,1212.59C1085.46,1210.09 1097.57,1208.78 1109.67,1208.83C1125.12,1208.9 1140.53,1211.18 1153.21,1216C1164.57,1220.17 1174.98,1226 1183.89,1233.26C1186.88,1235.7 1189.71,1238.29 1192.33,1241.03L1192.59,1240.92C1210.25,1259.35 1219.28,1284.67 1213.09,1314.38C1217.39,1340.7 1208.01,1365.17 1208.01,1365.17C1207.56,1355.73 1206.14,1347.93 1204.17,1341.5C1196.43,1361.4 1191.16,1371.88 1184.51,1387.11C1180.48,1375.4 1186.29,1329.77 1182.63,1316.66C1180.17,1327.29 1170.84,1339.96 1159.48,1344.44C1166.08,1335.57 1169.96,1327.92 1171.8,1320.26C1138.95,1338.48 1104.94,1322.8 1104.94,1322.8C1114.39,1330.48 1129.01,1333.21 1129.01,1333.21C1088.53,1333.68 1070.36,1323.12 1063.3,1317.1C1064.99,1324.26 1068.77,1338.39 1071.12,1344.35C1065.34,1340.37 1057.25,1332.48 1052.81,1327.44C1052.49,1332.27 1052.63,1369.9 1049.7,1378.88C1045.46,1369.45 1041.52,1360.98 1036.69,1349.07C1035.47,1358.11 1035.99,1365.17 1035.99,1365.17C1030.66,1357.01 1027.15,1341.37 1025.09,1327.69Z" style="fill:white;fill-rule:nonzero;"/>
                </g>
            </g>
            <g transform="matrix(4.16667,0,0,4.16667,0,2.27374e-13)">
                <path d="M64.974,151.904C64.282,151.904 63.596,151.618 63.103,151.054C62.2,150.02 62.304,148.45 63.338,147.546C78.817,134.007 92.488,145.458 92.626,145.58C93.667,146.476 93.784,148.044 92.888,149.085C91.995,150.118 90.424,150.244 89.392,149.355C88.965,148.994 78.783,140.642 66.611,151.29C66.139,151.703 65.557,151.904 64.974,151.904Z" style="fill:white;fill-rule:nonzero;"/>
            </g>
            <g transform="matrix(4.16667,0,0,4.16667,0,2.27374e-13)">
                <path d="M111.966,151.324C111.342,151.324 110.72,151.064 110.276,150.557C109.463,149.624 109.557,148.206 110.49,147.393C124.453,135.177 136.791,145.509 136.915,145.617C137.852,146.422 137.959,147.84 137.151,148.78C136.342,149.717 134.931,149.819 133.994,149.023C133.601,148.688 124.425,141.169 113.442,150.77C113.017,151.142 112.49,151.324 111.966,151.324Z" style="fill:white;fill-rule:nonzero;"/>
            </g>
            <g transform="matrix(4.16667,0,0,4.16667,0,2.27374e-13)">
                <path d="M102.565,186.152C92.133,186.152 84.313,177.873 83.981,177.516C83.138,176.611 83.192,175.196 84.095,174.351C85,173.508 86.413,173.554 87.263,174.457C87.331,174.531 94.117,181.665 102.568,181.665C102.641,181.665 102.714,181.665 102.786,181.662C107.591,181.592 112.126,179.184 116.262,174.503C117.081,173.581 118.503,173.489 119.428,174.309C120.356,175.13 120.443,176.548 119.622,177.475C114.604,183.154 108.95,186.072 102.815,186.15C102.73,186.152 102.648,186.152 102.565,186.152Z" style="fill:white;fill-rule:nonzero;"/>
            </g>
        </g>
    </g>
    <defs>
        <linearGradient id="_Linear1" x1="0" y1="0" x2="1" y2="0" gradientUnits="userSpaceOnUse" gradientTransform="matrix(838.458,0,0,829.222,4.42593,422.343)"><stop offset="0" style="stop-color:rgb(29,162,242);stop-opacity:1"/><stop offset="1" style="stop-color:rgb(51,177,167);stop-opacity:1"/></linearGradient>
    </defs>
</svg>
