<?xml version="1.0" encoding="UTF-8"?>
<svg width="435px" height="197px" viewBox="0 0 435 197" version="1.1" xmlns="http://www.w3.org/2000/svg" xmlns:xlink="http://www.w3.org/1999/xlink">
    <!-- Generator: Sketch 46.2 (44496) - http://www.bohemiancoding.com/sketch -->
    <title>How to build software Icons High</title>
    <desc>Created with Sketch.</desc>
    <defs></defs>
    <g id="Symbols" stroke="none" stroke-width="1" fill="none" fill-rule="evenodd" opacity="0.29">
        <g id="How-to-build-software-Icons-High" fill="#FFFFFF">
            <path d="M414.28651,59.1016949 L414.285181,59.1016949 C413.943855,55.6762712 411.045899,53 407.519862,53 C406.208992,53 404.98846,53.3760678 403.951222,54.0169492 L392.048504,54.0169492 C391.011232,53.3760678 389.7907,53 388.479864,53 C384.953725,53 382.055566,55.6761017 381.714546,59.1016949 L381.713218,59.1016949 C381.595014,60.5172203 381,70.1833898 381,70.2881356 C381,71.7857627 382.21788,73 383.72,73 C389.96886,73 392.53994,67.6820339 393.465759,64.8644068 L402.532878,64.8644068 C403.459922,67.6822034 406.031138,73 412.279994,73 C413.782117,73 415,71.7857627 415,70.2881356 C415,70.1835288 414.404993,60.5172881 414.286775,59.1016949 L414.28651,59.1016949 Z M388.479833,63.8474576 C386.226008,63.8474576 384.399834,62.0267458 384.399834,59.779661 C384.399834,57.5325763 386.226008,55.7118644 388.479833,55.7118644 C390.733659,55.7118644 392.559833,57.5325763 392.559833,59.779661 C392.559833,62.0267458 390.733659,63.8474576 388.479833,63.8474576 Z M407.519831,63.8474576 C405.266005,63.8474576 403.439832,62.0267458 403.439832,59.779661 C403.439832,57.5325763 405.266005,55.7118644 407.519831,55.7118644 C409.773657,55.7118644 411.59983,57.5325763 411.59983,59.779661 C411.59983,62.0267458 409.773657,63.8474576 407.519831,63.8474576 Z" id="Fill-1"></path>
            <polygon id="Fill-2" points="391 59 389 59 389 57 387 57 387 59 385 59 385 61 387 61 387 63 389 63 389 61 391 61"></polygon>
            <path d="M408,58 C408,58.552725 407.329088,59 406.5,59 C405.673837,59 405,58.552725 405,58 C405,57.447275 405.673837,57 406.5,57 C407.329088,57 408,57.447275 408,58 Z" id="Fill-3"></path>
            <path d="M410,61 C410,61.552725 409.329088,62 408.5,62 C407.673837,62 407,61.552725 407,61 C407,60.447275 407.673837,60 408.5,60 C409.329088,60 410,60.447275 410,61 Z" id="Fill-4"></path>
            <path d="M432.602404,130.999843 L430.374218,130.999843 C429.834558,130.999843 429.397479,130.552403 429.397479,129.999949 C429.397479,129.447496 429.834558,129.000055 430.374218,129.000055 L432.602404,129.000055 C432.78188,129.000055 432.892984,128.898814 432.941809,128.838821 C432.993087,128.777576 433.071226,128.65134 433.041924,128.468876 L432.827041,127.151511 C432.607276,125.805414 431.57072,124.78677 430.24723,124.616772 L428.310847,124.206831 C427.478165,124.029349 426.699242,123.694373 425.993521,123.214424 L422.848575,121.068411 C421.825452,120.369733 420.636268,120.001036 419.407951,120.001036 L415.361905,120.001036 C414.543882,120.001036 413.731985,120.277257 413.077553,120.779706 L411.490359,121.999577 C410.691871,122.612024 409.751763,123.04321 408.772585,123.241941 L406.35027,123.738145 C406.119516,123.78564 405.953479,123.993116 405.953479,124.2331 L405.953479,128.020219 C405.953479,128.56141 406.382026,129.000116 406.909465,129.000116 L407.90696,129.000116 C408.44662,129.000116 408.883699,129.447556 408.883699,130.00001 C408.883699,130.552463 408.44662,130.999904 407.90696,130.999904 L406.909465,130.999904 C405.305174,130.999904 404,129.662542 404,128.021467 L404,124.234348 C404,123.045738 404.827775,122.012087 405.9657,121.778352 L408.389234,121.282149 C409.083954,121.139664 409.750575,120.834708 410.317084,120.399746 L411.904278,119.179875 C412.895677,118.418708 414.123931,118 415.36178,118 L419.407826,118 C421.023119,118 422.587153,118.484941 423.931459,119.402348 L427.076405,121.54836 C427.573307,121.887077 428.121532,122.12206 428.708794,122.248286 L430.567038,122.6445 C432.675576,122.911973 434.389606,124.595558 434.752484,126.821658 L434.967367,128.139023 C435.083354,128.852707 434.886787,129.577623 434.431395,130.130076 C433.974781,130.683777 433.306909,131 432.601219,131 L432.602404,130.999843 Z M412,134 C409.79376,134 408,132.20624 408,130 C408,127.79376 409.79376,126 412,126 C414.20624,126 416,127.79376 416,130 C416,132.20624 414.20624,134 412,134 Z M411,128 C409.897504,128 409,128.897504 409,130 C409,131.102496 409.897504,132 411,132 C412.102496,132 413,131.102496 413,130 C413,128.897504 412.102496,128 411,128 Z M427,134 C424.79376,134 423,132.20624 423,130 C423,127.79376 424.79376,126 427,126 C429.20624,126 431,127.79376 431,130 C431,132.20624 429.20624,134 427,134 Z M427,128 C425.897504,128 425,128.897504 425,130 C425,131.102496 425.897504,132 427,132 C428.102496,132 429,131.102496 429,130 C429,128.897504 428.102496,128 427,128 Z M425,131 L414,131 C413.447488,131 413,130.552512 413,130 C413,129.447488 413.447488,129 414,129 L425,129 C425.552512,129 426,129.447488 426,130 C426,130.552512 425.552512,131 425,131 Z M427.049079,107.99914 C426.80596,107.99914 426.562829,107.910737 426.377844,107.733934 C424.406796,105.850283 421.785857,104.812218 418.998786,104.812218 C416.211715,104.812218 413.591018,105.849239 411.619727,107.733934 C411.248512,108.088689 410.649626,108.088689 410.278411,107.733934 C409.907196,107.379179 409.907196,106.805716 410.278411,106.452093 C412.608803,104.225032 415.705306,103 419,103 C422.294694,103 425.391136,104.226308 427.721589,106.452093 C428.092804,106.805716 428.092804,107.379179 427.721589,107.733934 C427.53658,107.91074 427.293449,107.99914 427.050354,107.99914 L427.049079,107.99914 Z M424.989475,111.998767 C424.731118,111.998767 424.472748,111.90247 424.276168,111.70988 C423.133082,110.590117 421.613194,109.974074 419.998709,109.974074 C418.383032,109.974074 416.864402,110.590117 415.721251,111.70988 C415.326769,112.096313 414.690344,112.096313 414.295862,111.70988 C413.901379,111.323446 413.901379,110.700008 414.295862,110.313574 C415.819557,108.820969 417.844817,108 420,108 C422.153828,108 424.179056,108.822233 425.704138,110.313574 C426.098621,110.700008 426.098621,111.323446 425.704138,111.711112 C425.507533,111.903706 425.249162,112 424.990831,112 L424.989475,111.998767 Z M420.963393,116 C420.696741,116 420.432666,115.885609 420.23076,115.655364 C419.841132,115.21393 419.158967,115.212465 418.768046,115.655364 C418.364169,116.112942 417.70921,116.114406 417.30404,115.656832 C416.89887,115.199254 416.89887,114.457211 417.302744,113.998169 C418.475507,112.666545 420.525878,112.668009 421.697415,113.998169 C422.101292,114.457211 422.101292,115.199254 421.694827,115.656832 C421.492894,115.887077 421.22885,116 420.963486,116 L420.963393,116 Z" id="Page-1"></path>
            <polygon id="Fill-1" points="341 32 361 32 361 29 341 29"></polygon>
            <polygon id="Fill-2" points="341 14 361 14 361 11 341 11"></polygon>
            <polygon id="Fill-3" points="341 31 344 31 344 11 341 11"></polygon>
            <polygon id="Fill-4" points="359 31 362 31 362 11 359 11"></polygon>
            <path d="M345,8 L348.019185,8 L348.019185,11 L345,11 L345,8 Z M348.71094,8 L351.730125,8 L351.730125,11 L348.71094,11 L348.71094,8 Z M352.296283,8 L355.315467,8 L355.315467,11 L352.296283,11 L352.296283,8 Z M355.980815,8 L359,8 L359,11 L355.980815,11 L355.980815,8 Z" id="Fill-5"></path>
            <path d="M345,32 L348.019185,32 L348.019185,35 L345,35 L345,32 Z M348.71094,32 L351.730125,32 L351.730125,35 L348.71094,35 L348.71094,32 Z M352.296283,32 L355.315467,32 L355.315467,35 L352.296283,35 L352.296283,32 Z M355.980815,32 L359,32 L359,35 L355.980815,35 L355.980815,32 Z" id="Fill-6"></path>
            <path d="M362,25.9806069 L365,25.9806069 L365,29 L362,29 L362,25.9806069 Z M362,22.2694104 L365,22.2694104 L365,25.2888035 L362,25.2888035 L362,22.2694104 Z M362,18.6838207 L365,18.6838207 L365,21.7032138 L362,21.7032138 L362,18.6838207 Z M362,15 L365,15 L365,18.0193931 L362,18.0193931 L362,15 Z" id="Fill-7"></path>
            <path d="M338,25.9806069 L341,25.9806069 L341,29 L338,29 L338,25.9806069 Z M338,22.2694104 L341,22.2694104 L341,25.2888035 L338,25.2888035 L338,22.2694104 Z M338,18.6838207 L341,18.6838207 L341,21.7032138 L338,21.7032138 L338,18.6838207 Z M338,15 L341,15 L341,18.0193931 L338,18.0193931 L338,15 Z" id="Fill-8"></path>
            <path d="M390.499997,174 C390.224046,174 390,174.22404 390,174.5 C390,174.775953 390.224039,175 390.499997,175 C390.775948,175 390.999994,174.77596 390.999994,174.5 C391.001361,174.224047 390.775955,174 390.499997,174 Z" id="Fill-1"></path>
            <path d="M402.5,174 C402.224047,174 402,174.22404 402,174.5 C402,174.775953 402.22404,175 402.5,175 C402.775953,175 403,174.77596 403,174.5 C403,174.224047 402.774593,174 402.5,174 Z" id="Fill-2"></path>
            <path d="M406.814224,171.578397 L410.918033,163.385472 L410.130041,163.004563 L406.147716,170.954269 C403.581645,168.707709 400.201412,167.339388 396.500298,167.339388 C392.838704,167.339388 389.490641,168.678971 386.936119,170.883842 L382.86868,163 L382.085113,163.389519 L386.268036,171.495975 C383.633162,174.074542 382,177.637541 382,181.568791 L382,182 L411,182 L411,181.568791 C411,177.679488 409.400621,174.149311 406.814078,171.578029 L406.814224,171.578397 Z M382.886528,181.137914 C383.119404,173.965701 389.136165,168.202026 396.500523,168.202026 C403.864881,168.202026 409.881676,173.965701 410.114518,181.137914 L382.886528,181.137914 Z" id="Fill-3"></path>
            <path d="M382,191 L411,191 L411,185 L382,185 L382,191 Z M382.878804,185.782681 L410.121046,185.782681 L410.121046,190.217319 L382.878804,190.217319 L382.878804,185.782681 Z" id="Fill-4"></path>
            <path d="M289.500034,15.9992256 C288.900034,15.9992256 288.300034,16.0985874 287.700034,16.3985492 C287.900659,15.9992256 288.000034,15.4986637 288.000034,14.9980874 C288.000034,12.7990073 286.200034,10.9992364 284.000674,10.9992364 C283.100674,10.9992364 282.401314,11.2991982 281.700034,11.6985074 C280.700674,7.79900374 277.200034,5 273.000034,5 C267.999394,5 264.000034,8.99885103 264.000034,13.9988546 C264.000034,14.3981782 264.000034,14.7993927 264.099408,15.0993546 C263.700034,14.9999928 263.400048,14.9999928 263.00064,14.9999928 C260.20128,14.9999928 258,17.1990729 258,19.9999964 C258,22.7990001 260.19936,25 263.00064,25 L289.5,25 C291.99936,25 294,22.9996146 294,20.5005727 C294,17.999659 291.99936,15.9992736 289.5,15.9992736 L289.500034,15.9992256 Z" id="Page-1"></path>
            <path d="M53.2674046,51 L24.7325954,51 C23.7852375,51 23,51.7809876 23,52.7260921 L23,73.2739079 C23,74.2177099 23.7839301,75 24.7325954,75 L53.2674046,75 C54.2147625,75 55,74.2190124 55,73.2739079 L55,52.7260921 C55,51.7810202 54.2160699,51 53.2674046,51 Z M33.4771719,53 L45.5228281,53 C45.7960759,53 46,53.2150887 46,53.5 C46,53.7863201 45.7947315,54 45.5228281,54 L33.4771719,54 C33.2039241,54 33,53.7849113 33,53.5 C33,53.2136799 33.2052685,53 33.4771719,53 Z M28.5000034,53 C28.7863215,53 29,53.2150887 29,53.5 C29,53.7863201 28.7849128,54 28.5000034,54 C28.2136852,54 28.0000068,53.7849113 28.0000068,53.5 C27.9986088,53.2136799 28.2136995,53 28.5000034,53 Z M27.5,53 C27.7863201,53 28,53.2150887 28,53.5 C28,53.7863201 27.7849113,54 27.5,54 C27.2136799,54 27,53.7849113 27,53.5 C27,53.2136799 27.2500072,53 27.5,53 Z M25.5000034,53 C25.7863215,53 26,53.2150887 26,53.5 C26,53.7863201 25.7849128,54 25.5000034,54 C25.2136852,54 25.0000068,53.7849113 25.0000068,53.5 C24.9986102,53.2136799 25.2136995,53 25.5000034,53 Z M53.9672377,73.213273 C53.9672377,73.6533366 53.6095827,74 53.1555662,74 L24.8116715,74 C24.3576549,74 24,73.6533366 24,73.213273 L24,56 L53.9987305,56 L54,73.213273 L53.9672377,73.213273 Z" id="Page-1"></path>
            <path d="M101.929422,12 L83.0705779,12 C81.3746955,12 80,13.3815339 80,15.0857795 L80,33.9142205 C80,35.6184987 81.374728,37 83.0705779,37 L101.929422,37 C103.625304,37 105,35.6184661 105,33.9142205 L105,15.0870858 C105,13.3815339 103.625272,12.0000327 101.929422,12.0000327 L101.929422,12 Z M84.0009503,27.4049837 C83.9996832,26.4591477 83.9996832,25.5118147 84.0009503,24.5659787 C84.0009503,24.2063492 84.1693169,24.0016881 84.4769512,24.0016881 C85.9568059,23.9987652 87.4366605,24.0002248 88.9164503,24.0016881 C88.934174,24.0016881 88.9518976,24.0060743 89,24.0133833 C88.9658198,24.0923271 88.941767,24.1522629 88.9139193,24.2092795 C88.3113348,25.4168269 87.7062226,26.6228773 87.1061983,27.8333438 C87.0467014,27.953219 86.9821393,28 86.8593441,28 C86.0757316,27.9926909 85.2908875,27.9970771 84.5072749,27.9956138 C84.1616817,27.9941505 84.0009082,27.8055671 84.0009082,27.4050136 L84.0009503,27.4049837 Z M85.862347,32.0435561 C85.3507409,32.3543932 84.8338488,32.6594539 84.3130174,32.9599465 C84.2551465,32.9933319 84.1473001,33.0140534 84.0973247,32.9887285 C84.0381407,32.9587971 84.0170973,32.8724541 84,32.8436721 C84.0775978,32.2726596 84.1433574,31.7465323 84.2222717,31.2215838 C84.2512038,31.027024 84.4300757,30.9452874 84.6260347,31.0385386 C85.0390232,31.2354001 85.4467256,31.4391757 85.8504886,31.6509882 C86.0451379,31.7534492 86.0504005,31.9295864 85.8623234,32.0435502 L85.862347,32.0435561 Z M86.4641138,30.9999708 C86.4298513,30.9868231 86.3503087,30.9684142 86.2830055,30.9276548 C85.9354624,30.7185932 85.5891724,30.5068994 85.2440728,30.2912707 C84.9919866,30.1334874 84.9320265,29.8954913 85.0788724,29.6206876 C86.7504562,26.5044722 88.4246089,23.3881221 90.0974772,20.2731859 C90.2492195,19.9904921 90.4694868,19.9260795 90.7325719,20.0851621 C91.0703096,20.2889659 91.4068256,20.494069 91.7421511,20.7031339 C92.0125918,20.8714361 92.0713365,21.1067898 91.9134728,21.4000058 C90.2443325,24.5109702 88.5752548,27.6217999 86.9061458,30.7330335 C86.8168133,30.9000196 86.6944433,31.0025795 86.4643707,30.9999506 L86.4641138,30.9999708 Z M91,28 C91.036187,27.9252007 91.0643316,27.8650669 91.0938178,27.8078692 C91.7291055,26.6023025 92.3670351,25.3996267 92.9969704,24.189667 C93.0733655,24.0430046 93.1577994,23.9946039 93.3052269,24.0004686 C93.5973989,24.0122018 93.8922402,23.9975363 94.1844258,24.0092694 C94.2433982,24.0122018 94.3305118,24.0620667 94.3546353,24.1163358 C94.9068237,25.3908372 95.4522873,26.669769 95.9977852,27.9486633 C96.0018063,27.9589284 95.9991233,27.9750619 95.9991233,27.9999962 L91.0001269,27.9999962 L91,28 Z M98.1634759,28.6419262 C97.912014,28.1713445 97.6421092,27.7103025 97.4156522,27.2275001 C95.9937492,24.1932992 94.6916975,21.1032525 93.4476839,17.9889037 C93.2712639,17.5469064 93.1672568,17.0749668 93.0342711,16.6152826 C93.0105704,16.5323215 93.009256,16.4411994 93.003988,16.4071975 C93.003988,16.3147175 92.9934556,16.2725546 93.0066237,16.239914 C93.0382212,16.1569529 93.0632363,16.0454317 93.1264312,16.0073492 C93.1711934,15.980147 93.294951,16.0331901 93.3449812,16.0889525 C93.5121832,16.2725546 93.6846498,16.4588793 93.8136686,16.6710519 C94.2810416,17.4353817 94.7260351,18.2146827 95.1894646,18.983086 C96.8878413,21.798325 98.3965995,24.7236542 99.8871239,27.6600899 C100.064858,28.0123299 100.041161,28.2788861 99.7554694,28.5481929 C99.451345,28.8337973 99.1077128,29.0527557 98.6666627,28.9888323 C98.4481127,28.9548304 98.2716859,28.8460284 98.1637321,28.6420272 L98.1634759,28.6419262 Z M98.7209713,30.8062235 C98.4978605,30.4947006 98.2795267,30.1798807 98.0695404,29.8606648 C97.9335273,29.6537212 98.0015323,29.4456673 98.2341879,29.3290048 C98.4286643,29.2321382 98.6267325,29.1374724 98.8259675,29.0494119 C99.0610085,28.9448411 99.303209,29.0086843 99.4273071,29.2178287 C99.6062734,29.5183335 99.7733034,29.8232342 99.9415368,30.1292621 C99.973751,30.1865 99.9856812,30.2536486 100,30.2932745 C99.9892609,30.4770997 99.9248356,30.6091933 99.7768892,30.6950559 C99.6313313,30.7798138 99.4845791,30.8623709 99.3342534,30.9383227 C99.1075629,31.0539032 98.864159,31.0054685 98.7210018,30.8062319 L98.7209713,30.8062235 Z M101.32045,33.5630931 C101.094781,33.4240646 100.856356,33.3079553 100.63836,33.1536383 C100.36042,32.9565532 100.161537,32.666274 100.049325,32.2996069 C99.9269285,31.9008685 100.0353,31.4654439 100.34129,31.2591716 C100.51851,31.1400038 100.721241,31.0529228 100.922656,31.0131976 C101.251591,30.9475026 101.518056,31.1308362 101.654487,31.479168 C101.780708,31.8015301 101.880156,32.1544614 101.922228,32.5058361 C101.98215,32.9993017 101.977052,33.5050091 102,34 C101.742459,33.8334725 101.53336,33.694444 101.320456,33.5630501 L101.32045,33.5630931 Z M101.998863,27.4169998 C101.998863,27.8047582 101.851971,27.9993491 101.557068,27.9993491 C100.899452,28.0008137 100.241807,27.9993491 99.6248618,27.9993491 C99.0757203,26.6517464 98.544629,25.3480813 98,24.0108918 C98.0700572,24.0065018 98.1186451,24.0006509 98.1683612,24.0006509 C99.2892647,24.0006509 100.410168,23.9991863 101.531072,24.0006509 C101.856495,24.0006509 102,24.190863 102,24.6137152 C101.998869,25.5486878 101.998869,26.4821995 101.998869,27.4171721 L101.998863,27.4169998 Z" id="Page-1"></path>
            <path d="M54.3073762,169 L29.6926238,169 C27.654525,169 26,170.709241 26,172.818735 L26,193.183055 C26,195.290759 27.6527944,197 29.6926238,197 L54.3073762,197 C56.345475,197 58,195.290759 58,193.183055 L58,172.818735 C58,170.709286 56.3455183,169 54.3073762,169 Z M55.5377028,193.182965 C55.5377028,193.883788 54.9850984,194.45531 54.3073762,194.45531 L29.6926238,194.45531 C29.0149448,194.45531 28.4622972,193.883833 28.4622972,193.182965 L28.4622972,175.365304 L55.5374432,175.365304 L55.5377028,193.182965 Z" id="Fill-1"></path>
            <path d="M42.285456,189 C41.577411,189 41,188.326271 41,187.5 C41,186.673729 41.5773658,186 42.285456,186 L48.714544,186 C49.422589,186 50,186.673729 50,187.5 C50,188.326271 49.4226342,189 48.714544,189 L42.285456,189 Z" id="Fill-2"></path>
            <polygon id="Fill-3" points="34.3710063 179 31 179 35.6289937 183.5 31.0018124 188 34.3728187 188 39 183.5"></polygon>
            <path d="M158.013183,0.000341157176 C153.363846,0.100026144 149.34976,0.18385143 146.581209,6.61362441 C146.461513,6.89002224 146.358443,7.16869942 146.266449,7.44056756 L145.881865,7.44056756 C144.841176,7.44056756 144,8.3037598 144,9.36403106 L144,9.79223427 C144,10.8559274 144.841176,11.7213526 145.881865,11.7213526 L145.907356,11.7213526 C146.226541,13.6255606 147.124263,15.2523036 147.914454,16.6808076 C148.612664,17.9427398 149.218919,19.0358672 149.262129,20.0078937 L149.262129,20.0339495 C149.387367,22.8036117 149.471595,24.6297537 148.837654,26.4172671 C148.720177,26.7514257 148.742341,27.1218624 148.893068,27.4378964 C149.041579,27.7482756 149.29981,27.9816327 149.622316,28.0915109 C151.444345,28.6952757 153.209969,29 154.904352,29 C156.588946,29 158.208287,28.6997996 159.746336,28.1016897 C160.329298,27.873999 160.648484,27.2419193 160.509943,26.5962216 C160.210702,25.2119691 161.48966,23.628435 161.962907,23.2386848 C162.113634,23.1163427 162.702142,23.0211903 163.220813,22.9430373 C164.21273,22.7889787 165.570367,22.5816774 166.725339,21.8770822 C167.345979,21.4953358 167.707269,20.9980563 167.793719,20.4022084 C167.891248,19.7202615 167.59201,19.0825096 167.344869,18.6882936 C167.626375,18.4243538 167.711721,18.1468192 167.723892,17.9327176 C167.754926,17.4909428 167.502235,17.1023816 167.265059,16.8407211 C167.343746,16.718379 167.41357,16.5790491 167.490041,16.4272496 L167.595327,16.2278796 C167.756029,15.9118456 167.637443,15.5538786 167.529938,15.2434994 C167.483391,15.1053005 167.376995,14.7836 167.420217,14.7178877 C167.433518,14.6940996 167.523287,14.6295298 167.789282,14.5955485 C168.019805,14.5672307 168.722469,14.4766051 168.947431,13.9113397 C168.970708,13.8513025 168.981787,13.7923963 168.992872,13.7323591 L170.121117,13.7323591 C170.604323,13.7323591 171,13.3857309 171,12.9518728 L171,5.77803368 C171,5.34417562 170.604351,4.9918925 170.121117,4.9918925 L166.341952,4.9918925 C165.815508,3.86817084 165.015332,2.86792805 163.985736,2.07833596 C162.710098,1.09847967 160.663076,-0.0535713835 158.015393,0.00193031711 L158.013183,0.000341157176 Z M158.410164,1.00146727 C160.733309,0.955418104 162.64049,2.0021797 163.818777,2.88831553 C164.625948,3.49480966 165.273247,4.23942827 165.737206,5.07392555 L163.476682,5.07392555 C163.110002,5.07392555 162.776836,5.27721062 162.646043,5.57484243 L162.1832,6.62722216 L163.538186,6.62722216 C165.067583,6.62722216 166.312984,7.88175702 166.312984,9.41481225 L166.312984,9.83484983 C166.312984,11.3712978 165.067555,12.6224399 163.538186,12.6224399 L159.550272,12.6224399 L159.520086,12.6887046 C159.293138,13.1963494 159.732501,13.7354489 160.350725,13.7354489 L168,13.7354489 C167.546115,13.8050833 167.240911,13.974674 167.068733,14.2509718 C166.80601,14.6755235 166.974825,15.1663197 167.098918,15.521234 C167.138048,15.6346692 167.196181,15.7997688 167.214068,15.7997688 L167.103389,16.0120388 C166.966997,16.2815886 166.904391,16.4028932 166.816072,16.4522891 C166.684151,16.5219235 166.600303,16.6611894 166.589124,16.8116887 C166.582416,16.9644336 166.649495,17.1081791 166.770235,17.1957863 C166.979295,17.3485312 167.261011,17.6562779 167.248733,17.8438271 C167.244262,17.9370467 167.120166,18.0516061 166.916683,18.1571661 C166.795944,18.2189368 166.708742,18.3357417 166.685265,18.4705051 C166.661788,18.6052685 166.703152,18.741179 166.795944,18.8445108 C166.800414,18.8490047 167.423123,19.5543395 167.324756,20.2203502 C167.275564,20.5471739 167.059798,20.8189663 166.66515,21.0604541 C165.646678,21.6714335 164.424746,21.8589827 163.441963,22.0061353 C162.658261,22.1251857 162.090325,22.2071748 161.754955,22.4812041 C161.26976,22.8698158 159.557023,24.7319374 159.98744,26.6850313 C160.034394,26.8950559 159.936012,27.0983409 159.756021,27.1702209 C156.834775,28.2866025 153.598136,28.2765106 150.132536,27.1398962 C150.03192,27.1062017 149.949191,27.0410613 149.905588,26.9478416 C149.856399,26.8467612 149.851926,26.7277108 149.889936,26.618775 C150.588665,24.6813799 150.494763,22.6967174 150.368434,19.9509039 L149.930204,19.9464129 L150.368434,19.9261974 C150.314772,18.7559058 149.658514,17.5856142 148.898309,16.2332939 C148.134727,14.8731818 147.317511,13.4120065 147,11.7465484 L163.542662,11.7465484 C164.592445,11.7465484 165.440972,10.8929598 165.440972,9.83948753 L165.440972,9.40932925 C165.440972,8.3580996 164.592445,7.50675366 163.542662,7.50675366 L147.408122,7.50675366 C147.467374,7.34839354 147.519917,7.19677863 147.589232,7.03617011 C150.15496,1.17450527 153.764862,1.09946262 158.411037,1.00055583 L158.410164,1.00146727 Z" id="Page-1"></path>
            <path d="M30.1180747,116.755536 C29.7992098,115.116102 28.8960214,113.635473 27.5641008,112.571035 C26.2321802,111.505055 24.557027,110.921325 22.8253193,110.921325 L18.5290532,110.921325 L18.5290532,109.603905 C20.1554242,109.08488 21.1562589,107.513085 20.8999281,105.882496 C20.6436168,104.250439 19.2064572,103.034461 17.4946295,103.00066 C15.7828408,102.968312 14.2953173,104.128409 13.9718866,105.748722 C13.648448,107.369035 14.5836749,108.977567 16.1856353,109.558323 L16.1856353,110.921325 L11.8893692,110.921325 C10.1592629,110.921325 8.4840706,111.505055 7.15215,112.571035 C5.8202294,113.635548 4.91703709,115.116177 4.59817604,116.755536 C2.01674503,116.896688 0,118.955175 0,121.445926 C0,123.936677 2.01694031,125.995164 4.59817604,126.136316 C4.9109364,127.780155 5.81109007,129.268124 7.14297161,130.338508 C8.47489221,131.410398 10.1546151,131.998532 11.8891739,132 L22.825124,132 C24.5567536,132 26.2319458,131.41627 27.5639055,130.35029 C28.8958261,129.285777 29.7990184,127.805148 30.1178794,126.165789 C32.8137083,126.165789 35,124.058783 35,121.460719 C35,118.862655 32.8137083,116.755649 30.1178794,116.755649 L30.1180747,116.755536 Z M17.4245613,105.275166 C17.8990253,105.275166 18.3262304,105.550119 18.5077671,105.972119 C18.6877963,106.394107 18.5886268,106.879331 18.2529829,107.202777 C17.9173391,107.526222 17.4138831,107.621829 16.9760155,107.448321 C16.5381478,107.273353 16.2528367,106.861655 16.2528367,106.404398 C16.2528367,105.780995 16.7776842,105.275181 17.4245457,105.275181 L17.4245613,105.275166 Z M2.38762996,121.460606 C2.39068031,120.279935 3.26488844,119.269813 4.46862408,119.055149 L4.46862408,123.865988 C3.26488844,123.65132 2.3906764,122.641202 2.38762996,121.460531 L2.38762996,121.460606 Z M21.2630797,129.741529 L13.4516869,129.741529 L13.4516869,128.235907 C13.4516869,127.612504 13.9765343,127.10669 14.6233958,127.10669 L20.0913708,127.10669 C20.7397945,127.10669 21.2630797,127.612504 21.2630797,128.235907 L21.2630797,129.741529 Z M27.9027637,124.848256 C27.9012366,127.258118 26.0780614,129.306404 23.6064976,129.676787 L23.6064976,128.235869 C23.6064976,126.365585 22.0335565,124.848219 20.0913708,124.848219 L14.6233958,124.848219 C12.6827333,124.848219 11.108269,126.365585 11.108269,128.235869 L11.108269,129.676787 C8.63822844,129.306261 6.81512745,127.25808 6.81200289,124.848256 L6.81200289,118.072956 C6.81200289,115.370477 9.0852354,113.179683 11.8894083,113.179683 L22.8253583,113.179683 C25.6295312,113.179683 27.9027637,115.370477 27.9027637,118.072956 L27.9027637,124.848256 Z M30.2461816,123.885185 L30.2461816,119.035952 C31.5155329,119.188867 32.4675464,120.228405 32.4675464,121.460531 C32.4675464,122.692657 31.5155329,123.732214 30.2461816,123.88511 L30.2461816,123.885185 Z" id="Fill-1"></path>
            <path d="M13.5000319,117 C12.0842559,117 10.8082064,117.852201 10.2659058,119.160136 C9.72512184,120.468071 10.024373,121.973481 11.0254378,122.974547 C12.0265025,123.975613 13.5319205,124.274898 14.8398586,123.734077 C16.1477967,123.191778 17,121.915731 17,120.499959 C17,118.567671 15.4323254,117 13.5000319,117 Z M13.5000319,121.666612 C13.027614,121.666612 12.6022512,121.382544 12.4214973,120.946554 C12.2422445,120.510576 12.3409863,120.009265 12.6751827,119.675096 C13.0093791,119.340928 13.510664,119.242152 13.9466434,119.421412 C14.3826227,119.602181 14.6667035,120.027527 14.6667035,120.499943 C14.6667035,121.144014 14.1441194,121.666597 13.5000474,121.666597 L13.5000319,121.666612 Z" id="Fill-2"></path>
            <path d="M21.5000319,117 C20.0842559,117 18.8082064,117.852201 18.2659058,119.160136 C17.7251218,120.468071 18.024373,121.973481 19.0254378,122.974547 C20.0265025,123.975613 21.5319205,124.274898 22.8398586,123.734077 C24.1477967,123.191778 25,121.915731 25,120.499959 C25,118.567671 23.4323254,117 21.5000319,117 Z M21.5000319,121.666612 C21.027614,121.666612 20.6022512,121.382544 20.4214973,120.946554 C20.2422445,120.510576 20.3409863,120.009265 20.6751827,119.675096 C21.0093791,119.340928 21.510664,119.242152 21.9466434,119.421412 C22.3826227,119.602181 22.6667035,120.027527 22.6667035,120.499943 C22.6667035,121.144014 22.1441194,121.666597 21.5000474,121.666597 L21.5000319,121.666612 Z" id="Fill-3"></path>
        </g>
    </g>
</svg>