<?xml version="1.0" encoding="UTF-8"?>
<svg width="50px" height="50px" viewBox="0 0 50 50" version="1.1" xmlns="http://www.w3.org/2000/svg" xmlns:xlink="http://www.w3.org/1999/xlink">
    <!-- Generator: Sketch 46.1 (44463) - http://www.bohemiancoding.com/sketch -->
    <title>Page 1</title>
    <desc>Created with Sketch.</desc>
    <defs></defs>
    <g id="UI-MVP" stroke="none" stroke-width="1" fill="none" fill-rule="evenodd">
        <g id="Inspiring-content-detail-page---Learning---embedded---MacBook-Pro-13" transform="translate(-554.000000, -1858.000000)" fill="#D8D8D8">
            <g id="Group-26" transform="translate(-16.000000, 1858.000000)">
                <g id="Page-1" transform="translate(570.000000, 0.000000)">
                    <path d="M35.9999414,34.5089704 L33.1741561,33.4238694 C33.2909441,32.1945455 33.2565912,30.9698512 33.0779799,29.7748688 L35.8442632,28.5432593 C35.5832109,27.204054 35.1733275,25.8831915 34.6031055,24.6058127 C34.0328834,23.3284339 33.3253086,22.1403668 32.5078165,21.0484092 L29.7415331,22.2800187 C28.9721115,21.3483416 28.0859136,20.5036318 27.0920847,19.7687449 L28.1775408,16.9438842 C27.0440141,16.1815709 25.8212053,15.5383398 24.5136282,15.0369875 C23.2129099,14.5379442 21.8756111,14.1922778 20.5176772,14 L19.4322211,16.8271462 C18.2024948,16.7103965 16.9773997,16.7447381 15.7820262,16.923291 L14.5569311,14.1739701 C11.820428,14.7119319 9.26260668,15.8725317 7.06906619,17.5299536 L8.28501618,20.2609902 C7.35068916,21.0301601 6.50804789,21.9183536 5.77063419,22.9095718 L2.94942149,21.8313861 C2.17999985,22.9622563 1.53649838,24.1869506 1.03275437,25.4918144 C0.531255601,26.7966781 0.190054474,28.1381105 0,29.4887435 L2.82578643,30.5738444 C2.70899848,31.8031684 2.74335133,33.0278627 2.92196267,34.222845 L0.15567818,35.4544545 C0.416730487,36.7936599 0.826613853,38.1145224 1.3968359,39.3919012 C1.96703566,40.6692799 2.67463391,41.8573471 3.49441237,42.9493046 L6.26069569,41.7176951 C7.03011733,42.6493723 7.91631519,43.494082 8.91014416,44.2312545 L7.82468807,47.0561152 C8.95821469,47.8184285 10.1810235,48.4616602 11.4886007,48.9630125 C12.7893189,49.4620558 14.1266177,49.8077222 15.4845517,50 L16.5700077,47.1728532 C17.7997341,47.2896029 19.0248292,47.2529758 20.2202026,47.0767084 L21.4452978,49.8260293 C24.1818008,49.2880675 26.7396221,48.1274677 28.9355076,46.4700458 L27.7172713,43.7390092 C28.6492534,42.9698393 29.4942396,42.0839314 30.2316533,41.0904276 L33.0482934,42.1709574 C33.817715,41.0423728 34.4612153,39.8176785 34.9649593,38.5128147 C35.4687503,37.2010943 35.8099455,35.859662 36,34.509029 L35.9999414,34.5089704 Z M25.6630181,34.9370508 C24.0394651,39.1698001 19.2925,41.2802851 15.0581895,39.6573805 C10.828686,38.0343588 8.71522401,33.2889468 10.3363148,29.0583658 C11.9598677,24.8279021 16.7068329,22.7151316 20.9387985,24.3380361 C25.1707641,25.9609406 27.2864538,30.7064698 25.6629594,34.9370508 L25.6630181,34.9370508 Z" id="Fill-1"></path>
                    <path d="M47.0059541,3.18938098 L44.8335807,4.40182985 C44.0049026,3.71644706 43.0451031,3.17808919 41.9940339,2.82068951 L41.9963771,0.398108033 C41.0389148,0.144766557 40.0370461,0 39,0 C37.9629539,0 36.9610852,0.147030706 36.0036229,0.398108033 L36.0036229,2.82068951 C34.9525537,3.1780834 33.9927542,3.71644706 33.1640762,4.40182985 L30.9917028,3.18938098 C29.5684236,4.55337148 28.5267032,6.27922047 28,8.2064687 L30.1676991,9.4166013 C30.0693819,9.93232927 30.0108567,10.4593838 30.0108567,11 C30.0108567,11.5406104 30.0693819,12.0699407 30.1676991,12.5833987 L28,13.7935313 C28.5267092,15.7207216 29.5684236,17.4488869 30.9917028,18.810619 L33.1640762,17.5981702 C33.9950914,18.2835529 34.9525537,18.8219108 36.0036229,19.1793105 L36.0036229,21.601892 C36.9610852,21.8552334 37.9629539,22 39,22 C40.0370461,22 41.0389148,21.8529693 41.9963771,21.601892 L41.9963771,19.1793105 C43.0474463,18.8219166 44.0072458,18.2835529 44.8359238,17.5981702 L47.0082972,18.810619 C48.4339135,17.4466285 49.475634,15.7207795 50,13.7935313 L47.8346381,12.5833987 C47.9329552,12.0676707 47.9914805,11.5406162 47.9914805,11 C47.9914805,10.4593896 47.9329552,9.93005933 47.8346381,9.4166013 L50,8.2064687 C49.4732908,6.27927838 48.4315764,4.55337148 47.0059601,3.18938098 L47.0059541,3.18938098 Z M39.0022275,15 C36.7923995,15 35,13.2098286 35,11 C35,8.79017143 36.7923995,7 39.0022275,7 C41.209827,7 42.9999979,8.79017143 42.9999979,11 C43.0022322,13.2098286 41.209827,15 39.0022275,15 Z" id="Fill-2"></path>
                </g>
            </g>
        </g>
    </g>
</svg>