<?xml version="1.0" encoding="UTF-8" standalone="no"?>
<!DOCTYPE svg PUBLIC "-//W3C//DTD SVG 1.1//EN" "http://www.w3.org/Graphics/SVG/1.1/DTD/svg11.dtd">
<svg width="100%" height="100%" viewBox="0 0 100 100" version="1.1" xmlns="http://www.w3.org/2000/svg" xmlns:xlink="http://www.w3.org/1999/xlink" xml:space="preserve" xmlns:serif="http://www.serif.com/" style="fill-rule:evenodd;clip-rule:evenodd;stroke-linejoin:round;stroke-miterlimit:1.41421;">
    <g transform="matrix(0.945394,0,0,0.945394,2.67676,2.78091)">
        <g>
            <path d="M50,19.199C41.898,19.199 35.398,25.801 35.398,33.801C35.398,41.903 42,48.403 50,48.403C58.102,48.403 64.602,41.801 64.602,33.801C64.602,25.801 58.102,19.199 50,19.199ZM51.102,37.601L47.801,40.902L41.301,34.402L44.602,31.101L47.801,34.3L55.402,26.699L58.703,29.999L51.102,37.601ZM79.2,29.699C77.899,28.499 77.399,26.597 78.098,24.999L78.7,23.499C79.7,21.199 78.399,18.601 76,17.898L74.399,17.499C72.7,16.999 71.5,15.499 71.399,13.699L71.399,11.999C71.297,9.499 69,7.699 66.598,8.101L65,8.398C63.199,8.699 61.5,7.898 60.699,6.296L59.899,4.898C58.699,2.699 55.899,2.097 53.899,3.5L52.598,4.398C51.199,5.398 49.199,5.398 47.797,4.398L46.496,3.398C44.496,1.898 41.598,2.597 40.395,4.796L39.594,6.195C38.695,7.796 36.992,8.593 35.195,8.296L33.594,7.996C31.094,7.597 28.895,9.394 28.695,11.894L28.594,13.496C28.492,15.296 27.293,16.796 25.594,17.296L24,17.8C21.602,18.5 20.301,21.101 21.301,23.402L21.902,24.902C22.602,26.504 22.102,28.402 20.801,29.601L19.602,30.703C17.703,32.304 17.703,35.304 19.602,36.902L20.801,38.004C22.102,39.203 22.602,41.105 21.902,42.703L21.301,44.203C20.301,46.504 21.602,49.101 24,49.804L25.602,50.203C27.301,50.703 28.5,52.203 28.602,54.004L28.703,55.605C28.805,58.105 31.102,59.906 33.504,59.504L35.106,59.203C36.906,58.902 38.606,59.703 39.406,61.304L40.207,62.703C41.406,64.902 44.207,65.504 46.207,64.101L47.508,63.203C48.906,62.203 50.906,62.203 52.309,63.203L53.61,64.203C55.61,65.703 58.508,65.004 59.711,62.804L60.512,61.406C61.411,59.804 63.114,59.008 64.91,59.304L66.512,59.605C69.012,60.004 71.211,58.207 71.41,55.707L71.512,54.105C71.614,52.304 72.813,50.804 74.512,50.304L76.114,49.906C78.512,49.207 79.813,46.605 78.813,44.304L78.211,42.804C77.512,41.203 78.012,39.304 79.313,38.105L80.512,37.003C82.41,35.402 82.41,32.402 80.512,30.804L79.2,29.699ZM50.001,54.101C38.802,54.101 29.802,44.999 29.802,33.902C29.802,22.703 38.903,13.703 50.001,13.703C61.2,13.703 70.2,22.804 70.2,33.902C70.2,44.999 61.2,54.101 50.001,54.101ZM18.603,89.3L28.403,64.8C29.704,65.401 31.204,65.8 32.704,65.8C33.306,65.8 33.903,65.698 34.505,65.6L34.704,65.6L34.806,65.8C36.501,68.999 40.001,70.999 43.802,70.999C44.802,70.999 45.903,70.8 46.802,70.499L36.501,96.397C36.2,97.198 35.102,97.295 34.7,96.498L29.802,87.897C29.602,87.596 29.302,87.498 29.001,87.596L19.802,90.494C19.001,90.799 18.302,89.998 18.603,89.299L18.603,89.3ZM63.501,96.698L53.103,70.698C54.103,70.999 55.103,71.198 56.103,71.198C59.903,71.198 63.302,69.198 65.103,65.897L65.204,65.698L65.403,65.698C66.005,65.8 66.603,65.897 67.204,65.897C68.806,65.897 70.204,65.499 71.603,64.897L81.403,89.596C81.704,90.397 81.005,91.198 80.204,90.897L71.005,87.999C70.704,87.897 70.403,87.999 70.204,88.299L65.306,96.901C64.9,97.499 63.802,97.397 63.501,96.698Z" style="fill:white;fill-rule:nonzero;"/>
        </g>
    </g>
</svg>
