<?xml version="1.0" encoding="UTF-8"?>
<svg fill="#FFFFFF" width="100pt" height="100pt" version="1.1" viewBox="0 0 100 100" xmlns="http://www.w3.org/2000/svg">
 <path d="m50 77.398l-26.301 13.801 5.1016-29.199-21.301-20.699 29.398-4.3008 13.102-26.602 13.102 26.602 29.398 4.3008-21.301 20.699 5.1016 29.199z"/>
</svg>
