<?xml version="1.0" encoding="UTF-8" standalone="no"?>
<!DOCTYPE svg PUBLIC "-//W3C//DTD SVG 1.1//EN" "http://www.w3.org/Graphics/SVG/1.1/DTD/svg11.dtd">
<svg width="100%" height="100%" viewBox="0 0 100 100" version="1.1" xmlns="http://www.w3.org/2000/svg" xmlns:xlink="http://www.w3.org/1999/xlink" xml:space="preserve" xmlns:serif="http://www.serif.com/" style="fill-rule:evenodd;clip-rule:evenodd;stroke-linejoin:round;stroke-miterlimit:1.41421;">
    <path d="M12,18C9.785,18 8,19.785 8,22L8,30L92,30L92,22C92,19.785 90.215,18 88,18L12,18ZM16,23L34,23C35.106,23 36,23.895 36,25C36,26.105 35.105,27 34,27L16,27C14.895,27 14,26.105 14,25C14,23.895 14.895,23 16,23ZM8,34L8,82L92,82L92,34L8,34ZM50,41L78,52L50,63L22,52L50,41ZM32,58.062L49.281,64.843C49.742,65.023 50.258,65.023 50.719,64.843L68,58.062L68,67C68,69.75 59.972,73 50,73C40.027,73 31.999,69.75 31.999,67L32,58.062Z" style="fill:white;fill-rule:nonzero;"/>
</svg>
