<?xml version="1.0" encoding="UTF-8"?>
<svg width="31px" height="31px" viewBox="0 0 31 31" version="1.1" xmlns="http://www.w3.org/2000/svg" xmlns:xlink="http://www.w3.org/1999/xlink">
    <!-- Generator: Sketch 42 (36781) - http://www.bohemiancoding.com/sketch -->
    <title>Shape</title>
    <desc>Created with Sketch.</desc>
    <defs></defs>
    <g id="Symbols" stroke="none" stroke-width="1" fill="none" fill-rule="evenodd">
        <g id="Screen-footer---notebook" transform="translate(-700.000000, -61.000000)" fill="#FFFFFF">
            <path d="M730.351278,86.5027697 L724.69125,80.835605 C724.181579,80.3252915 723.296362,80.3790087 722.384319,80.8624636 L719.782316,78.2571793 C721.150379,76.4576531 721.955123,74.2283892 721.955123,71.8111152 C721.955123,65.9290816 717.180313,61.1482507 711.305686,61.1482507 C705.43106,61.1482507 700.65625,65.8753644 700.65625,71.757398 C700.65625,77.6394315 705.43106,82.4202624 711.305686,82.4202624 C713.719916,82.4202624 715.973198,81.6145044 717.743633,80.2447157 L720.345636,82.85 C719.86279,83.7631924 719.835965,84.6495262 720.318811,85.1598397 L725.978839,90.8270044 C726.703108,91.5521866 728.258945,91.1493076 729.439235,89.9406706 C730.673175,88.7588921 731.048722,87.2010933 730.351278,86.5027697 Z M711.305686,79.9224125 C706.799124,79.9224125 703.177779,76.2696429 703.177779,71.7842566 C703.177779,67.2720117 706.825949,63.6461006 711.305686,63.6461006 C715.812249,63.6461006 719.433594,67.2988703 719.433594,71.7842566 C719.433594,76.2696429 715.785424,79.9224125 711.305686,79.9224125 Z" id="Shape"></path>
        </g>
    </g>
</svg>