<?xml version="1.0" encoding="UTF-8"?>
<svg width="16px" height="18px" viewBox="0 0 16 18" version="1.1" xmlns="http://www.w3.org/2000/svg" xmlns:xlink="http://www.w3.org/1999/xlink">
    <!-- Generator: Sketch 42 (36781) - http://www.bohemiancoding.com/sketch -->
    <title>Shape</title>
    <desc>Created with Sketch.</desc>
    <defs></defs>
    <g id="Symbols" stroke="none" stroke-width="1" fill="none" fill-rule="evenodd">
        <g id="Upvotes-and-downvotes" fill="#FFFFFF">
            <g id="Group-2">
                <path d="M15.9632503,10.8315225 C16.0281416,10.2475011 15.7685765,9.66347979 15.3143377,9.33902349 C14.7303163,8.94967592 14.0814037,8.88478466 13.4324911,8.81989339 L13.1729261,8.81989339 L12.913361,8.81989339 C12.0697746,8.75500213 11.3559707,8.62521961 11.2910795,7.976307 C11.2261882,7.65185069 11.2910795,7.26250312 11.3559707,7.00293808 L11.3559707,7.00293808 C11.4857533,6.2891342 11.8102096,5.64022159 12.3942309,4.66685267 C13.2378173,3.30413618 13.3675998,2.07120221 12.2644484,0.70848572 C11.161297,-0.654230769 9.34434164,0.254246891 9.14966786,0.903159505 C8.95499407,1.55207212 9.79858047,2.26587599 9.27945038,3.49880996 C9.01988533,4.21261384 7.33271254,5.31576528 5.96999605,6.54869925 C4.99662713,7.39228564 4.21793199,8.43054583 4.08814947,8.49543709 C3.6988019,8.69011087 0.713803875,8.49543709 0.713803875,8.49543709 C0.324456307,8.49543709 0,8.81989339 0,9.27413222 L0,16.1526059 C0,16.6068448 0.389347568,16.9961923 0.713803875,16.9313011 C2.72543298,16.9313011 3.76369316,16.9961923 4.41260577,17.1259749 C5.12640965,17.2557574 5.3859747,17.4504312 5.90510479,17.5802137 C5.90510479,17.5802137 7.26782128,17.8397787 8.82521155,17.90467 C10.3826018,17.9695612 12.1346659,17.8397787 12.913361,17.5153224 C12.9782523,17.5153224 12.9782523,17.5153224 13.0431435,17.4504312 C13.7569474,17.1908661 14.0814037,16.5419535 14.0165125,15.8930409 C14.3409688,15.6983671 14.6654251,15.3739108 14.7952076,14.9845632 C14.9249901,14.5952157 14.9249901,14.2707594 14.8600989,13.946303 C15.5090115,13.427173 15.7685765,12.5835866 15.4441202,11.8697827 C15.7685765,11.6102176 15.9632503,11.2208701 15.9632503,10.8315225 Z" id="Shape"></path>
            </g>
        </g>
    </g>
</svg>