<?xml version="1.0" encoding="UTF-8"?>
<svg width="23px" height="23px" viewBox="0 0 23 23" version="1.1" xmlns="http://www.w3.org/2000/svg" xmlns:xlink="http://www.w3.org/1999/xlink">
    <!-- Generator: Sketch 44.1 (41455) - http://www.bohemiancoding.com/sketch -->
    <title>Shape</title>
    <desc>Created with Sketch.</desc>
    <defs></defs>
    <g id="UI-MVP" stroke="none" stroke-width="1" fill="none" fill-rule="evenodd" opacity="0.603374094">
        <g id="Inspiring-content-detail-page---Learning---embedded---MacBook-Pro-13" transform="translate(-318.000000, -594.000000)" fill-rule="nonzero" fill="#6D6D6D">
            <g id="Group-8" transform="translate(125.000000, 590.000000)">
                <g id="Group-11">
                    <g id="time" transform="translate(193.000000, 4.000000)">
                        <path d="M15.5224772,10.0164474 L12.0730378,10.0164474 L12.0730378,4.83552632 C12.0730378,4.26320724 11.6097781,3.79934211 11.038206,3.79934211 C10.4666339,3.79934211 10.0033742,4.26320724 10.0033742,4.83552632 L10.0033742,11.0526316 C10.0033742,11.6249507 10.4666339,12.0888158 11.038206,12.0888158 L15.5224772,12.0888158 C16.0940493,12.0888158 16.557309,11.6249507 16.557309,11.0526316 C16.557309,10.4803125 16.0940493,10.0164474 15.5224772,10.0164474 Z M11.038206,9.23705556e-14 C4.94201178,9.23705556e-14 0,4.94847039 0,11.0526316 C0,17.1567928 4.94201178,22.1052632 11.038206,22.1052632 C17.1344002,22.1052632 22.076412,17.1567928 22.076412,11.0526316 C22.076412,4.94847039 17.1344002,9.23705556e-14 11.038206,9.23705556e-14 Z M11.038206,20.0328947 C6.08515599,20.0328947 2.06966362,16.0121546 2.06966362,11.0526316 C2.06966362,6.09310855 6.08515599,2.07236842 11.038206,2.07236842 C15.991256,2.07236842 20.0067483,6.09276316 20.0067483,11.0526316 C20.0067483,16.0121546 15.991256,20.0328947 11.038206,20.0328947 Z" id="Shape"></path>
                    </g>
                </g>
            </g>
        </g>
    </g>
</svg>