<?xml version="1.0" encoding="UTF-8" standalone="no"?>
<!DOCTYPE svg PUBLIC "-//W3C//DTD SVG 1.1//EN" "http://www.w3.org/Graphics/SVG/1.1/DTD/svg11.dtd">
<svg width="100%" height="100%" viewBox="0 0 38 43" version="1.1" xmlns="http://www.w3.org/2000/svg" xmlns:xlink="http://www.w3.org/1999/xlink" xml:space="preserve" style="fill-rule:evenodd;clip-rule:evenodd;stroke-linejoin:round;stroke-miterlimit:1.41421;">
    <g id="Shape" transform="matrix(1,0,0,1,-83.3606,0)">
        <path d="M120.965,25.959C121.116,24.56 120.514,23.16 119.463,22.382C118.11,21.449 116.608,21.294 115.105,21.138L114.504,21.138L113.903,21.138C111.949,20.983 110.296,20.672 110.146,19.116C109.996,18.339 110.146,17.406 110.296,16.784C110.597,15.073 111.348,13.518 112.701,11.185C114.654,7.919 114.955,4.964 112.4,1.698C109.846,-1.568 105.638,0.609 105.187,2.165C104.737,3.72 106.69,5.43 105.488,8.385C104.887,10.096 100.98,12.74 97.824,15.695C95.57,17.717 93.767,20.205 93.467,20.361C92.565,20.827 85.653,20.361 85.653,20.361C84.751,20.361 84,21.138 84,22.227L84,38.712C84,39.801 84.902,40.734 85.653,40.578C90.311,40.578 92.715,40.734 94.218,41.045C95.871,41.356 96.472,41.822 97.674,42.133C97.674,42.133 100.83,42.756 104.436,42.911C108.042,43.067 112.1,42.756 113.903,41.978C114.053,41.978 114.053,41.978 114.203,41.822C115.856,41.2 116.608,39.645 116.457,38.09C117.209,37.623 117.96,36.846 118.261,35.913C118.561,34.979 118.561,34.202 118.411,33.424C119.913,32.18 120.514,30.158 119.763,28.448C120.514,27.826 120.965,26.892 120.965,25.959Z" style="fill:rgb(179,179,179);"/>
    </g>
</svg>
