<?xml version="1.0" encoding="UTF-8"?>
<svg width="27px" height="18px" viewBox="0 0 27 18" version="1.1" xmlns="http://www.w3.org/2000/svg" xmlns:xlink="http://www.w3.org/1999/xlink">
    <!-- Generator: Sketch 44.1 (41455) - http://www.bohemiancoding.com/sketch -->
    <title>np_eye_888692_6D6D6D</title>
    <desc>Created with Sketch.</desc>
    <defs></defs>
    <g id="UI-MVP" stroke="none" stroke-width="1" fill="none" fill-rule="evenodd" opacity="0.604393116">
        <g id="Inspiring-content-detail-page---Learning---embedded---MacBook-Pro-13" transform="translate(-637.000000, -597.000000)" fill-rule="nonzero" fill="#6D6D6D">
            <g id="Group-8" transform="translate(180.000000, 590.000000)">
                <g id="Group-13" transform="translate(457.000000, 7.000000)">
                    <g id="np_eye_888692_6D6D6D">
                        <path d="M13.2458472,0.0315240275 C5.58091694,0.0315240275 0.214141196,8.84210526 0.214141196,8.84210526 C0.214141196,8.84210526 4.12350581,17.6526865 13.2458472,17.6526865 C22.4443522,17.6526865 26.2775532,8.84210526 26.2775532,8.84210526 C26.2775532,8.84210526 20.9884128,0.0315240275 13.2458472,0.0315240275 Z M13.2458472,14.448 C10.2563331,14.448 7.88054319,11.9656751 7.88054319,8.84210526 C7.88054319,5.71853547 10.2563331,3.23621053 13.2458472,3.23621053 C16.2353613,3.23621053 18.6111512,5.71853547 18.6111512,8.84210526 C18.6111512,11.9656751 16.2353613,14.448 13.2458472,14.448 L13.2458472,14.448 Z" id="Shape"></path>
                        <path d="M15.5454734,8.84210526 C15.5454734,10.1696128 14.5163815,11.2448513 13.2458472,11.2448513 C11.9753129,11.2448513 10.9462209,10.1696128 10.9462209,8.84210526 C10.9462209,7.51459771 11.9753129,6.43935927 13.2458472,6.43935927 C14.5163815,6.43935927 15.5454734,7.51459771 15.5454734,8.84210526" id="Shape"></path>
                    </g>
                </g>
            </g>
        </g>
    </g>
</svg>